
VertexLitGeneric
{

	$basetexture models/jessev92/characters/hl2/male/citcombine/citizen_sheet_combine2_d
	$bumpmap models/jessev92/characters/hl2/male/citcombine/citizen_sheet_combine_b
	$lightwarptexture dev/identitylightwarp

	$halflambert 1
	$ambientocclusion 1
	$nocull 1

	$phong 0
	$phongexponent 30
	$phongboost 1
	$phongfresnelranges "[ 0.1 2.1 5.1 ]"
	$phongalbedotint 1

	$rimlight 1
	$rimlightexponent 80
	$rimlightboost 0.1

}
