
$mostlyopaque
$origin 0 0 0 180
$modelname	jessev92/cobra/vehicles/Ferret_chassis
$model	Ferret	ferret/chassis
$cdmaterials	models/jessev92/cobra
$cdmaterials	models/jessev92/cobra/vehicles
$cdmaterials	models/jessev92/cobra/vehicles/ferret

$texturegroup skinfamilies
{
	{	"ferret"		}
	{	"ferret_wreck"		}
}
$hboxset			default
$surfaceprop		metalvehicle
$illumposition		0 0 0
$sequence	idle	ferret/idle	fps 1
$collisionmodel		ferret/chassis_phy {

	$concave
	$mass 500.0
	$inertia 1.00
	$damping 0.00
	$rotdamping 0.00
}
