
vertexlitgeneric
{

	$basetexture models/jessev92/characters/kl/militant/fatigues_tan_d
	$bumpmap models/jessev92/characters/kl/militant/fatigues_b
	$lightwarptexture dev/identitylightwarp
	
	$surfaceprop carpet
	$nocull 1
	$halflambert 1
	$ambientocclusion 1

	$proxytoggle 1
	proxies
	{

		equals
		{

			srcvar1 $proxytoggle // disable proxies
			resultvar $color // the shader parameter to be manipulated

		}

	}

}
