
//	Joe Facemap 2
//	Texture @ HL2
//	Shaders @ Reverend V92
//	Creation: 2017/03/30
//	Update: 2018/07/14

vertexlitgeneric
{

	$basetexture models/characters/citizen/male/facemaps/joe_facemap2_d
	$bumpmap models/characters/citizen/male/facemaps/joe_facemap_b
	$lightwarptexture dev/identitylightwarp

	$surfaceprop flesh
	$ambientocclusion 1
	$halflambert 1
	$nocull 0
	$nodecal 0
	$diffuseexp 1.5

	$phong 1
	$phongboost 2
	$phongexponent 1
	$phongtint "{ 150 120 120 }"
	$phongfresnelranges "[ 0.1 0.2 1 ]"
	
	$rimlight 1
	$rimlightexponent 3
	$rimlightboost 0.5
	
	$detail detail/skin1
	$detailscale 12
	$detailblendfactor 0.9
	$detailblendmode 0

	$proxytoggle 1
	Proxies
	{

		Equals
		{

			srcVar1 $proxytoggle // Disable Proxies
			resultVar $color // The shader parameter to be manipulated

		}

	}

}
