// Created by Crowbar 0.29.0.0
version 1
nodes
  0 "ValveBiped.Bip01_Pelvis" -1
  1 "ValveBiped.Bip01_Spine" 0
  2 "ValveBiped.Bip01_Spine1" 1
  3 "ValveBiped.Bip01_Spine2" 2
  4 "ValveBiped.Bip01_Spine4" 3
  5 "ValveBiped.Bip01_Neck1" 4
  6 "ValveBiped.Bip01_Head1" 5
  7 "ValveBiped.forward" 6
  8 "ValveBiped.Bip01_R_Clavicle" 4
  9 "ValveBiped.Bip01_R_UpperArm" 8
  10 "ValveBiped.Bip01_R_Forearm" 9
  11 "ValveBiped.Bip01_R_Hand" 10
  12 "ValveBiped.Anim_Attachment_RH" 11
  13 "ValveBiped.Bip01_L_Clavicle" 4
  14 "ValveBiped.Bip01_L_UpperArm" 13
  15 "ValveBiped.Bip01_L_Forearm" 14
  16 "ValveBiped.Bip01_L_Hand" 15
  17 "ValveBiped.Anim_Attachment_LH" 16
  18 "ValveBiped.Bip01_R_Thigh" 0
  19 "ValveBiped.Bip01_R_Calf" 18
  20 "ValveBiped.Bip01_R_Foot" 19
  21 "ValveBiped.Bip01_L_Thigh" 0
  22 "ValveBiped.Bip01_L_Calf" 21
  23 "ValveBiped.Bip01_L_Foot" 22
  24 "ValveBiped.Bip01_R_Finger4" 11
  25 "ValveBiped.Bip01_R_Finger41" 24
  26 "ValveBiped.Bip01_R_Finger42" 25
  27 "ValveBiped.Bip01_R_Finger3" 11
  28 "ValveBiped.Bip01_R_Finger31" 27
  29 "ValveBiped.Bip01_R_Finger32" 28
  30 "ValveBiped.Bip01_R_Finger2" 11
  31 "ValveBiped.Bip01_R_Finger21" 30
  32 "ValveBiped.Bip01_R_Finger22" 31
  33 "ValveBiped.Bip01_R_Finger1" 11
  34 "ValveBiped.Bip01_R_Finger11" 33
  35 "ValveBiped.Bip01_R_Finger12" 34
  36 "ValveBiped.Bip01_R_Finger0" 11
  37 "ValveBiped.Bip01_R_Finger01" 36
  38 "ValveBiped.Bip01_R_Finger02" 37
  39 "ValveBiped.Bip01_R_Wrist" 10
  40 "ValveBiped.Bip01_L_Finger4" 16
  41 "ValveBiped.Bip01_L_Finger41" 40
  42 "ValveBiped.Bip01_L_Finger42" 41
  43 "ValveBiped.Bip01_L_Finger3" 16
  44 "ValveBiped.Bip01_L_Finger31" 43
  45 "ValveBiped.Bip01_L_Finger32" 44
  46 "ValveBiped.Bip01_L_Finger2" 16
  47 "ValveBiped.Bip01_L_Finger21" 46
  48 "ValveBiped.Bip01_L_Finger22" 47
  49 "ValveBiped.Bip01_L_Finger1" 16
  50 "ValveBiped.Bip01_L_Finger11" 49
  51 "ValveBiped.Bip01_L_Finger12" 50
  52 "ValveBiped.Bip01_L_Finger0" 16
  53 "ValveBiped.Bip01_L_Finger01" 52
  54 "ValveBiped.Bip01_L_Finger02" 53
  55 "ValveBiped.Bip01_L_Wrist" 15
  56 "ValveBiped.Bip01_R_Toe0" 20
  57 "ValveBiped.Bip01_L_Toe0" 23
end
skeleton
  time 0
    0 0.000000 -0.533612 38.566914 1.570796 0.000000 0.000000
    1 0.000000 3.345131 -2.981898 1.570796 0.083193 1.570796
    2 3.995838 0.000000 0.000000 0.000000 0.000000 -0.028816
    3 3.520298 0.000000 0.000000 0.000000 0.000000 0.097307
    4 8.921474 0.000000 0.000000 0.000000 0.000000 0.186413
    5 3.306362 0.000001 0.000000 3.141590 0.000000 0.406109
    6 3.602001 0.000000 0.000000 0.000000 -0.000001 0.405033
    7 2.000000 -3.000001 0.000000 -1.570796 0.000000 -1.326450
    8 2.059532 0.977923 -1.937661 -1.661569 1.286515 2.950147
    9 6.028137 0.000004 0.000000 1.633734 -0.011884 -0.586789
    10 11.692554 0.000000 -0.000004 0.000000 0.000000 -0.060372
    11 11.481691 0.000000 -0.000004 -1.559993 0.038701 0.036022
    12 2.676085 -1.712444 0.000000 -1.570796 0.000000 -1.570795
    13 2.059528 0.977923 1.937661 1.589740 -1.286513 2.950147
    14 6.028142 0.000004 0.000000 -1.573855 0.051611 -0.584887
    15 11.692558 0.000000 -0.000004 0.000000 0.000000 -0.060372
    16 11.481674 0.000000 -0.000042 1.568292 -0.038709 0.036022
    17 2.676084 -1.712440 0.000000 1.570797 0.000001 1.570797
    18 -3.890447 0.000000 0.000000 -1.570796 0.051839 -1.576018
    19 17.848167 0.000000 0.000000 0.000000 0.000000 0.034200
    20 16.525234 0.000000 0.000000 0.038609 0.040781 -1.071639
    21 3.890447 0.000000 0.000000 -1.570796 0.051839 -1.565574
    22 17.848158 0.000000 0.000000 0.000000 0.000000 0.034200
    23 16.525234 0.000000 0.000000 -0.027915 -0.040781 -1.071638
    24 3.859672 -0.132576 1.193110 0.479140 -0.158545 -0.879041
    25 1.312572 -0.000004 0.000001 0.000000 -0.011932 -0.439672
    26 0.729359 -0.000006 0.000001 0.000000 -0.006134 -0.244271
    27 3.942296 0.050323 0.431045 0.154999 -0.079305 -0.810205
    28 1.539116 0.000004 0.000003 0.000000 -0.005854 -0.247771
    29 1.196320 -0.000002 -0.000001 0.000000 -0.009663 -0.430761
    30 3.881349 0.211353 -0.402026 -0.087717 -0.035763 -0.519702
    31 1.719601 -0.000008 0.000001 0.000000 -0.007584 -0.366444
    32 1.209175 -0.000004 0.000000 0.000000 -0.004241 -0.216380
    33 3.871253 0.106625 -1.301832 -0.352486 0.029262 -0.464072
    34 1.719419 -0.000004 -0.000003 0.000000 -0.007737 -0.362953
    35 1.099667 0.000002 0.000003 -0.000001 -0.004929 -0.244295
    36 0.838812 -0.311192 -1.310236 1.248034 0.664310 -0.725028
    37 1.789787 -0.000007 0.000002 0.000001 0.003279 0.228617
    38 1.207005 0.000002 -0.000004 0.000000 0.005010 0.362995
    39 11.481720 0.000000 -0.000050 0.000150 0.000000 0.000000
    40 3.859700 -0.142410 -1.191979 -0.479144 0.152190 -0.879874
    41 1.312572 0.000000 0.000000 0.000000 0.009665 -0.439720
    42 0.729362 -0.000004 0.000000 0.000000 0.004971 -0.244299
    43 3.942321 0.046772 -0.431444 -0.155014 0.073328 -0.810648
    44 1.539085 -0.000006 0.000000 0.000000 0.004460 -0.247797
    45 1.196320 0.000007 0.000002 0.000000 0.007361 -0.430802
    46 3.881356 0.214684 0.400259 0.087707 0.031641 -0.519952
    47 1.719574 -0.000004 0.000000 0.000000 0.005005 -0.366486
    48 1.209179 0.000008 0.000000 0.000000 0.002798 -0.216404
    49 3.871284 0.117409 1.300907 0.352467 -0.032975 -0.463848
    50 1.719419 -0.000015 0.000004 0.000000 0.005107 -0.362997
    51 1.099667 -0.000010 -0.000004 0.000000 0.003255 -0.244324
    52 0.838823 -0.300285 1.312777 -1.251009 -0.669799 -0.720133
    53 1.789785 0.000001 0.000008 0.000000 -0.002159 0.228630
    54 1.207012 -0.000008 0.000002 0.000000 -0.003300 0.363014
    55 11.481709 -0.000002 -0.000031 0.001272 0.000000 0.000000
    56 6.879425 0.000004 0.000000 -0.081334 -0.002949 -0.584373
    57 6.879436 -0.000001 0.000000 -0.007299 -0.002951 -0.584373
end
triangles
tiesandties
  3 0.468900 -4.886303 52.967697 0.250696 -0.966284 0.058699 0.450500 -0.510300 3 3 0.579000 2 0.225000 4 0.196000
  3 1.097400 -4.549902 52.970097 0.973300 0.225300 0.043900 0.436800 -0.510300 3 3 0.579000 2 0.226000 4 0.195000
  3 0.365700 -4.784103 55.183594 0.272910 -0.957534 0.093003 0.452200 -0.401700 3 3 0.610939 4 0.337461 2 0.051600
tiesandties
  3 0.468900 -4.886303 52.967697 0.250696 -0.966284 0.058699 0.450500 -0.510300 3 3 0.579000 2 0.225000 4 0.196000
  3 0.365700 -4.784103 55.183594 0.272910 -0.957534 0.093003 0.452200 -0.401700 3 3 0.610939 4 0.337461 2 0.051600
  3 -0.376500 -4.778203 55.182892 -0.283891 -0.952469 0.110496 0.468400 -0.401700 3 3 0.610939 4 0.337461 2 0.051600
tiesandties
  3 -0.446300 -4.896103 52.967598 -0.227594 -0.971973 0.058898 0.470100 -0.510300 3 3 0.579000 2 0.225000 4 0.196000
  3 0.468900 -4.886303 52.967697 0.250696 -0.966284 0.058699 0.450500 -0.510300 3 3 0.579000 2 0.225000 4 0.196000
  3 -0.376500 -4.778203 55.182892 -0.283891 -0.952469 0.110496 0.468400 -0.401700 3 3 0.610939 4 0.337461 2 0.051600
tiesandties
  3 -1.111300 -4.561802 52.969997 -0.977655 0.208190 0.029099 0.483800 -0.510300 3 3 0.579000 2 0.225000 4 0.196000
  3 -0.446300 -4.896103 52.967598 -0.227594 -0.971973 0.058898 0.470100 -0.510300 3 3 0.579000 2 0.225000 4 0.196000
  3 -0.376500 -4.778203 55.182892 -0.283891 -0.952469 0.110496 0.468400 -0.401700 3 3 0.610939 4 0.337461 2 0.051600
tiesandties
  3 -0.376500 -4.778203 55.182892 -0.283891 -0.952469 0.110496 0.468400 -0.401700 3 3 0.610939 4 0.337461 2 0.051600
  3 0.365700 -4.784103 55.183594 0.272910 -0.957534 0.093003 0.452200 -0.401700 3 3 0.610939 4 0.337461 2 0.051600
  4 -0.278800 -4.496503 57.667191 -0.409713 -0.867528 0.282009 0.465900 -0.289300 2 4 0.763875 3 0.236125
tiesandties
  3 -0.446300 -4.570902 52.964798 0.001500 0.998507 -0.054600 0.470100 -0.510300 3 3 0.579000 2 0.225000 4 0.196000
  3 -1.111300 -4.561802 52.969997 -0.977655 0.208190 0.029099 0.483800 -0.510300 3 3 0.579000 2 0.225000 4 0.196000
  3 -0.376500 -4.454202 55.099796 0.008700 0.995256 -0.096896 0.468400 -0.401700 3 3 0.610939 4 0.337461 2 0.051600
tiesandties
  3 0.468900 -4.561102 52.964798 -0.012200 0.998660 -0.050298 0.450500 -0.510300 3 3 0.578000 2 0.226000 4 0.196000
  3 -0.446300 -4.570902 52.964798 0.001500 0.998507 -0.054600 0.470100 -0.510300 3 3 0.579000 2 0.225000 4 0.196000
  3 -0.376500 -4.454202 55.099796 0.008700 0.995256 -0.096896 0.468400 -0.401700 3 3 0.610939 4 0.337461 2 0.051600
tiesandties
  3 0.365700 -4.460103 55.100597 0.002800 0.995606 -0.093601 0.452200 -0.401700 3 3 0.611340 4 0.337113 2 0.051546
  3 0.468900 -4.561102 52.964798 -0.012200 0.998660 -0.050298 0.450500 -0.510300 3 3 0.578000 2 0.226000 4 0.196000
  3 -0.376500 -4.454202 55.099796 0.008700 0.995256 -0.096896 0.468400 -0.401700 3 3 0.610939 4 0.337461 2 0.051600
tiesandties
  3 1.097400 -4.549902 52.970097 0.973300 0.225300 0.043900 0.436800 -0.510300 3 3 0.579000 2 0.226000 4 0.195000
  3 0.468900 -4.561102 52.964798 -0.012200 0.998660 -0.050298 0.450500 -0.510300 3 3 0.578000 2 0.226000 4 0.196000
  3 0.365700 -4.460103 55.100597 0.002800 0.995606 -0.093601 0.452200 -0.401700 3 3 0.611340 4 0.337113 2 0.051546
tiesandties
  3 0.365700 -4.460103 55.100597 0.002800 0.995606 -0.093601 0.452200 -0.401700 3 3 0.611340 4 0.337113 2 0.051546
  3 0.878600 -4.460202 55.095993 0.962931 0.268109 0.029701 0.440600 -0.401700 2 3 0.642470 4 0.357530
  3 1.097400 -4.549902 52.970097 0.973300 0.225300 0.043900 0.436800 -0.510300 3 3 0.579000 2 0.226000 4 0.195000
tiesandties
  3 0.878600 -4.460202 55.095993 0.962931 0.268109 0.029701 0.440600 -0.401700 2 3 0.642470 4 0.357530
  3 0.365700 -4.784103 55.183594 0.272910 -0.957534 0.093003 0.452200 -0.401700 3 3 0.610939 4 0.337461 2 0.051600
  3 1.097400 -4.549902 52.970097 0.973300 0.225300 0.043900 0.436800 -0.510300 3 3 0.579000 2 0.226000 4 0.195000
tiesandties
  3 0.878600 -4.460202 55.095993 0.962931 0.268109 0.029701 0.440600 -0.401700 2 3 0.642470 4 0.357530
  4 0.288900 -4.498503 57.667393 0.405500 -0.864500 0.297000 0.453400 -0.289300 2 4 0.765893 3 0.234107
  3 0.365700 -4.784103 55.183594 0.272910 -0.957534 0.093003 0.452200 -0.401700 3 3 0.610939 4 0.337461 2 0.051600
tiesandties
  4 0.288900 -4.498503 57.667393 0.405500 -0.864500 0.297000 0.453400 -0.289300 2 4 0.765893 3 0.234107
  4 -0.278800 -4.496503 57.667191 -0.409713 -0.867528 0.282009 0.465900 -0.289300 2 4 0.763875 3 0.236125
  3 0.365700 -4.784103 55.183594 0.272910 -0.957534 0.093003 0.452200 -0.401700 3 3 0.610939 4 0.337461 2 0.051600
tiesandties
  4 0.288900 -4.498503 57.667393 0.405500 -0.864500 0.297000 0.453400 -0.289300 2 4 0.765893 3 0.234107
  4 0.192600 -3.705803 59.202694 0.544921 -0.747429 0.380015 0.455600 -0.224600 2 4 0.867000 3 0.133000
  4 -0.278800 -4.496503 57.667191 -0.409713 -0.867528 0.282009 0.465900 -0.289300 2 4 0.763875 3 0.236125
tiesandties
  4 0.626300 -4.105902 57.518791 0.926879 0.374191 -0.029599 0.443300 -0.289300 2 4 0.774194 3 0.225807
  4 0.192600 -3.705803 59.202694 0.544921 -0.747429 0.380015 0.455600 -0.224600 2 4 0.867000 3 0.133000
  4 0.288900 -4.498503 57.667393 0.405500 -0.864500 0.297000 0.453400 -0.289300 2 4 0.765893 3 0.234107
tiesandties
  4 0.348000 -3.265702 59.155289 0.780090 0.396495 -0.483994 0.446000 -0.221600 2 4 0.868000 3 0.132000
  4 0.192600 -3.705803 59.202694 0.544921 -0.747429 0.380015 0.455600 -0.224600 2 4 0.867000 3 0.133000
  4 0.626300 -4.105902 57.518791 0.926879 0.374191 -0.029599 0.443300 -0.289300 2 4 0.774194 3 0.225807
tiesandties
  4 0.192600 -3.269502 59.156792 -0.009000 0.796099 -0.605099 0.455600 -0.224600 2 4 0.867000 3 0.133000
  4 0.348000 -3.265702 59.155289 0.780090 0.396495 -0.483994 0.446000 -0.221600 2 4 0.868000 3 0.132000
  4 0.626300 -4.105902 57.518791 0.926879 0.374191 -0.029599 0.443300 -0.289300 2 4 0.774194 3 0.225807
tiesandties
  4 0.348000 -3.265702 59.155289 0.780090 0.396495 -0.483994 0.446000 -0.221600 2 4 0.868000 3 0.132000
  4 0.192600 -3.269502 59.156792 -0.009000 0.796099 -0.605099 0.455600 -0.224600 2 4 0.867000 3 0.133000
  4 0.527200 -2.670802 59.715591 -0.180092 0.858261 -0.480578 0.446000 -0.185500 2 4 0.904412 3 0.095588
tiesandties
  4 0.527200 -2.670802 59.715591 -0.180092 0.858261 -0.480578 0.446000 -0.185500 2 4 0.904412 3 0.095588
  4 0.192600 -3.269502 59.156792 -0.009000 0.796099 -0.605099 0.455600 -0.224600 2 4 0.867000 3 0.133000
  4 0.000300 -2.673702 59.697388 0.002200 0.919530 -0.393013 0.461000 -0.191600 3 4 0.848000 3 0.085000 5 0.067000
tiesandties
  4 0.527200 -2.670802 59.715591 -0.180092 0.858261 -0.480578 0.446000 -0.185500 2 4 0.904412 3 0.095588
  4 0.000300 -2.673702 59.697388 0.002200 0.919530 -0.393013 0.461000 -0.191600 3 4 0.848000 3 0.085000 5 0.067000
  4 -0.005100 -2.726002 60.959389 0.002500 0.067202 0.997736 0.461000 -0.155500 2 4 0.794000 5 0.206000
tiesandties
  4 -0.005100 -2.726002 60.959389 0.002500 0.067202 0.997736 0.461000 -0.155500 2 4 0.794000 5 0.206000
  4 0.000300 -2.673702 59.697388 0.002200 0.919530 -0.393013 0.461000 -0.191600 3 4 0.848000 3 0.085000 5 0.067000
  4 -0.504600 -2.668103 59.714695 0.115903 0.847422 -0.518114 0.474600 -0.185500 2 4 0.898216 3 0.101784
tiesandties
  4 -0.005100 -2.726002 60.959389 0.002500 0.067202 0.997736 0.461000 -0.155500 2 4 0.794000 5 0.206000
  4 -0.504600 -2.668103 59.714695 0.115903 0.847422 -0.518114 0.474600 -0.185500 2 4 0.898216 3 0.101784
  4 -0.646500 -2.347001 60.919388 -0.361403 0.533204 0.764906 0.474600 -0.152500 2 4 0.793000 5 0.207000
tiesandties
  4 -0.646500 -2.347001 60.919388 -0.361403 0.533204 0.764906 0.474600 -0.152500 2 4 0.793000 5 0.207000
  4 -0.504600 -2.668103 59.714695 0.115903 0.847422 -0.518114 0.474600 -0.185500 2 4 0.898216 3 0.101784
  4 -0.890900 -2.273502 60.210789 -0.668132 0.734235 -0.120406 0.484100 -0.164500 3 4 0.828000 5 0.115000 3 0.057000
tiesandties
  4 0.192600 -3.269502 59.156792 -0.009000 0.796099 -0.605099 0.455600 -0.224600 2 4 0.867000 3 0.133000
  4 0.626300 -4.105902 57.518791 0.926879 0.374191 -0.029599 0.443300 -0.289300 2 4 0.774194 3 0.225807
  4 0.288900 -4.112103 57.523293 -0.008500 0.951994 -0.305998 0.453400 -0.289300 2 4 0.770161 3 0.229839
tiesandties
  4 -0.662600 -2.593303 59.786591 -0.680169 0.369583 -0.633071 0.480000 -0.191600 3 4 0.849000 3 0.090000 5 0.061000
  4 -0.890900 -2.273502 60.210789 -0.668132 0.734235 -0.120406 0.484100 -0.164500 3 4 0.828000 5 0.115000 3 0.057000
  4 -0.504600 -2.668103 59.714695 0.115903 0.847422 -0.518114 0.474600 -0.185500 2 4 0.898216 3 0.101784
tiesandties
  4 -0.504600 -3.029702 60.177788 -0.691710 -0.665810 0.279704 0.474600 -0.185500 3 4 0.834000 5 0.101000 3 0.065000
  4 -0.646500 -2.347001 60.919388 -0.361403 0.533204 0.764906 0.474600 -0.152500 2 4 0.793000 5 0.207000
  4 -0.890900 -2.273502 60.210789 -0.668132 0.734235 -0.120406 0.484100 -0.164500 3 4 0.828000 5 0.115000 3 0.057000
tiesandties
  4 -0.890900 -2.273502 60.210789 -0.668132 0.734235 -0.120406 0.484100 -0.164500 3 4 0.828000 5 0.115000 3 0.057000
  4 -0.662600 -2.593303 59.786591 -0.680169 0.369583 -0.633071 0.480000 -0.191600 3 4 0.849000 3 0.090000 5 0.061000
  4 -0.504600 -3.029702 60.177788 -0.691710 -0.665810 0.279704 0.474600 -0.185500 3 4 0.834000 5 0.101000 3 0.065000
tiesandties
  4 -0.504600 -3.029702 60.177788 -0.691710 -0.665810 0.279704 0.474600 -0.185500 3 4 0.834000 5 0.101000 3 0.065000
  4 -0.662600 -2.593303 59.786591 -0.680169 0.369583 -0.633071 0.480000 -0.191600 3 4 0.849000 3 0.090000 5 0.061000
  4 -0.324500 -3.267503 59.155693 -0.789480 0.406590 -0.459789 0.474600 -0.221600 2 4 0.862000 3 0.138000
tiesandties
  4 -0.662600 -2.593303 59.786591 -0.680169 0.369583 -0.633071 0.480000 -0.191600 3 4 0.849000 3 0.090000 5 0.061000
  4 -0.504600 -2.668103 59.714695 0.115903 0.847422 -0.518114 0.474600 -0.185500 2 4 0.898216 3 0.101784
  4 -0.324500 -3.267503 59.155693 -0.789480 0.406590 -0.459789 0.474600 -0.221600 2 4 0.862000 3 0.138000
tiesandties
  4 -0.324500 -3.267503 59.155693 -0.789480 0.406590 -0.459789 0.474600 -0.221600 2 4 0.862000 3 0.138000
  4 -0.504600 -2.668103 59.714695 0.115903 0.847422 -0.518114 0.474600 -0.185500 2 4 0.898216 3 0.101784
  4 -0.168700 -3.269402 59.157593 0.005400 0.795466 -0.605974 0.465100 -0.224600 2 4 0.863000 3 0.137000
tiesandties
  4 -0.504600 -2.668103 59.714695 0.115903 0.847422 -0.518114 0.474600 -0.185500 2 4 0.898216 3 0.101784
  4 0.000300 -2.673702 59.697388 0.002200 0.919530 -0.393013 0.461000 -0.191600 3 4 0.848000 3 0.085000 5 0.067000
  4 -0.168700 -3.269402 59.157593 0.005400 0.795466 -0.605974 0.465100 -0.224600 2 4 0.863000 3 0.137000
tiesandties
  4 -0.168700 -3.269402 59.157593 0.005400 0.795466 -0.605974 0.465100 -0.224600 2 4 0.863000 3 0.137000
  4 0.000300 -2.673702 59.697388 0.002200 0.919530 -0.393013 0.461000 -0.191600 3 4 0.848000 3 0.085000 5 0.067000
  4 0.192600 -3.269502 59.156792 -0.009000 0.796099 -0.605099 0.455600 -0.224600 2 4 0.867000 3 0.133000
tiesandties
  4 -0.278800 -4.110103 57.523197 0.016100 0.952311 -0.304704 0.465900 -0.289300 2 4 0.768145 3 0.231855
  4 -0.168700 -3.269402 59.157593 0.005400 0.795466 -0.605974 0.465100 -0.224600 2 4 0.863000 3 0.137000
  4 0.192600 -3.269502 59.156792 -0.009000 0.796099 -0.605099 0.455600 -0.224600 2 4 0.867000 3 0.133000
tiesandties
  4 0.192600 -3.269502 59.156792 -0.009000 0.796099 -0.605099 0.455600 -0.224600 2 4 0.867000 3 0.133000
  4 0.288900 -4.112103 57.523293 -0.008500 0.951994 -0.305998 0.453400 -0.289300 2 4 0.770161 3 0.229839
  4 -0.278800 -4.110103 57.523197 0.016100 0.952311 -0.304704 0.465900 -0.289300 2 4 0.768145 3 0.231855
tiesandties
  4 -0.278800 -4.110103 57.523197 0.016100 0.952311 -0.304704 0.465900 -0.289300 2 4 0.768145 3 0.231855
  4 0.288900 -4.112103 57.523293 -0.008500 0.951994 -0.305998 0.453400 -0.289300 2 4 0.770161 3 0.229839
  3 0.365700 -4.460103 55.100597 0.002800 0.995606 -0.093601 0.452200 -0.401700 3 3 0.611340 4 0.337113 2 0.051546
tiesandties
  4 0.288900 -4.112103 57.523293 -0.008500 0.951994 -0.305998 0.453400 -0.289300 2 4 0.770161 3 0.229839
  3 0.878600 -4.460202 55.095993 0.962931 0.268109 0.029701 0.440600 -0.401700 2 3 0.642470 4 0.357530
  3 0.365700 -4.460103 55.100597 0.002800 0.995606 -0.093601 0.452200 -0.401700 3 3 0.611340 4 0.337113 2 0.051546
tiesandties
  4 0.288900 -4.112103 57.523293 -0.008500 0.951994 -0.305998 0.453400 -0.289300 2 4 0.770161 3 0.229839
  4 0.626300 -4.105902 57.518791 0.926879 0.374191 -0.029599 0.443300 -0.289300 2 4 0.774194 3 0.225807
  3 0.878600 -4.460202 55.095993 0.962931 0.268109 0.029701 0.440600 -0.401700 2 3 0.642470 4 0.357530
tiesandties
  4 0.626300 -4.105902 57.518791 0.926879 0.374191 -0.029599 0.443300 -0.289300 2 4 0.774194 3 0.225807
  4 0.288900 -4.498503 57.667393 0.405500 -0.864500 0.297000 0.453400 -0.289300 2 4 0.765893 3 0.234107
  3 0.878600 -4.460202 55.095993 0.962931 0.268109 0.029701 0.440600 -0.401700 2 3 0.642470 4 0.357530
tiesandties
  4 -0.504600 -3.029702 60.177788 -0.691710 -0.665810 0.279704 0.474600 -0.185500 3 4 0.834000 5 0.101000 3 0.065000
  4 -0.005100 -2.726002 60.959389 0.002500 0.067202 0.997736 0.461000 -0.155500 2 4 0.794000 5 0.206000
  4 -0.646500 -2.347001 60.919388 -0.361403 0.533204 0.764906 0.474600 -0.152500 2 4 0.793000 5 0.207000
tiesandties
  4 0.530400 -2.444302 60.912388 0.295103 0.500305 0.814008 0.446000 -0.152500 2 4 0.794000 5 0.206000
  4 0.527200 -2.670802 59.715591 -0.180092 0.858261 -0.480578 0.446000 -0.185500 2 4 0.904412 3 0.095588
  4 -0.005100 -2.726002 60.959389 0.002500 0.067202 0.997736 0.461000 -0.155500 2 4 0.794000 5 0.206000
tiesandties
  4 -0.504600 -3.029702 60.177788 -0.691710 -0.665810 0.279704 0.474600 -0.185500 3 4 0.834000 5 0.101000 3 0.065000
  4 -0.324500 -3.267503 59.155693 -0.789480 0.406590 -0.459789 0.474600 -0.221600 2 4 0.862000 3 0.138000
  4 -0.168700 -3.685902 59.292892 -0.496288 -0.777481 0.386291 0.465100 -0.224600 2 4 0.863000 3 0.137000
tiesandties
  4 -0.630500 -4.101102 57.518494 -0.935684 0.346894 -0.064499 0.475900 -0.289300 2 4 0.782915 3 0.217085
  4 -0.168700 -3.685902 59.292892 -0.496288 -0.777481 0.386291 0.465100 -0.224600 2 4 0.863000 3 0.137000
  4 -0.324500 -3.267503 59.155693 -0.789480 0.406590 -0.459789 0.474600 -0.221600 2 4 0.862000 3 0.138000
tiesandties
  4 -0.168700 -3.269402 59.157593 0.005400 0.795466 -0.605974 0.465100 -0.224600 2 4 0.863000 3 0.137000
  4 -0.630500 -4.101102 57.518494 -0.935684 0.346894 -0.064499 0.475900 -0.289300 2 4 0.782915 3 0.217085
  4 -0.324500 -3.267503 59.155693 -0.789480 0.406590 -0.459789 0.474600 -0.221600 2 4 0.862000 3 0.138000
tiesandties
  4 -0.278800 -4.110103 57.523197 0.016100 0.952311 -0.304704 0.465900 -0.289300 2 4 0.768145 3 0.231855
  4 -0.630500 -4.101102 57.518494 -0.935684 0.346894 -0.064499 0.475900 -0.289300 2 4 0.782915 3 0.217085
  4 -0.168700 -3.269402 59.157593 0.005400 0.795466 -0.605974 0.465100 -0.224600 2 4 0.863000 3 0.137000
tiesandties
  4 -0.278800 -4.110103 57.523197 0.016100 0.952311 -0.304704 0.465900 -0.289300 2 4 0.768145 3 0.231855
  3 -0.376500 -4.454202 55.099796 0.008700 0.995256 -0.096896 0.468400 -0.401700 3 3 0.610939 4 0.337461 2 0.051600
  4 -0.630500 -4.101102 57.518494 -0.935684 0.346894 -0.064499 0.475900 -0.289300 2 4 0.782915 3 0.217085
tiesandties
  3 0.365700 -4.460103 55.100597 0.002800 0.995606 -0.093601 0.452200 -0.401700 3 3 0.611340 4 0.337113 2 0.051546
  3 -0.376500 -4.454202 55.099796 0.008700 0.995256 -0.096896 0.468400 -0.401700 3 3 0.610939 4 0.337461 2 0.051600
  4 -0.278800 -4.110103 57.523197 0.016100 0.952311 -0.304704 0.465900 -0.289300 2 4 0.768145 3 0.231855
tiesandties
  3 -0.376500 -4.454202 55.099796 0.008700 0.995256 -0.096896 0.468400 -0.401700 3 3 0.610939 4 0.337461 2 0.051600
  3 -0.918500 -4.448803 55.095093 -0.962128 0.263108 0.071302 0.478600 -0.401700 2 3 0.640474 4 0.359526
  4 -0.630500 -4.101102 57.518494 -0.935684 0.346894 -0.064499 0.475900 -0.289300 2 4 0.782915 3 0.217085
tiesandties
  4 -0.646500 -2.347001 60.919388 -0.361403 0.533204 0.764906 0.474600 -0.152500 2 4 0.793000 5 0.207000
  4 -0.890900 -2.273502 60.210789 -0.668132 0.734235 -0.120406 0.484100 -0.164500 3 4 0.828000 5 0.115000 3 0.057000
  4 -1.466500 -1.713801 61.355980 -0.824190 0.549393 0.137398 0.482700 -0.125500 2 4 0.692151 5 0.307849
tiesandties
  4 -0.890900 -2.273502 60.210789 -0.668132 0.734235 -0.120406 0.484100 -0.164500 3 4 0.828000 5 0.115000 3 0.057000
  4 -0.646500 -2.347001 60.919388 -0.361403 0.533204 0.764906 0.474600 -0.152500 2 4 0.793000 5 0.207000
  4 -1.466500 -1.713801 61.355980 -0.824190 0.549393 0.137398 0.482700 -0.125500 2 4 0.692151 5 0.307849
tiesandties
  4 -1.466500 -1.713801 61.355980 -0.824190 0.549393 0.137398 0.482700 -0.125500 2 4 0.692151 5 0.307849
  4 -0.890900 -2.273502 60.210789 -0.668132 0.734235 -0.120406 0.484100 -0.164500 3 4 0.828000 5 0.115000 3 0.057000
  4 -1.759900 -1.807402 60.660488 -1.000000 0.000000 0.000000 0.490800 -0.140500 2 4 0.771984 5 0.228016
tiesandties
  4 -0.890900 -2.273502 60.210789 -0.668132 0.734235 -0.120406 0.484100 -0.164500 3 4 0.828000 5 0.115000 3 0.057000
  4 -1.466500 -1.713801 61.355980 -0.824190 0.549393 0.137398 0.482700 -0.125500 2 4 0.692151 5 0.307849
  4 -1.759900 -1.807402 60.660488 -1.000000 0.000000 0.000000 0.490800 -0.140500 2 4 0.771984 5 0.228016
tiesandties
  4 0.916200 -2.286602 60.199192 0.680620 0.732321 -0.021501 0.436500 -0.164500 3 4 0.848000 5 0.101000 3 0.051000
  4 1.513200 -1.867000 61.318287 0.000000 0.000000 -1.000000 0.436500 -0.125500 3 4 0.747000 5 0.201000 6 0.052000
  4 0.530400 -2.444302 60.912388 0.295103 0.500305 0.814008 0.446000 -0.152500 2 4 0.794000 5 0.206000
tiesandties
  4 1.513200 -1.867000 61.318287 0.000000 0.000000 -1.000000 0.436500 -0.125500 3 4 0.747000 5 0.201000 6 0.052000
  4 0.916200 -2.286602 60.199192 0.680620 0.732321 -0.021501 0.436500 -0.164500 3 4 0.848000 5 0.101000 3 0.051000
  4 0.530400 -2.444302 60.912388 0.295103 0.500305 0.814008 0.446000 -0.152500 2 4 0.794000 5 0.206000
tiesandties
  4 0.916200 -2.286602 60.199192 0.680620 0.732321 -0.021501 0.436500 -0.164500 3 4 0.848000 5 0.101000 3 0.051000
  4 1.932800 -1.873702 60.750084 0.000000 0.000000 -1.000000 0.428400 -0.137500 2 4 0.846234 5 0.153766
  4 1.513200 -1.867000 61.318287 0.000000 0.000000 -1.000000 0.436500 -0.125500 3 4 0.747000 5 0.201000 6 0.052000
tiesandties
  4 1.932800 -1.873702 60.750084 0.000000 0.000000 -1.000000 0.428400 -0.137500 2 4 0.846234 5 0.153766
  4 0.916200 -2.286602 60.199192 0.680620 0.732321 -0.021501 0.436500 -0.164500 3 4 0.848000 5 0.101000 3 0.051000
  4 1.513200 -1.867000 61.318287 0.000000 0.000000 -1.000000 0.436500 -0.125500 3 4 0.747000 5 0.201000 6 0.052000
tiesandties
  4 0.684000 -2.650802 59.699696 0.679813 0.347907 -0.645612 0.440600 -0.194600 2 4 0.912724 3 0.087277
  4 0.916200 -2.286602 60.199192 0.680620 0.732321 -0.021501 0.436500 -0.164500 3 4 0.848000 5 0.101000 3 0.051000
  4 0.527200 -3.032402 60.178787 0.678103 -0.670503 0.301001 0.446000 -0.185500 2 4 0.850467 5 0.149533
tiesandties
  4 0.000300 -3.283802 60.071690 -0.001800 -0.859882 0.510489 0.461000 -0.191600 3 4 0.829000 5 0.116000 3 0.055000
  4 -0.504600 -3.029702 60.177788 -0.691710 -0.665810 0.279704 0.474600 -0.185500 3 4 0.834000 5 0.101000 3 0.065000
  4 -0.168700 -3.685902 59.292892 -0.496288 -0.777481 0.386291 0.465100 -0.224600 2 4 0.863000 3 0.137000
tiesandties
  4 0.000300 -3.283802 60.071690 -0.001800 -0.859882 0.510489 0.461000 -0.191600 3 4 0.829000 5 0.116000 3 0.055000
  4 -0.005100 -2.726002 60.959389 0.002500 0.067202 0.997736 0.461000 -0.155500 2 4 0.794000 5 0.206000
  4 -0.504600 -3.029702 60.177788 -0.691710 -0.665810 0.279704 0.474600 -0.185500 3 4 0.834000 5 0.101000 3 0.065000
tiesandties
  4 0.000300 -3.283802 60.071690 -0.001800 -0.859882 0.510489 0.461000 -0.191600 3 4 0.829000 5 0.116000 3 0.055000
  4 0.527200 -3.032402 60.178787 0.678103 -0.670503 0.301001 0.446000 -0.185500 2 4 0.850467 5 0.149533
  4 -0.005100 -2.726002 60.959389 0.002500 0.067202 0.997736 0.461000 -0.155500 2 4 0.794000 5 0.206000
tiesandties
  4 0.527200 -3.032402 60.178787 0.678103 -0.670503 0.301001 0.446000 -0.185500 2 4 0.850467 5 0.149533
  4 0.530400 -2.444302 60.912388 0.295103 0.500305 0.814008 0.446000 -0.152500 2 4 0.794000 5 0.206000
  4 -0.005100 -2.726002 60.959389 0.002500 0.067202 0.997736 0.461000 -0.155500 2 4 0.794000 5 0.206000
tiesandties
  4 0.527200 -3.032402 60.178787 0.678103 -0.670503 0.301001 0.446000 -0.185500 2 4 0.850467 5 0.149533
  4 0.916200 -2.286602 60.199192 0.680620 0.732321 -0.021501 0.436500 -0.164500 3 4 0.848000 5 0.101000 3 0.051000
  4 0.530400 -2.444302 60.912388 0.295103 0.500305 0.814008 0.446000 -0.152500 2 4 0.794000 5 0.206000
tiesandties
  4 0.916200 -2.286602 60.199192 0.680620 0.732321 -0.021501 0.436500 -0.164500 3 4 0.848000 5 0.101000 3 0.051000
  4 0.527200 -2.670802 59.715591 -0.180092 0.858261 -0.480578 0.446000 -0.185500 2 4 0.904412 3 0.095588
  4 0.530400 -2.444302 60.912388 0.295103 0.500305 0.814008 0.446000 -0.152500 2 4 0.794000 5 0.206000
tiesandties
  4 0.916200 -2.286602 60.199192 0.680620 0.732321 -0.021501 0.436500 -0.164500 3 4 0.848000 5 0.101000 3 0.051000
  4 0.684000 -2.650802 59.699696 0.679813 0.347907 -0.645612 0.440600 -0.194600 2 4 0.912724 3 0.087277
  4 0.527200 -2.670802 59.715591 -0.180092 0.858261 -0.480578 0.446000 -0.185500 2 4 0.904412 3 0.095588
tiesandties
  4 0.527200 -2.670802 59.715591 -0.180092 0.858261 -0.480578 0.446000 -0.185500 2 4 0.904412 3 0.095588
  4 0.684000 -2.650802 59.699696 0.679813 0.347907 -0.645612 0.440600 -0.194600 2 4 0.912724 3 0.087277
  4 0.348000 -3.265702 59.155289 0.780090 0.396495 -0.483994 0.446000 -0.221600 2 4 0.868000 3 0.132000
tiesandties
  4 0.684000 -2.650802 59.699696 0.679813 0.347907 -0.645612 0.440600 -0.194600 2 4 0.912724 3 0.087277
  4 0.527200 -3.032402 60.178787 0.678103 -0.670503 0.301001 0.446000 -0.185500 2 4 0.850467 5 0.149533
  4 0.348000 -3.265702 59.155289 0.780090 0.396495 -0.483994 0.446000 -0.221600 2 4 0.868000 3 0.132000
tiesandties
  4 0.192600 -3.705803 59.202694 0.544921 -0.747429 0.380015 0.455600 -0.224600 2 4 0.867000 3 0.133000
  4 0.348000 -3.265702 59.155289 0.780090 0.396495 -0.483994 0.446000 -0.221600 2 4 0.868000 3 0.132000
  4 0.527200 -3.032402 60.178787 0.678103 -0.670503 0.301001 0.446000 -0.185500 2 4 0.850467 5 0.149533
tiesandties
  4 0.192600 -3.705803 59.202694 0.544921 -0.747429 0.380015 0.455600 -0.224600 2 4 0.867000 3 0.133000
  4 0.527200 -3.032402 60.178787 0.678103 -0.670503 0.301001 0.446000 -0.185500 2 4 0.850467 5 0.149533
  4 0.000300 -3.283802 60.071690 -0.001800 -0.859882 0.510489 0.461000 -0.191600 3 4 0.829000 5 0.116000 3 0.055000
tiesandties
  4 0.000300 -3.283802 60.071690 -0.001800 -0.859882 0.510489 0.461000 -0.191600 3 4 0.829000 5 0.116000 3 0.055000
  4 -0.168700 -3.685902 59.292892 -0.496288 -0.777481 0.386291 0.465100 -0.224600 2 4 0.863000 3 0.137000
  4 0.192600 -3.705803 59.202694 0.544921 -0.747429 0.380015 0.455600 -0.224600 2 4 0.867000 3 0.133000
tiesandties
  4 -0.168700 -3.685902 59.292892 -0.496288 -0.777481 0.386291 0.465100 -0.224600 2 4 0.863000 3 0.137000
  4 -0.278800 -4.496503 57.667191 -0.409713 -0.867528 0.282009 0.465900 -0.289300 2 4 0.763875 3 0.236125
  4 0.192600 -3.705803 59.202694 0.544921 -0.747429 0.380015 0.455600 -0.224600 2 4 0.867000 3 0.133000
tiesandties
  4 -0.630500 -4.101102 57.518494 -0.935684 0.346894 -0.064499 0.475900 -0.289300 2 4 0.782915 3 0.217085
  4 -0.278800 -4.496503 57.667191 -0.409713 -0.867528 0.282009 0.465900 -0.289300 2 4 0.763875 3 0.236125
  4 -0.168700 -3.685902 59.292892 -0.496288 -0.777481 0.386291 0.465100 -0.224600 2 4 0.863000 3 0.137000
tiesandties
  3 -0.376500 -4.778203 55.182892 -0.283891 -0.952469 0.110496 0.468400 -0.401700 3 3 0.610939 4 0.337461 2 0.051600
  4 -0.278800 -4.496503 57.667191 -0.409713 -0.867528 0.282009 0.465900 -0.289300 2 4 0.763875 3 0.236125
  4 -0.630500 -4.101102 57.518494 -0.935684 0.346894 -0.064499 0.475900 -0.289300 2 4 0.782915 3 0.217085
tiesandties
  3 -0.918500 -4.448803 55.095093 -0.962128 0.263108 0.071302 0.478600 -0.401700 2 3 0.640474 4 0.359526
  3 -0.376500 -4.778203 55.182892 -0.283891 -0.952469 0.110496 0.468400 -0.401700 3 3 0.610939 4 0.337461 2 0.051600
  4 -0.630500 -4.101102 57.518494 -0.935684 0.346894 -0.064499 0.475900 -0.289300 2 4 0.782915 3 0.217085
tiesandties
  3 -0.918500 -4.448803 55.095093 -0.962128 0.263108 0.071302 0.478600 -0.401700 2 3 0.640474 4 0.359526
  3 -1.111300 -4.561802 52.969997 -0.977655 0.208190 0.029099 0.483800 -0.510300 3 3 0.579000 2 0.225000 4 0.196000
  3 -0.376500 -4.778203 55.182892 -0.283891 -0.952469 0.110496 0.468400 -0.401700 3 3 0.610939 4 0.337461 2 0.051600
tiesandties
  3 -1.111300 -4.561802 52.969997 -0.977655 0.208190 0.029099 0.483800 -0.510300 3 3 0.579000 2 0.225000 4 0.196000
  3 -0.918500 -4.448803 55.095093 -0.962128 0.263108 0.071302 0.478600 -0.401700 2 3 0.640474 4 0.359526
  3 -0.376500 -4.454202 55.099796 0.008700 0.995256 -0.096896 0.468400 -0.401700 3 3 0.610939 4 0.337461 2 0.051600
end
