
//	Chau Facemap 4
//	Texture @ HL2
//	Shaders @ Reverend V92
//	Creation: 2017/03/30
//	Update: 2018/07/30

vertexlitgeneric
{

	$basetexture models/jessev92/characters/hl2/female/facemaps/chau_facemap4_d
	$bumpmap models/jessev92/characters/hl2/female/facemaps/chau_facemap_b
	$lightwarptexture dev/identitylightwarp

	$surfaceprop flesh
	$ambientocclusion 1
	$halflambert 1
	$nocull 0
	$nodecal 0
	$diffuseexp 1.5

	$phong 1
	$phongboost 3
	$phongexponent 1
	$phongtint "{ 150 120 120 }"
	$phongfresnelranges "[ 0.1 0.2 1 ]"

	$rimlight 1
	$rimlightexponent 1
	$rimlightboost 0.2

	$detail models/jessev92/detail/skin1
	$detailscale 8
	$detailblendfactor 0.2
	$detailblendmode 0

	$proxytoggle 1
	Proxies
	{

		Equals
		{

			srcVar1 $proxytoggle // Disable Proxies
			resultVar $color // The shader parameter to be manipulated

		}

	}

}
