
vertexlitgeneric
{

	$basetexture models/jessev92/characters/hl2s/rebel/female/hair_d
	$bumpmap dev/bump_normal
	$lightwarptexture dev/identitylightwarp

	$halflambert 1
	$ambientocclusion 1

	$translucent 1
	$alpha 1
	// $alphatest 1
	$nocull 1

	$proxytoggle 1
	Proxies
	{

		Equals
		{

			srcVar1 $proxytoggle // Disable Proxies
			resultVar $color // The shader parameter to be manipulated

		}

	}

}
