
vertexlitgeneric
{

	$basetexture models/jessev92/characters/hl2s/rebel/female/goggle_d
	$bumpmap dev/bump_normal
	$lightwarptexture dev/identitylightwarp

	$halflambert 1
	$ambientocclusion 1

	$envmap env_cubemap
	$envmapcontrast 1
	$envmapmask models/jessev92/characters/hl2s/rebel/female/goggle_x

	$proxytoggle 1
	Proxies
	{

		Equals
		{

			srcVar1 $proxytoggle // Disable Proxies
			resultVar $color // The shader parameter to be manipulated

		}

	}

}
