"VertexLitGeneric"
{
	"$baseTexture" 	"models\r_nor_f_ss1\r_nor_hitai"
	"$envmap" "env_cubemap"	
	"$envmapmask" "models\r_nor_f_ss1\r_nor_hitai_mask"
    "$nocull" 1
	"$envmapcontrast" "0.9"
	"$selfillum" 1
	"$model" 1
	$proxytoggle 1
	Proxies
	{

		Equals
		{

			srcVar1 $proxytoggle // Disable Proxies
			resultVar $color // The shader parameter to be manipulated

		}

	}

}
