
vertexlitgeneric
{

	$basetexture models/jessev92/characters/hl2/male/hostage/hostage_sheet_d
	$bumpmap models/jessev92/characters/hl2/male/hostage/hostage_sheet_b
	$lightwarptexture dev/identitylightwarp

	$halflambert 1
	$ambientocclusion 1
	$nocull 1

	$phong 0
	$phongexponent 1
	$phongboost 0.3
 	$phongfresnelranges "[ 1 0.5 0.1 ]"

	$proxytoggle 1
	Proxies
	{

		Equals
		{

			srcVar1 $proxytoggle // Disable Proxies
			resultVar $color // The shader parameter to be manipulated

		}

	}

}
