
VertexLitGeneric
{

	$basetexture models/jessev92/characters/hl2/male/citizen/citizen_sheet_d
	$bumpmap models/jessev92/characters/hl2/male/citizen/citizen_sheet_b
	$lightwarptexture dev/identitylightwarp

	$halflambert 1
	$ambientocclusion 1
	$nocull 1

	$phong 0
	$phongexponent 4
	$phongboost 0.3
	$phongfresnelranges "[ 0.1 0.2 0.5 ]"
	$phongexponenttexture models/jessev92/characters/hl2/male/citizen/citizen_sheet_x

}
