version 1
nodes
  0 "LOD01_stingerwheelr-1"  -1
  1 "Bone01"  -1
end
skeleton
time 0
  0 0.000000 0.000000 0.000000 0.000000 -0.000000 0.000000
  1 -0.000002 0.000000 0.000000 -1.570796 -0.000000 1.570796
end
triangles
StingerWHEELS.jpg
  0 0.000004 0.000000 0.000004 -1.000000 0.000000 -0.000000 0.754844 1.766027 1 1 1.000000
  0 0.000003 17.061390 7.596223 -1.000000 0.000000 -0.000000 0.923693 1.691262 1 1 1.000000
  0 0.000005 18.676018 0.000004 -1.000000 0.000000 -0.000000 0.939672 1.766027 1 1 1.000000
StingerWHEELS.jpg
  0 0.000004 0.000000 0.000004 -1.000000 0.000000 -0.000000 0.754844 1.766027 1 1 1.000000
  0 0.000002 12.496695 13.878985 -1.000000 0.000000 -0.000000 0.878518 1.629425 1 1 1.000000
  0 0.000003 17.061390 7.596223 -1.000000 0.000000 -0.000000 0.923693 1.691262 1 1 1.000000
StingerWHEELS.jpg
  0 0.000004 0.000000 0.000004 -1.000000 0.000000 -0.000000 0.754844 1.766027 1 1 1.000000
  0 0.000001 5.771207 17.761948 -1.000000 0.000000 -0.000000 0.811959 1.591208 1 1 1.000000
  0 0.000002 12.496695 13.878985 -1.000000 0.000000 -0.000000 0.878518 1.629425 1 1 1.000000
StingerWHEELS.jpg
  0 0.000004 0.000000 0.000004 -1.000000 0.000000 -0.000000 0.754844 1.766027 1 1 1.000000
  0 0.000000 -1.952175 18.573708 -1.000000 0.000000 -0.000000 0.735524 1.583218 1 1 1.000000
  0 0.000001 5.771207 17.761948 -1.000000 0.000000 -0.000000 0.811959 1.591208 1 1 1.000000
StingerWHEELS.jpg
  0 0.000004 0.000000 0.000004 -1.000000 0.000000 -0.000000 0.754844 1.766027 1 1 1.000000
  0 0.000000 -9.338008 16.173906 -1.000000 0.000000 -0.000000 0.662430 1.606838 1 1 1.000000
  0 0.000000 -1.952175 18.573708 -1.000000 0.000000 -0.000000 0.735524 1.583218 1 1 1.000000
StingerWHEELS.jpg
  0 0.000004 0.000000 0.000004 -1.000000 0.000000 -0.000000 0.754844 1.766027 1 1 1.000000
  0 0.000001 -15.109215 10.977488 -1.000000 0.000000 -0.000000 0.605315 1.657983 1 1 1.000000
  0 0.000000 -9.338008 16.173906 -1.000000 0.000000 -0.000000 0.662430 1.606838 1 1 1.000000
StingerWHEELS.jpg
  0 0.000004 0.000000 0.000004 -1.000000 0.000000 -0.000000 0.754844 1.766027 1 1 1.000000
  0 0.000002 -18.267900 3.882964 -1.000000 0.000000 -0.000000 0.574055 1.727810 1 1 1.000000
  0 0.000001 -15.109215 10.977488 -1.000000 0.000000 -0.000000 0.605315 1.657983 1 1 1.000000
StingerWHEELS.jpg
  0 0.000004 0.000000 0.000004 -1.000000 0.000000 -0.000000 0.754844 1.766027 1 1 1.000000
  0 0.000003 -18.267900 -3.882959 -1.000000 0.000000 -0.000000 0.574055 1.804244 1 1 1.000000
  0 0.000002 -18.267900 3.882964 -1.000000 0.000000 -0.000000 0.574055 1.727810 1 1 1.000000
StingerWHEELS.jpg
  0 0.000004 0.000000 0.000004 -1.000000 0.000000 -0.000000 0.754844 1.766027 1 1 1.000000
  0 0.000005 -15.109214 -10.977482 -1.000000 0.000000 -0.000000 0.605315 1.874071 1 1 1.000000
  0 0.000003 -18.267900 -3.882959 -1.000000 0.000000 -0.000000 0.574055 1.804244 1 1 1.000000
StingerWHEELS.jpg
  0 0.000004 0.000000 0.000004 -1.000000 0.000000 -0.000000 0.754844 1.766027 1 1 1.000000
  0 0.000006 -9.338007 -16.173897 -1.000000 0.000000 -0.000000 0.662430 1.925216 1 1 1.000000
  0 0.000005 -15.109214 -10.977482 -1.000000 0.000000 -0.000000 0.605315 1.874071 1 1 1.000000
StingerWHEELS.jpg
  0 0.000004 0.000000 0.000004 -1.000000 0.000000 -0.000000 0.754844 1.766027 1 1 1.000000
  0 0.000007 -1.952174 -18.573700 -1.000000 0.000000 -0.000000 0.735524 1.948836 1 1 1.000000
  0 0.000006 -9.338007 -16.173897 -1.000000 0.000000 -0.000000 0.662430 1.925216 1 1 1.000000
StingerWHEELS.jpg
  0 0.000004 0.000000 0.000004 -1.000000 0.000000 -0.000000 0.754844 1.766027 1 1 1.000000
  0 0.000007 5.771208 -17.761938 -1.000000 0.000000 -0.000000 0.811959 1.940846 1 1 1.000000
  0 0.000007 -1.952174 -18.573700 -1.000000 0.000000 -0.000000 0.735524 1.948836 1 1 1.000000
StingerWHEELS.jpg
  0 0.000004 0.000000 0.000004 -1.000000 0.000000 -0.000000 0.754844 1.766027 1 1 1.000000
  0 0.000007 12.496696 -13.878976 -1.000000 0.000000 -0.000000 0.878518 1.902629 1 1 1.000000
  0 0.000007 5.771208 -17.761938 -1.000000 0.000000 -0.000000 0.811959 1.940846 1 1 1.000000
StingerWHEELS.jpg
  0 0.000004 0.000000 0.000004 -1.000000 0.000000 -0.000000 0.754844 1.766027 1 1 1.000000
  0 0.000006 17.061392 -7.596212 -1.000000 0.000000 -0.000000 0.923693 1.840792 1 1 1.000000
  0 0.000007 12.496696 -13.878976 -1.000000 0.000000 -0.000000 0.878518 1.902629 1 1 1.000000
StingerWHEELS.jpg
  0 0.000004 0.000000 0.000004 -1.000000 0.000000 -0.000000 0.754844 1.766027 1 1 1.000000
  0 0.000005 18.676018 0.000004 -1.000000 0.000000 -0.000000 0.939672 1.766027 1 1 1.000000
  0 0.000006 17.061392 -7.596212 -1.000000 0.000000 -0.000000 0.923693 1.840792 1 1 1.000000
StingerWHEELS.jpg
  0 0.000005 18.676018 0.000004 -0.000000 0.978148 0.207912 0.467974 1.329159 1 1 1.000000
  0 12.286854 17.061390 7.596225 -0.000000 0.978148 0.207912 0.598126 1.542440 1 1 1.000000
  0 12.286855 18.676018 0.000007 -0.000000 0.978148 0.207912 0.467974 1.542440 1 1 1.000000
StingerWHEELS.jpg
  0 0.000005 18.676018 0.000004 -0.000000 0.978148 0.207912 0.467974 1.329159 1 1 1.000000
  0 0.000003 17.061390 7.596223 -0.000000 0.978148 0.207912 0.598126 1.329159 1 1 1.000000
  0 12.286854 17.061390 7.596225 -0.000000 0.978148 0.207912 0.598126 1.542440 1 1 1.000000
StingerWHEELS.jpg
  0 0.000003 17.061390 7.596223 -0.000000 0.809017 0.587785 0.469796 1.329647 1 1 1.000000
  0 12.286853 12.496695 13.878988 -0.000000 0.809017 0.587785 0.596304 1.541953 1 1 1.000000
  0 12.286854 17.061390 7.596225 -0.000000 0.809017 0.587785 0.469796 1.541953 1 1 1.000000
StingerWHEELS.jpg
  0 0.000003 17.061390 7.596223 -0.000000 0.809017 0.587785 0.469796 1.329647 1 1 1.000000
  0 0.000002 12.496695 13.878985 -0.000000 0.809017 0.587785 0.596304 1.329647 1 1 1.000000
  0 12.286853 12.496695 13.878988 -0.000000 0.809017 0.587785 0.596304 1.541953 1 1 1.000000
StingerWHEELS.jpg
  0 0.000002 12.496695 13.878985 -0.000000 0.500000 0.866025 0.468879 1.330216 1 1 1.000000
  0 12.286852 5.771207 17.761950 -0.000000 0.500000 0.866025 0.597220 1.541384 1 1 1.000000
  0 12.286853 12.496695 13.878988 -0.000000 0.500000 0.866025 0.468879 1.541384 1 1 1.000000
StingerWHEELS.jpg
  0 0.000002 12.496695 13.878985 -0.000000 0.500000 0.866025 0.468879 1.330216 1 1 1.000000
  0 0.000001 5.771207 17.761948 -0.000000 0.500000 0.866025 0.597221 1.330216 1 1 1.000000
  0 12.286852 5.771207 17.761950 -0.000000 0.500000 0.866025 0.597220 1.541384 1 1 1.000000
StingerWHEELS.jpg
  0 0.000001 5.771207 17.761948 -0.000000 0.104528 0.994522 0.469856 1.329360 1 1 1.000000
  0 12.286850 -1.952175 18.573709 -0.000000 0.104528 0.994522 0.596244 1.542239 1 1 1.000000
  0 12.286852 5.771207 17.761950 -0.000000 0.104528 0.994522 0.469856 1.542239 1 1 1.000000
StingerWHEELS.jpg
  0 0.000001 5.771207 17.761948 -0.000000 0.104528 0.994522 0.469856 1.329360 1 1 1.000000
  0 0.000000 -1.952175 18.573708 -0.000000 0.104528 0.994522 0.596244 1.329360 1 1 1.000000
  0 12.286850 -1.952175 18.573709 -0.000000 0.104528 0.994522 0.596244 1.542239 1 1 1.000000
StingerWHEELS.jpg
  0 0.000000 -1.952175 18.573708 -0.000000 -0.309017 0.951057 0.468413 1.328495 1 1 1.000000
  0 12.286850 -9.338008 16.173908 -0.000000 -0.309017 0.951057 0.597687 1.543105 1 1 1.000000
  0 12.286850 -1.952175 18.573709 -0.000000 -0.309017 0.951057 0.468413 1.543105 1 1 1.000000
StingerWHEELS.jpg
  0 0.000000 -1.952175 18.573708 -0.000000 -0.309017 0.951057 0.468413 1.328495 1 1 1.000000
  0 0.000000 -9.338008 16.173906 -0.000000 -0.309017 0.951057 0.597687 1.328495 1 1 1.000000
  0 12.286850 -9.338008 16.173908 -0.000000 -0.309017 0.951057 0.597687 1.543105 1 1 1.000000
StingerWHEELS.jpg
  0 0.000000 -9.338008 16.173906 -0.000000 -0.669130 0.743145 0.469433 1.328784 1 1 1.000000
  0 12.286852 -15.109215 10.977491 -0.000000 -0.669131 0.743145 0.596667 1.542815 1 1 1.000000
  0 12.286850 -9.338008 16.173908 -0.000000 -0.669130 0.743145 0.469433 1.542815 1 1 1.000000
StingerWHEELS.jpg
  0 0.000000 -9.338008 16.173906 -0.000000 -0.669131 0.743145 0.469433 1.328784 1 1 1.000000
  0 0.000001 -15.109215 10.977488 -0.000000 -0.669131 0.743145 0.596668 1.328784 1 1 1.000000
  0 12.286852 -15.109215 10.977491 -0.000000 -0.669131 0.743145 0.596667 1.542815 1 1 1.000000
StingerWHEELS.jpg
  0 0.000001 -15.109215 10.977488 -0.000000 -0.913545 0.406737 0.468059 1.330216 1 1 1.000000
  0 12.286853 -18.267900 3.882967 -0.000000 -0.913545 0.406737 0.598042 1.541384 1 1 1.000000
  0 12.286852 -15.109215 10.977491 -0.000000 -0.913545 0.406737 0.468059 1.541384 1 1 1.000000
StingerWHEELS.jpg
  0 0.000001 -15.109215 10.977488 -0.000000 -0.913545 0.406737 0.468059 1.330216 1 1 1.000000
  0 0.000002 -18.267900 3.882964 -0.000000 -0.913545 0.406737 0.598042 1.330216 1 1 1.000000
  0 12.286853 -18.267900 3.882967 -0.000000 -0.913545 0.406737 0.598042 1.541384 1 1 1.000000
StingerWHEELS.jpg
  0 0.000002 -18.267900 3.882964 0.000000 -1.000000 0.000000 0.468668 1.329932 1 1 1.000000
  0 12.286854 -18.267900 -3.882956 0.000000 -1.000000 0.000000 0.597433 1.541668 1 1 1.000000
  0 12.286853 -18.267900 3.882967 0.000000 -1.000000 0.000000 0.468668 1.541668 1 1 1.000000
StingerWHEELS.jpg
  0 0.000002 -18.267900 3.882964 0.000000 -1.000000 0.000000 0.468668 1.329932 1 1 1.000000
  0 0.000003 -18.267900 -3.882959 0.000000 -1.000000 0.000000 0.597433 1.329932 1 1 1.000000
  0 12.286854 -18.267900 -3.882956 0.000000 -1.000000 0.000000 0.597433 1.541668 1 1 1.000000
StingerWHEELS.jpg
  0 0.000003 -18.267900 -3.882959 0.000000 -0.913545 -0.406737 0.468880 1.330216 1 1 1.000000
  0 12.286856 -15.109214 -10.977479 0.000000 -0.913545 -0.406737 0.597221 1.541384 1 1 1.000000
  0 12.286854 -18.267900 -3.882956 0.000000 -0.913545 -0.406737 0.468880 1.541384 1 1 1.000000
StingerWHEELS.jpg
  0 0.000003 -18.267900 -3.882959 0.000000 -0.913545 -0.406737 0.468880 1.330216 1 1 1.000000
  0 0.000005 -15.109214 -10.977482 0.000000 -0.913545 -0.406737 0.597221 1.330216 1 1 1.000000
  0 12.286856 -15.109214 -10.977479 0.000000 -0.913545 -0.406737 0.597221 1.541384 1 1 1.000000
StingerWHEELS.jpg
  0 0.000005 -15.109214 -10.977482 0.000000 -0.669130 -0.743145 0.468628 1.328784 1 1 1.000000
  0 12.286856 -9.338007 -16.173895 0.000000 -0.669130 -0.743145 0.597472 1.542815 1 1 1.000000
  0 12.286856 -15.109214 -10.977479 0.000000 -0.669130 -0.743145 0.468628 1.542815 1 1 1.000000
StingerWHEELS.jpg
  0 0.000005 -15.109214 -10.977482 0.000000 -0.669130 -0.743145 0.468628 1.328784 1 1 1.000000
  0 0.000006 -9.338007 -16.173897 0.000000 -0.669130 -0.743145 0.597472 1.328784 1 1 1.000000
  0 12.286856 -9.338007 -16.173895 0.000000 -0.669130 -0.743145 0.597472 1.542815 1 1 1.000000
StingerWHEELS.jpg
  0 0.000006 -9.338007 -16.173897 0.000000 -0.309017 -0.951057 0.469055 1.329360 1 1 1.000000
  0 12.286858 -1.952174 -18.573696 0.000000 -0.309017 -0.951057 0.597046 1.542239 1 1 1.000000
  0 12.286856 -9.338007 -16.173895 0.000000 -0.309017 -0.951057 0.469055 1.542239 1 1 1.000000
StingerWHEELS.jpg
  0 0.000006 -9.338007 -16.173897 0.000000 -0.309017 -0.951056 0.469055 1.329360 1 1 1.000000
  0 0.000007 -1.952174 -18.573700 0.000000 -0.309017 -0.951056 0.597046 1.329360 1 1 1.000000
  0 12.286858 -1.952174 -18.573696 0.000000 -0.309017 -0.951057 0.597046 1.542239 1 1 1.000000
StingerWHEELS.jpg
  0 0.000007 -1.952174 -18.573700 0.000000 0.104529 -0.994522 0.468628 1.328784 1 1 1.000000
  0 12.286858 5.771208 -17.761934 0.000000 0.104529 -0.994522 0.597472 1.542815 1 1 1.000000
  0 12.286858 -1.952174 -18.573696 0.000000 0.104529 -0.994522 0.468628 1.542815 1 1 1.000000
StingerWHEELS.jpg
  0 0.000007 -1.952174 -18.573700 0.000000 0.104529 -0.994522 0.468628 1.328784 1 1 1.000000
  0 0.000007 5.771208 -17.761938 0.000000 0.104529 -0.994522 0.597472 1.328784 1 1 1.000000
  0 12.286858 5.771208 -17.761934 0.000000 0.104529 -0.994522 0.597472 1.542815 1 1 1.000000
StingerWHEELS.jpg
  0 0.000007 5.771208 -17.761938 0.000000 0.500000 -0.866026 0.470067 1.329647 1 1 1.000000
  0 12.286858 12.496696 -13.878974 0.000000 0.500000 -0.866026 0.596034 1.541953 1 1 1.000000
  0 12.286858 5.771208 -17.761934 0.000000 0.500000 -0.866026 0.470067 1.541953 1 1 1.000000
StingerWHEELS.jpg
  0 0.000007 5.771208 -17.761938 0.000000 0.500000 -0.866025 0.470067 1.329647 1 1 1.000000
  0 0.000007 12.496696 -13.878976 0.000000 0.500000 -0.866025 0.596034 1.329647 1 1 1.000000
  0 12.286858 12.496696 -13.878974 0.000000 0.500000 -0.866026 0.596034 1.541953 1 1 1.000000
StingerWHEELS.jpg
  0 0.000007 12.496696 -13.878976 0.000000 0.809017 -0.587785 0.468668 1.329932 1 1 1.000000
  0 12.286858 17.061392 -7.596209 0.000000 0.809017 -0.587785 0.597433 1.541668 1 1 1.000000
  0 12.286858 12.496696 -13.878974 0.000000 0.809017 -0.587785 0.468668 1.541668 1 1 1.000000
StingerWHEELS.jpg
  0 0.000007 12.496696 -13.878976 0.000000 0.809017 -0.587785 0.468668 1.329932 1 1 1.000000
  0 0.000006 17.061392 -7.596212 0.000000 0.809017 -0.587785 0.597433 1.329932 1 1 1.000000
  0 12.286858 17.061392 -7.596209 0.000000 0.809017 -0.587785 0.597433 1.541668 1 1 1.000000
StingerWHEELS.jpg
  0 0.000006 17.061392 -7.596212 0.000000 0.978148 -0.207912 0.468027 1.329073 1 1 1.000000
  0 12.286855 18.676018 0.000007 0.000000 0.978148 -0.207912 0.598074 1.542527 1 1 1.000000
  0 12.286858 17.061392 -7.596209 0.000000 0.978148 -0.207912 0.468026 1.542527 1 1 1.000000
StingerWHEELS.jpg
  0 0.000006 17.061392 -7.596212 0.000000 0.978148 -0.207912 0.468027 1.329073 1 1 1.000000
  0 0.000005 18.676018 0.000004 0.000000 0.978148 -0.207912 0.598074 1.329073 1 1 1.000000
  0 12.286855 18.676018 0.000007 0.000000 0.978148 -0.207912 0.598074 1.542527 1 1 1.000000
StingerWHEELS.jpg
  0 12.286854 0.000000 0.000007 1.000000 -0.000000 0.000000 0.331752 1.769674 1 1 1.000000
  0 12.286855 18.676018 0.000007 1.000000 -0.000000 0.000000 0.516296 1.769674 1 1 1.000000
  0 12.286854 17.061390 7.596225 1.000000 -0.000000 0.000000 0.500341 1.844324 1 1 1.000000
StingerWHEELS.jpg
  0 12.286854 0.000000 0.000007 1.000000 -0.000000 0.000000 0.331752 1.769674 1 1 1.000000
  0 12.286854 17.061390 7.596225 1.000000 -0.000000 0.000000 0.500341 1.844324 1 1 1.000000
  0 12.286853 12.496695 13.878988 1.000000 -0.000000 0.000000 0.455236 1.906066 1 1 1.000000
StingerWHEELS.jpg
  0 12.286854 0.000000 0.000007 1.000000 -0.000000 0.000000 0.331752 1.769674 1 1 1.000000
  0 12.286853 12.496695 13.878988 1.000000 -0.000000 0.000000 0.455236 1.906066 1 1 1.000000
  0 12.286852 5.771207 17.761950 1.000000 -0.000000 0.000000 0.388779 1.944224 1 1 1.000000
StingerWHEELS.jpg
  0 12.286854 0.000000 0.000007 1.000000 -0.000000 0.000000 0.331752 1.769674 1 1 1.000000
  0 12.286852 5.771207 17.761950 1.000000 -0.000000 0.000000 0.388779 1.944224 1 1 1.000000
  0 12.286850 -1.952175 18.573709 1.000000 -0.000000 0.000000 0.312462 1.952202 1 1 1.000000
StingerWHEELS.jpg
  0 12.286854 0.000000 0.000007 1.000000 -0.000000 0.000000 0.331752 1.769674 1 1 1.000000
  0 12.286850 -1.952175 18.573709 1.000000 -0.000000 0.000000 0.312462 1.952202 1 1 1.000000
  0 12.286850 -9.338008 16.173908 1.000000 -0.000000 0.000000 0.239480 1.928619 1 1 1.000000
StingerWHEELS.jpg
  0 12.286854 0.000000 0.000007 1.000000 -0.000000 0.000000 0.331752 1.769674 1 1 1.000000
  0 12.286850 -9.338008 16.173908 1.000000 0.000000 0.000000 0.239480 1.928619 1 1 1.000000
  0 12.286852 -15.109215 10.977491 1.000000 0.000000 0.000000 0.182453 1.877552 1 1 1.000000
StingerWHEELS.jpg
  0 12.286854 0.000000 0.000007 1.000000 -0.000000 0.000000 0.331752 1.769674 1 1 1.000000
  0 12.286852 -15.109215 10.977491 1.000000 -0.000000 0.000000 0.182453 1.877552 1 1 1.000000
  0 12.286853 -18.267900 3.882967 1.000000 -0.000000 0.000000 0.151241 1.807833 1 1 1.000000
StingerWHEELS.jpg
  0 12.286854 0.000000 0.000007 1.000000 -0.000000 0.000000 0.331752 1.769674 1 1 1.000000
  0 12.286853 -18.267900 3.882967 1.000000 -0.000000 0.000000 0.151241 1.807833 1 1 1.000000
  0 12.286854 -18.267900 -3.882956 1.000000 -0.000000 0.000000 0.151241 1.731516 1 1 1.000000
StingerWHEELS.jpg
  0 12.286854 0.000000 0.000007 1.000000 -0.000000 0.000000 0.331752 1.769674 1 1 1.000000
  0 12.286854 -18.267900 -3.882956 1.000000 -0.000000 0.000000 0.151241 1.731516 1 1 1.000000
  0 12.286856 -15.109214 -10.977479 1.000000 -0.000000 0.000000 0.182453 1.661796 1 1 1.000000
StingerWHEELS.jpg
  0 12.286854 0.000000 0.000007 1.000000 -0.000000 0.000000 0.331752 1.769674 1 1 1.000000
  0 12.286856 -15.109214 -10.977479 1.000000 0.000000 0.000000 0.182453 1.661796 1 1 1.000000
  0 12.286856 -9.338007 -16.173895 1.000000 0.000000 0.000000 0.239480 1.610730 1 1 1.000000
StingerWHEELS.jpg
  0 12.286854 0.000000 0.000007 1.000000 -0.000000 0.000000 0.331752 1.769674 1 1 1.000000
  0 12.286856 -9.338007 -16.173895 1.000000 -0.000000 0.000000 0.239480 1.610730 1 1 1.000000
  0 12.286858 -1.952174 -18.573696 1.000000 -0.000000 0.000000 0.312462 1.587147 1 1 1.000000
StingerWHEELS.jpg
  0 12.286854 0.000000 0.000007 1.000000 -0.000000 0.000000 0.331752 1.769674 1 1 1.000000
  0 12.286858 -1.952174 -18.573696 1.000000 -0.000000 0.000000 0.312462 1.587147 1 1 1.000000
  0 12.286858 5.771208 -17.761934 1.000000 -0.000000 0.000000 0.388779 1.595124 1 1 1.000000
StingerWHEELS.jpg
  0 12.286854 0.000000 0.000007 1.000000 -0.000000 0.000000 0.331752 1.769674 1 1 1.000000
  0 12.286858 5.771208 -17.761934 1.000000 -0.000000 0.000000 0.388779 1.595124 1 1 1.000000
  0 12.286858 12.496696 -13.878974 1.000000 -0.000000 0.000000 0.455236 1.633283 1 1 1.000000
StingerWHEELS.jpg
  0 12.286854 0.000000 0.000007 1.000000 -0.000000 0.000000 0.331752 1.769674 1 1 1.000000
  0 12.286858 12.496696 -13.878974 1.000000 -0.000000 0.000000 0.455236 1.633283 1 1 1.000000
  0 12.286858 17.061392 -7.596209 1.000000 -0.000000 0.000000 0.500341 1.695025 1 1 1.000000
StingerWHEELS.jpg
  0 12.286854 0.000000 0.000007 1.000000 -0.000000 0.000000 0.331752 1.769674 1 1 1.000000
  0 12.286858 17.061392 -7.596209 1.000000 -0.000000 0.000000 0.500341 1.695025 1 1 1.000000
  0 12.286855 18.676018 0.000007 1.000000 -0.000000 0.000000 0.516296 1.769674 1 1 1.000000
end
