
vertexlitgeneric
{

	$basetexture models/weapons/c_arms_citizen/c_arms_citizen_hands
	$bumpmap models/weapons/c_arms_citizen/c_arms_citizen_hands_normal
	$lightwarptexture dev/identitylightwarp

	$halflambert 1
	$ambientocclusion 1

	$phong 1
	$phongboost 1
	$phongexponent 8
	$phongfresnelranges "[ 0.1 0.5 1 ]"
	$phongtint "[ 0.8 0.6 0.4 ]"
	
	$detail models/weapons/c_arms_citizen/skin_detail
	$detailscale 7
	$detailblendfactor 0.4
	$detailblendmode 0

	$rimlight 1
	$rimlightboost 0.2
	$rimlightexponent 4

	$proxytoggle 1
	Proxies
	{

		Equals
		{

			srcvar1 $proxytoggle // disable proxies
			resultvar $color // the shader parameter to be manipulated

		}

	}

}
