// Created by Crowbar 0.42.0.0
version 1
nodes
  0 "static_prop" -1
end
skeleton
  time 0
    0 0.000000 0.000000 0.000000 0.000000 0.000000 0.000000
end
triangles
facialhair02
  0 0.217126 0.020459 -0.566820 0.239660 -0.954624 -0.176793 0.106079 0.379883 1 0 1.000000
  0 0.354761 0.140771 -0.541038 0.668831 -0.708366 -0.225574 0.140625 0.379883 1 0 1.000000
  0 0.349390 0.065576 -0.319749 0.510650 -0.859051 -0.035611 0.140625 0.348633 1 0 1.000000
facialhair02
  0 0.198865 -0.013917 -0.333714 0.256225 -0.957825 -0.130075 0.106079 0.348633 1 0 1.000000
  0 0.349390 0.065576 -0.319749 0.510650 -0.859051 -0.035611 0.140625 0.348633 1 0 1.000000
  0 0.331128 0.069873 -0.167210 0.554523 -0.821983 0.129802 0.140625 0.327637 1 0 1.000000
facialhair02
  0 0.349390 0.065576 -0.319749 0.510650 -0.859051 -0.035611 0.140625 0.348633 1 0 1.000000
  0 0.198865 -0.013917 -0.333714 0.256225 -0.957825 -0.130075 0.106079 0.348633 1 0 1.000000
  0 0.217126 0.020459 -0.566820 0.239660 -0.954624 -0.176793 0.106079 0.379883 1 0 1.000000
facialhair02
  0 -0.006311 0.056982 -0.564671 -0.066801 -0.970468 -0.231795 0.072083 0.379883 1 0 1.000000
  0 0.217126 0.020459 -0.566820 0.239660 -0.954624 -0.176793 0.106079 0.379883 1 0 1.000000
  0 0.198865 -0.013917 -0.333714 0.256225 -0.957825 -0.130075 0.106079 0.348633 1 0 1.000000
facialhair02
  0 0.198865 -0.013917 -0.333714 0.256225 -0.957825 -0.130075 0.106079 0.348633 1 0 1.000000
  0 -0.022424 -0.020362 -0.346605 -0.003920 -0.981181 -0.193048 0.072083 0.348633 1 0 1.000000
  0 -0.006311 0.056982 -0.564671 -0.066801 -0.970468 -0.231795 0.072083 0.379883 1 0 1.000000
facialhair02
  0 -0.022424 -0.020362 -0.346605 -0.003920 -0.981181 -0.193048 0.072083 0.348633 1 0 1.000000
  0 0.198865 -0.013917 -0.333714 0.256225 -0.957825 -0.130075 0.106079 0.348633 1 0 1.000000
  0 0.183960 -0.039698 -0.174730 0.287332 -0.956463 0.051169 0.106079 0.327637 1 0 1.000000
facialhair02
  0 0.183960 -0.039698 -0.174730 0.287332 -0.956463 0.051169 0.106079 0.327637 1 0 1.000000
  0 -0.035248 -0.016065 -0.195139 -0.113730 -0.992202 0.050986 0.072083 0.327637 1 0 1.000000
  0 -0.022424 -0.020362 -0.346605 -0.003920 -0.981181 -0.193048 0.072083 0.348633 1 0 1.000000
facialhair02
  0 -0.035248 -0.016065 -0.195139 -0.113730 -0.992202 0.050986 0.072083 0.327637 1 0 1.000000
  0 0.183960 -0.039698 -0.174730 0.287332 -0.956463 0.051169 0.106079 0.327637 1 0 1.000000
  0 0.105139 -0.007471 0.113161 0.216933 -0.958425 0.185367 0.106079 0.289062 1 0 1.000000
facialhair02
  0 0.105139 -0.007471 0.113161 0.216933 -0.958425 0.185367 0.106079 0.289062 1 0 1.000000
  0 -0.106012 0.016162 0.080935 -0.129820 -0.987400 0.090482 0.072083 0.289062 1 0 1.000000
  0 -0.035248 -0.016065 -0.195139 -0.113730 -0.992202 0.050986 0.072083 0.327637 1 0 1.000000
facialhair02
  0 0.331128 0.069873 -0.167210 0.554523 -0.821983 0.129802 0.140625 0.327637 1 0 1.000000
  0 0.183960 -0.039698 -0.174730 0.287332 -0.956463 0.051169 0.106079 0.327637 1 0 1.000000
  0 0.198865 -0.013917 -0.333714 0.256225 -0.957825 -0.130075 0.106079 0.348633 1 0 1.000000
facialhair02
  0 0.105139 -0.007471 0.113161 0.216933 -0.958425 0.185367 0.106079 0.289062 1 0 1.000000
  0 0.183960 -0.039698 -0.174730 0.287332 -0.956463 0.051169 0.106079 0.327637 1 0 1.000000
  0 0.331128 0.069873 -0.167210 0.554523 -0.821983 0.129802 0.140625 0.327637 1 0 1.000000
facialhair02
  0 0.331128 0.069873 -0.167210 0.554523 -0.821983 0.129802 0.140625 0.327637 1 0 1.000000
  0 0.256873 0.112841 0.119606 0.586728 -0.759990 0.279582 0.140625 0.289062 1 0 1.000000
  0 0.105139 -0.007471 0.113161 0.216933 -0.958425 0.185367 0.106079 0.289062 1 0 1.000000
facialhair02
  0 -0.073181 0.065576 -0.243480 0.019737 -0.887043 -0.461265 0.320312 0.735596 1 0 1.000000
  0 -0.074927 0.164404 -0.385276 -0.011811 -0.821576 -0.569976 0.322021 0.777710 1 0 1.000000
  0 0.198999 0.149365 -0.368089 0.003940 -0.841042 -0.540956 0.271240 0.777710 1 0 1.000000
facialhair02
  0 0.198999 0.149365 -0.368089 0.003940 -0.841042 -0.540956 0.271240 0.777710 1 0 1.000000
  0 0.171338 0.065576 -0.230589 0.019633 -0.899690 -0.436087 0.270752 0.735596 1 0 1.000000
  0 -0.073181 0.065576 -0.243480 0.019737 -0.887043 -0.461265 0.320312 0.735596 1 0 1.000000
facialhair02
  0 -0.073181 0.065576 -0.243480 0.019737 -0.887043 -0.461265 0.320312 0.735596 1 0 1.000000
  0 0.171338 0.065576 -0.230589 0.019633 -0.899690 -0.436087 0.270752 0.735596 1 0 1.000000
  0 0.122797 0.014013 -0.086644 0.011788 -0.970765 -0.239742 0.270752 0.694824 1 0 1.000000
facialhair02
  0 0.122797 0.014013 -0.086644 0.011788 -0.970765 -0.239742 0.270752 0.694824 1 0 1.000000
  0 -0.090704 0.001123 -0.093089 0.059187 -0.974381 -0.216975 0.319092 0.694824 1 0 1.000000
  0 -0.073181 0.065576 -0.243480 0.019737 -0.887043 -0.461265 0.320312 0.735596 1 0 1.000000
facialhair02
  0 -0.074725 -0.005323 0.076638 -0.011857 -0.999922 0.003953 0.318115 0.654785 1 0 1.000000
  0 -0.090704 0.001123 -0.093089 0.059187 -0.974381 -0.216975 0.319092 0.694824 1 0 1.000000
  0 0.122797 0.014013 -0.086644 0.011788 -0.970765 -0.239742 0.270752 0.694824 1 0 1.000000
facialhair02
  0 0.122797 0.014013 -0.086644 0.011788 -0.970765 -0.239742 0.270752 0.694824 1 0 1.000000
  0 0.116016 -0.013917 0.074489 -0.051292 -0.998676 -0.003969 0.270752 0.654541 1 0 1.000000
  0 -0.074725 -0.005323 0.076638 -0.011857 -0.999922 0.003953 0.318115 0.654785 1 0 1.000000
facialhair02
  0 -0.074725 -0.005323 0.076638 -0.011857 -0.999922 0.003953 0.318115 0.654785 1 0 1.000000
  0 0.116016 -0.013917 0.074489 -0.051292 -0.998676 -0.003969 0.270752 0.654541 1 0 1.000000
  0 0.147168 0.005419 0.220583 -0.043357 -0.989487 0.137971 0.271484 0.616211 1 0 1.000000
facialhair02
  0 0.147168 0.005419 0.220583 -0.043357 -0.989487 0.137971 0.271484 0.616211 1 0 1.000000
  0 -0.008543 0.011865 0.229177 -0.043360 -0.989486 0.137973 0.310303 0.616455 1 0 1.000000
  0 -0.074725 -0.005323 0.076638 -0.011857 -0.999922 0.003953 0.318115 0.654785 1 0 1.000000
facialhair02
  0 0.102790 -0.102002 -0.318675 0.232637 -0.942354 -0.240519 0.968262 0.833130 1 0 1.000000
  0 0.100708 -0.112744 -0.020042 0.209652 -0.977128 -0.035602 0.968262 0.754395 1 0 1.000000
  0 -0.045587 -0.112745 -0.020042 -0.217224 -0.975474 -0.035542 0.937500 0.754395 1 0 1.000000
facialhair02
  0 0.247741 -0.033252 -0.306858 0.420531 -0.860720 -0.286905 0.998535 0.833130 1 0 1.000000
  0 0.245593 -0.046143 -0.018968 0.420146 -0.907040 -0.027479 0.998535 0.754395 1 0 1.000000
  0 0.100708 -0.112744 -0.020042 0.209652 -0.977128 -0.035602 0.968262 0.754395 1 0 1.000000
facialhair02
  0 0.100708 -0.112744 -0.020042 0.209652 -0.977128 -0.035602 0.968262 0.754395 1 0 1.000000
  0 0.102790 -0.102002 -0.318675 0.232637 -0.942354 -0.240519 0.968262 0.833130 1 0 1.000000
  0 0.247741 -0.033252 -0.306858 0.420531 -0.860720 -0.286905 0.998535 0.833130 1 0 1.000000
facialhair02
  0 0.247876 0.160107 -0.594749 0.580516 -0.722673 -0.375161 0.998535 0.915527 1 0 1.000000
  0 0.247741 -0.033252 -0.306858 0.420531 -0.860720 -0.286905 0.998535 0.833130 1 0 1.000000
  0 0.102790 -0.102002 -0.318675 0.232637 -0.942354 -0.240519 0.968262 0.833130 1 0 1.000000
facialhair02
  0 0.102790 -0.102002 -0.318675 0.232637 -0.942354 -0.240519 0.968262 0.833130 1 0 1.000000
  0 0.102790 0.031201 -0.615159 0.367905 -0.850534 -0.375816 0.968262 0.915527 1 0 1.000000
  0 0.247876 0.160107 -0.594749 0.580516 -0.722673 -0.375161 0.998535 0.915527 1 0 1.000000
facialhair02
  0 0.102790 0.031201 -0.615159 0.367905 -0.850534 -0.375816 0.968262 0.915527 1 0 1.000000
  0 0.102790 -0.102002 -0.318675 0.232637 -0.942354 -0.240519 0.968262 0.833130 1 0 1.000000
  0 -0.043573 -0.102002 -0.318675 -0.217203 -0.951662 -0.217167 0.937500 0.833130 1 0 1.000000
facialhair02
  0 -0.045587 -0.112745 -0.020042 -0.217224 -0.975474 -0.035542 0.937500 0.754395 1 0 1.000000
  0 -0.043573 -0.102002 -0.318675 -0.217203 -0.951662 -0.217167 0.937500 0.833130 1 0 1.000000
  0 0.102790 -0.102002 -0.318675 0.232637 -0.942354 -0.240519 0.968262 0.833130 1 0 1.000000
facialhair02
  0 -0.043573 -0.102002 -0.318675 -0.217203 -0.951662 -0.217167 0.937500 0.833130 1 0 1.000000
  0 -0.045587 -0.112745 -0.020042 -0.217224 -0.975474 -0.035542 0.937500 0.754395 1 0 1.000000
  0 -0.193225 -0.046143 -0.018968 -0.420028 -0.906823 -0.035338 0.906738 0.754395 1 0 1.000000
facialhair02
  0 -0.193225 -0.046143 -0.018968 -0.420028 -0.906823 -0.035338 0.906738 0.754395 1 0 1.000000
  0 -0.191345 -0.033252 -0.306858 -0.426501 -0.880393 -0.207376 0.906738 0.833130 1 0 1.000000
  0 -0.043573 -0.102002 -0.318675 -0.217203 -0.951662 -0.217167 0.937500 0.833130 1 0 1.000000
facialhair02
  0 -0.043573 0.031201 -0.615159 -0.216139 -0.892054 -0.396893 0.937500 0.915527 1 0 1.000000
  0 -0.043573 -0.102002 -0.318675 -0.217203 -0.951662 -0.217167 0.937500 0.833130 1 0 1.000000
  0 -0.191345 -0.033252 -0.306858 -0.426501 -0.880393 -0.207376 0.906738 0.833130 1 0 1.000000
facialhair02
  0 -0.191345 -0.033252 -0.306858 -0.426501 -0.880393 -0.207376 0.906738 0.833130 1 0 1.000000
  0 -0.191345 0.095654 -0.594749 -0.420932 -0.830045 -0.365844 0.906738 0.915527 1 0 1.000000
  0 -0.043573 0.031201 -0.615159 -0.216139 -0.892054 -0.396893 0.937500 0.915527 1 0 1.000000
facialhair02
  0 -0.043573 -0.102002 -0.318675 -0.217203 -0.951662 -0.217167 0.937500 0.833130 1 0 1.000000
  0 -0.043573 0.031201 -0.615159 -0.216139 -0.892054 -0.396893 0.937500 0.915527 1 0 1.000000
  0 0.102790 0.031201 -0.615159 0.367905 -0.850534 -0.375816 0.968262 0.915527 1 0 1.000000
facialhair02
  0 -0.120581 -0.071925 -0.165062 -0.216991 -0.974378 0.059177 0.952148 0.809204 1 0 1.000000
  0 -0.087817 -0.059034 -0.023264 -0.176981 -0.979291 0.098322 0.952148 0.783813 1 0 1.000000
  0 -0.295410 0.089208 0.005739 -0.608950 -0.789690 0.074628 0.998535 0.784424 1 0 1.000000
facialhair02
  0 -0.265332 0.080615 0.160427 -0.552932 -0.827437 0.098051 0.998535 0.754395 1 0 1.000000
  0 -0.295410 0.089208 0.005739 -0.608950 -0.789690 0.074628 0.998535 0.784424 1 0 1.000000
  0 -0.087817 -0.059034 -0.023264 -0.176981 -0.979291 0.098322 0.952148 0.783813 1 0 1.000000
facialhair02
  0 -0.087817 -0.059034 -0.023264 -0.176981 -0.979291 0.098322 0.952148 0.783813 1 0 1.000000
  0 -0.052402 -0.052588 0.141091 -0.160762 -0.984175 0.074532 0.952148 0.754395 1 0 1.000000
  0 -0.265332 0.080615 0.160427 -0.552932 -0.827437 0.098051 0.998535 0.754395 1 0 1.000000
facialhair02
  0 -0.295410 0.089208 0.005739 -0.608950 -0.789690 0.074628 0.998535 0.784424 1 0 1.000000
  0 -0.323340 0.110693 -0.134983 -0.670282 -0.740853 0.043119 0.998535 0.811523 1 0 1.000000
  0 -0.120581 -0.071925 -0.165062 -0.216991 -0.974378 0.059177 0.952148 0.809204 1 0 1.000000
facialhair02
  0 -0.120581 -0.071925 -0.165062 -0.216991 -0.974378 0.059177 0.952148 0.809204 1 0 1.000000
  0 -0.323340 0.110693 -0.134983 -0.670282 -0.740853 0.043119 0.998535 0.811523 1 0 1.000000
  0 -0.351001 0.123583 -0.269261 -0.686008 -0.717374 0.121521 0.998535 0.836792 1 0 1.000000
facialhair02
  0 -0.351001 0.123583 -0.269261 -0.686008 -0.717374 0.121521 0.998535 0.836792 1 0 1.000000
  0 -0.157507 -0.067627 -0.296116 -0.278224 -0.960124 -0.027429 0.952148 0.832764 1 0 1.000000
  0 -0.120581 -0.071925 -0.165062 -0.216991 -0.974378 0.059177 0.952148 0.809204 1 0 1.000000
facialhair02
  0 -0.157507 -0.067627 -0.296116 -0.278224 -0.960124 -0.027429 0.952148 0.832764 1 0 1.000000
  0 -0.351001 0.123583 -0.269261 -0.686008 -0.717374 0.121521 0.998535 0.836792 1 0 1.000000
  0 -0.391553 0.108545 -0.535667 -0.592962 -0.804991 -0.019627 0.998535 0.888000 1 0 1.000000
facialhair02
  0 -0.391553 0.108545 -0.535667 -0.592962 -0.804991 -0.019627 0.998535 0.888000 1 0 1.000000
  0 -0.191748 0.009716 -0.593675 -0.224698 -0.950005 -0.216798 0.952148 0.888000 1 0 1.000000
  0 -0.157507 -0.067627 -0.296116 -0.278224 -0.960124 -0.027429 0.952148 0.832764 1 0 1.000000
facialhair02
  0 -0.157507 -0.067627 -0.296116 -0.278224 -0.960124 -0.027429 0.952148 0.832764 1 0 1.000000
  0 -0.191748 0.009716 -0.593675 -0.224698 -0.950005 -0.216798 0.952148 0.888000 1 0 1.000000
  0 0.063950 0.031201 -0.628050 0.121987 -0.972029 -0.200695 0.906738 0.888000 1 0 1.000000
facialhair02
  0 0.063950 0.031201 -0.628050 0.121987 -0.972029 -0.200695 0.906738 0.888000 1 0 1.000000
  0 0.112121 -0.005323 -0.305784 0.233147 -0.968182 -0.090916 0.906738 0.827637 1 0 1.000000
  0 -0.157507 -0.067627 -0.296116 -0.278224 -0.960124 -0.027429 0.952148 0.832764 1 0 1.000000
facialhair02
  0 -0.120581 -0.071925 -0.165062 -0.216991 -0.974378 0.059177 0.952148 0.809204 1 0 1.000000
  0 -0.157507 -0.067627 -0.296116 -0.278224 -0.960124 -0.027429 0.952148 0.832764 1 0 1.000000
  0 0.112121 -0.005323 -0.305784 0.233147 -0.968182 -0.090916 0.906738 0.827637 1 0 1.000000
facialhair02
  0 0.112121 -0.005323 -0.305784 0.233147 -0.968182 -0.090916 0.906738 0.827637 1 0 1.000000
  0 0.143140 -0.003175 -0.168284 0.232213 -0.972274 -0.027561 0.906738 0.800903 1 0 1.000000
  0 -0.120581 -0.071925 -0.165062 -0.216991 -0.974378 0.059177 0.952148 0.809204 1 0 1.000000
facialhair02
  0 -0.087817 -0.059034 -0.023264 -0.176981 -0.979291 0.098322 0.952148 0.783813 1 0 1.000000
  0 -0.120581 -0.071925 -0.165062 -0.216991 -0.974378 0.059177 0.952148 0.809204 1 0 1.000000
  0 0.143140 -0.003175 -0.168284 0.232213 -0.972274 -0.027561 0.906738 0.800903 1 0 1.000000
facialhair02
  0 0.143140 -0.003175 -0.168284 0.232213 -0.972274 -0.027561 0.906738 0.800903 1 0 1.000000
  0 0.176575 -0.001026 -0.018968 0.200596 -0.979286 -0.027548 0.906738 0.772095 1 0 1.000000
  0 -0.087817 -0.059034 -0.023264 -0.176981 -0.979291 0.098322 0.952148 0.783813 1 0 1.000000
facialhair02
  0 -0.052402 -0.052588 0.141091 -0.160762 -0.984175 0.074532 0.952148 0.754395 1 0 1.000000
  0 -0.087817 -0.059034 -0.023264 -0.176981 -0.979291 0.098322 0.952148 0.783813 1 0 1.000000
  0 0.176575 -0.001026 -0.018968 0.200596 -0.979286 -0.027548 0.906738 0.772095 1 0 1.000000
facialhair02
  0 0.176575 -0.001026 -0.018968 0.200596 -0.979286 -0.027548 0.906738 0.772095 1 0 1.000000
  0 0.197119 -0.001026 0.072341 0.193012 -0.980809 -0.027559 0.906738 0.754395 1 0 1.000000
  0 -0.052402 -0.052588 0.141091 -0.160762 -0.984175 0.074532 0.952148 0.754395 1 0 1.000000
facialhair02
  0 -0.158984 0.029052 -0.298264 -0.294367 -0.953877 -0.058884 0.128052 0.727051 1 0 1.000000
  0 -0.000139 0.029052 -0.298264 -0.003942 -0.995886 -0.090525 0.096680 0.727051 1 0 1.000000
  0 -0.003187 0.022607 -0.172581 -0.003933 -0.989302 -0.145830 0.098022 0.704834 1 0 1.000000
facialhair02
  0 -0.003187 0.022607 -0.172581 -0.003933 -0.989302 -0.145830 0.098022 0.704834 1 0 1.000000
  0 -0.158045 0.024755 -0.157542 -0.264640 -0.951919 -0.154324 0.128052 0.695312 1 0 1.000000
  0 -0.158984 0.029052 -0.298264 -0.294367 -0.953877 -0.058884 0.128052 0.727051 1 0 1.000000
facialhair02
  0 -0.158045 0.024755 -0.157542 -0.264640 -0.951919 -0.154324 0.128052 0.695312 1 0 1.000000
  0 -0.003187 0.022607 -0.172581 -0.003933 -0.989302 -0.145830 0.098022 0.704834 1 0 1.000000
  0 0.003340 -0.016065 -0.027562 0.003943 -0.988134 -0.153541 0.096863 0.681641 1 0 1.000000
facialhair02
  0 0.003340 -0.016065 -0.027562 0.003943 -0.988134 -0.153541 0.096863 0.681641 1 0 1.000000
  0 -0.159656 -0.005323 -0.014671 -0.309475 -0.944097 -0.113605 0.128052 0.664307 1 0 1.000000
  0 -0.158045 0.024755 -0.157542 -0.264640 -0.951919 -0.154324 0.128052 0.695312 1 0 1.000000
facialhair02
  0 -0.158984 0.029052 -0.298264 -0.294367 -0.953877 -0.058884 0.128052 0.727051 1 0 1.000000
  0 -0.296753 0.132177 -0.290745 -0.560517 -0.827020 -0.043116 0.157104 0.727051 1 0 1.000000
  0 -0.295947 0.114990 -0.480882 -0.497942 -0.866492 -0.035286 0.155151 0.769287 1 0 1.000000
facialhair02
  0 -0.295947 0.114990 -0.480882 -0.497942 -0.866492 -0.035286 0.155151 0.769287 1 0 1.000000
  0 -0.158581 0.056982 -0.486253 -0.207817 -0.968493 -0.137235 0.128052 0.769287 1 0 1.000000
  0 -0.158984 0.029052 -0.298264 -0.294367 -0.953877 -0.058884 0.128052 0.727051 1 0 1.000000
facialhair02
  0 -0.000139 0.029052 -0.298264 -0.003942 -0.995886 -0.090525 0.096680 0.727051 1 0 1.000000
  0 -0.158984 0.029052 -0.298264 -0.294367 -0.953877 -0.058884 0.128052 0.727051 1 0 1.000000
  0 -0.158581 0.056982 -0.486253 -0.207817 -0.968493 -0.137235 0.128052 0.769287 1 0 1.000000
facialhair02
  0 -0.158581 0.056982 -0.486253 -0.207817 -0.968493 -0.137235 0.128052 0.769287 1 0 1.000000
  0 -0.000602 0.056982 -0.486253 -0.003947 -0.990410 -0.138102 0.096802 0.769287 1 0 1.000000
  0 -0.000139 0.029052 -0.298264 -0.003942 -0.995886 -0.090525 0.096680 0.727051 1 0 1.000000
facialhair02
  0 -0.000139 0.029052 -0.298264 -0.003942 -0.995886 -0.090525 0.096680 0.727051 1 0 1.000000
  0 -0.000602 0.056982 -0.486253 -0.003947 -0.990410 -0.138102 0.096802 0.769287 1 0 1.000000
  0 0.160327 0.056982 -0.486253 0.241160 -0.968673 -0.059284 0.065002 0.769287 1 0 1.000000
facialhair02
  0 0.160327 0.056982 -0.486253 0.241160 -0.968673 -0.059284 0.065002 0.769287 1 0 1.000000
  0 0.159924 0.029052 -0.298264 0.295466 -0.949413 -0.106370 0.065002 0.727051 1 0 1.000000
  0 -0.000139 0.029052 -0.298264 -0.003942 -0.995886 -0.090525 0.096680 0.727051 1 0 1.000000
facialhair02
  0 -0.003187 0.022607 -0.172581 -0.003933 -0.989302 -0.145830 0.098022 0.704834 1 0 1.000000
  0 -0.000139 0.029052 -0.298264 -0.003942 -0.995886 -0.090525 0.096680 0.727051 1 0 1.000000
  0 0.159924 0.029052 -0.298264 0.295466 -0.949413 -0.106370 0.065002 0.727051 1 0 1.000000
facialhair02
  0 0.159924 0.029052 -0.298264 0.295466 -0.949413 -0.106370 0.065002 0.727051 1 0 1.000000
  0 0.160864 0.024756 -0.155394 0.279331 -0.955923 -0.090470 0.065002 0.694824 1 0 1.000000
  0 -0.003187 0.022607 -0.172581 -0.003933 -0.989302 -0.145830 0.098022 0.704834 1 0 1.000000
facialhair02
  0 0.003340 -0.016065 -0.027562 0.003943 -0.988134 -0.153541 0.096863 0.681641 1 0 1.000000
  0 -0.003187 0.022607 -0.172581 -0.003933 -0.989302 -0.145830 0.098022 0.704834 1 0 1.000000
  0 0.160864 0.024756 -0.155394 0.279331 -0.955923 -0.090470 0.065002 0.694824 1 0 1.000000
facialhair02
  0 0.160864 0.024756 -0.155394 0.279331 -0.955923 -0.090470 0.065002 0.694824 1 0 1.000000
  0 0.160059 -0.001026 -0.014671 0.391968 -0.914639 -0.098975 0.065002 0.663818 1 0 1.000000
  0 0.003340 -0.016065 -0.027562 0.003943 -0.988134 -0.153541 0.096863 0.681641 1 0 1.000000
facialhair02
  0 0.160327 0.056982 -0.486253 0.241160 -0.968673 -0.059284 0.065002 0.769287 1 0 1.000000
  0 0.346972 0.125732 -0.478733 0.334357 -0.932335 0.137682 0.028137 0.769287 1 0 1.000000
  0 0.297290 0.134326 -0.299339 0.530569 -0.845004 -0.066821 0.036896 0.727051 1 0 1.000000
facialhair02
  0 0.297290 0.134326 -0.299339 0.530569 -0.845004 -0.066821 0.036896 0.727051 1 0 1.000000
  0 0.159924 0.029052 -0.298264 0.295466 -0.949413 -0.106370 0.065002 0.727051 1 0 1.000000
  0 0.160327 0.056982 -0.486253 0.241160 -0.968673 -0.059284 0.065002 0.769287 1 0 1.000000
facialhair02
  0 0.159924 0.029052 -0.298264 0.295466 -0.949413 -0.106370 0.065002 0.727051 1 0 1.000000
  0 0.297290 0.134326 -0.299339 0.530569 -0.845004 -0.066821 0.036896 0.727051 1 0 1.000000
  0 0.280371 0.087060 -0.144651 0.501346 -0.864517 -0.035534 0.040222 0.691650 1 0 1.000000
facialhair02
  0 0.280371 0.087060 -0.144651 0.501346 -0.864517 -0.035534 0.040222 0.691650 1 0 1.000000
  0 0.160864 0.024756 -0.155394 0.279331 -0.955923 -0.090470 0.065002 0.694824 1 0 1.000000
  0 0.159924 0.029052 -0.298264 0.295466 -0.949413 -0.106370 0.065002 0.727051 1 0 1.000000
facialhair02
  0 0.160864 0.024756 -0.155394 0.279331 -0.955923 -0.090470 0.065002 0.694824 1 0 1.000000
  0 0.280371 0.087060 -0.144651 0.501346 -0.864517 -0.035534 0.040222 0.691650 1 0 1.000000
  0 0.264795 0.084912 -0.009300 0.587829 -0.808745 0.019710 0.043304 0.661865 1 0 1.000000
facialhair02
  0 0.264795 0.084912 -0.009300 0.587829 -0.808745 0.019710 0.043304 0.661865 1 0 1.000000
  0 0.160059 -0.001026 -0.014671 0.391968 -0.914639 -0.098975 0.065002 0.663818 1 0 1.000000
  0 0.160864 0.024756 -0.155394 0.279331 -0.955923 -0.090470 0.065002 0.694824 1 0 1.000000
facialhair02
  0 0.160059 -0.001026 -0.014671 0.391968 -0.914639 -0.098975 0.065002 0.663818 1 0 1.000000
  0 0.264795 0.084912 -0.009300 0.587829 -0.808745 0.019710 0.043304 0.661865 1 0 1.000000
  0 0.254590 0.084912 0.078786 0.657811 -0.752347 0.035476 0.045349 0.643066 1 0 1.000000
facialhair02
  0 0.254590 0.084912 0.078786 0.657811 -0.752347 0.035476 0.045349 0.643066 1 0 1.000000
  0 0.160059 -0.007471 0.078786 0.380667 -0.922301 -0.066733 0.065002 0.643066 1 0 1.000000
  0 0.160059 -0.001026 -0.014671 0.391968 -0.914639 -0.098975 0.065002 0.663818 1 0 1.000000
facialhair02
  0 0.160059 -0.001026 -0.014671 0.391968 -0.914639 -0.098975 0.065002 0.663818 1 0 1.000000
  0 0.160059 -0.007471 0.078786 0.380667 -0.922301 -0.066733 0.065002 0.643066 1 0 1.000000
  0 0.006739 -0.031104 0.156130 0.011820 -0.997123 -0.074874 0.096497 0.643066 1 0 1.000000
facialhair02
  0 0.006739 -0.031104 0.156130 0.011820 -0.997123 -0.074874 0.096497 0.643066 1 0 1.000000
  0 0.003340 -0.016065 -0.027562 0.003943 -0.988134 -0.153541 0.096863 0.681641 1 0 1.000000
  0 0.160059 -0.001026 -0.014671 0.391968 -0.914639 -0.098975 0.065002 0.663818 1 0 1.000000
facialhair02
  0 0.003340 -0.016065 -0.027562 0.003943 -0.988134 -0.153541 0.096863 0.681641 1 0 1.000000
  0 0.006739 -0.031104 0.156130 0.011820 -0.997123 -0.074874 0.096497 0.643066 1 0 1.000000
  0 -0.159656 -0.011768 0.080935 -0.294257 -0.953399 -0.066660 0.128052 0.643066 1 0 1.000000
facialhair02
  0 -0.159656 -0.011768 0.080935 -0.294257 -0.953399 -0.066660 0.128052 0.643066 1 0 1.000000
  0 -0.159656 -0.005323 -0.014671 -0.309475 -0.944097 -0.113605 0.128052 0.664307 1 0 1.000000
  0 0.003340 -0.016065 -0.027562 0.003943 -0.988134 -0.153541 0.096863 0.681641 1 0 1.000000
facialhair02
  0 -0.159656 -0.005323 -0.014671 -0.309475 -0.944097 -0.113605 0.128052 0.664307 1 0 1.000000
  0 -0.159656 -0.011768 0.080935 -0.294257 -0.953399 -0.066660 0.128052 0.643066 1 0 1.000000
  0 -0.296753 0.080615 0.080935 -0.546299 -0.837138 -0.027510 0.159424 0.643066 1 0 1.000000
facialhair02
  0 -0.296753 0.080615 0.080935 -0.546299 -0.837138 -0.027510 0.159424 0.643066 1 0 1.000000
  0 -0.299170 0.082763 -0.012522 -0.537248 -0.843196 -0.019615 0.158813 0.663574 1 0 1.000000
  0 -0.159656 -0.005323 -0.014671 -0.309475 -0.944097 -0.113605 0.128052 0.664307 1 0 1.000000
facialhair02
  0 -0.159656 -0.005323 -0.014671 -0.309475 -0.944097 -0.113605 0.128052 0.664307 1 0 1.000000
  0 -0.299170 0.082763 -0.012522 -0.537248 -0.843196 -0.019615 0.158813 0.663574 1 0 1.000000
  0 -0.300781 0.089208 -0.145725 -0.459846 -0.868574 -0.184717 0.157837 0.693604 1 0 1.000000
facialhair02
  0 -0.300781 0.089208 -0.145725 -0.459846 -0.868574 -0.184717 0.157837 0.693604 1 0 1.000000
  0 -0.158045 0.024755 -0.157542 -0.264640 -0.951919 -0.154324 0.128052 0.695312 1 0 1.000000
  0 -0.159656 -0.005323 -0.014671 -0.309475 -0.944097 -0.113605 0.128052 0.664307 1 0 1.000000
facialhair02
  0 -0.158045 0.024755 -0.157542 -0.264640 -0.951919 -0.154324 0.128052 0.695312 1 0 1.000000
  0 -0.300781 0.089208 -0.145725 -0.459846 -0.868574 -0.184717 0.157837 0.693604 1 0 1.000000
  0 -0.296753 0.132177 -0.290745 -0.560517 -0.827020 -0.043116 0.157104 0.727051 1 0 1.000000
facialhair02
  0 -0.296753 0.132177 -0.290745 -0.560517 -0.827020 -0.043116 0.157104 0.727051 1 0 1.000000
  0 -0.158984 0.029052 -0.298264 -0.294367 -0.953877 -0.058884 0.128052 0.727051 1 0 1.000000
  0 -0.158045 0.024755 -0.157542 -0.264640 -0.951919 -0.154324 0.128052 0.695312 1 0 1.000000
facialhair02
  0 0.003459 0.046240 -0.313304 0.059288 -0.968670 -0.241170 0.104126 0.899536 1 0 1.000000
  0 -0.003902 0.155810 -0.589378 0.003971 -0.929826 -0.367977 0.105835 0.943848 1 0 1.000000
  0 0.190271 0.151513 -0.594749 0.121789 -0.954817 -0.271095 0.063904 0.943970 1 0 1.000000
facialhair02
  0 -0.199536 0.145068 -0.592600 -0.074654 -0.955043 -0.286914 0.147705 0.943695 1 0 1.000000
  0 -0.003902 0.155810 -0.589378 0.003971 -0.929826 -0.367977 0.105835 0.943848 1 0 1.000000
  0 0.003459 0.046240 -0.313304 0.059288 -0.968670 -0.241170 0.104126 0.899536 1 0 1.000000
facialhair02
  0 0.003459 0.046240 -0.313304 0.059288 -0.968670 -0.241170 0.104126 0.899536 1 0 1.000000
  0 -0.157642 0.093505 -0.282151 -0.358506 -0.918024 -0.169424 0.143677 0.899597 1 0 1.000000
  0 -0.199536 0.145068 -0.592600 -0.074654 -0.955043 -0.286914 0.147705 0.943695 1 0 1.000000
facialhair02
  0 -0.157642 0.093505 -0.282151 -0.358506 -0.918024 -0.169424 0.143677 0.899597 1 0 1.000000
  0 0.003459 0.046240 -0.313304 0.059288 -0.968670 -0.241170 0.104126 0.899536 1 0 1.000000
  0 0.004700 -0.001026 -0.176878 0.067130 -0.959797 -0.272549 0.103882 0.878540 1 0 1.000000
facialhair02
  0 0.004700 -0.001026 -0.176878 0.067130 -0.959797 -0.272549 0.103882 0.878540 1 0 1.000000
  0 -0.173755 0.078466 -0.152171 -0.413569 -0.886218 -0.208754 0.142822 0.878723 1 0 1.000000
  0 -0.157642 0.093505 -0.282151 -0.358506 -0.918024 -0.169424 0.143677 0.899597 1 0 1.000000
facialhair02
  0 -0.173755 0.078466 -0.152171 -0.413569 -0.886218 -0.208754 0.142822 0.878723 1 0 1.000000
  0 0.004700 -0.001026 -0.176878 0.067130 -0.959797 -0.272549 0.103882 0.878540 1 0 1.000000
  0 0.004406 -0.035401 -0.034007 0.043192 -0.969938 -0.239487 0.104065 0.857544 1 0 1.000000
facialhair02
  0 0.004406 -0.035401 -0.034007 0.043192 -0.969938 -0.239487 0.104065 0.857544 1 0 1.000000
  0 -0.173621 0.033349 -0.011448 -0.387422 -0.888326 -0.246539 0.142944 0.857666 1 0 1.000000
  0 -0.173755 0.078466 -0.152171 -0.413569 -0.886218 -0.208754 0.142822 0.878723 1 0 1.000000
facialhair02
  0 -0.173889 -0.001026 0.128200 -0.389580 -0.893262 -0.224301 0.143066 0.836670 1 0 1.000000
  0 -0.173621 0.033349 -0.011448 -0.387422 -0.888326 -0.246539 0.142944 0.857666 1 0 1.000000
  0 0.004406 -0.035401 -0.034007 0.043192 -0.969938 -0.239487 0.104065 0.857544 1 0 1.000000
facialhair02
  0 0.004406 -0.035401 -0.034007 0.043192 -0.969938 -0.239487 0.104065 0.857544 1 0 1.000000
  0 0.003634 -0.069776 0.106716 0.051134 -0.971363 -0.232033 0.104187 0.836426 1 0 1.000000
  0 -0.173889 -0.001026 0.128200 -0.389580 -0.893262 -0.224301 0.143066 0.836670 1 0 1.000000
facialhair02
  0 0.169189 0.011865 0.143239 0.470935 -0.858769 -0.201834 0.065430 0.836182 1 0 1.000000
  0 0.003634 -0.069776 0.106716 0.051134 -0.971363 -0.232033 0.104187 0.836426 1 0 1.000000
  0 0.004406 -0.035401 -0.034007 0.043192 -0.969938 -0.239487 0.104065 0.857544 1 0 1.000000
facialhair02
  0 0.004406 -0.035401 -0.034007 0.043192 -0.969938 -0.239487 0.104065 0.857544 1 0 1.000000
  0 0.170398 0.046240 0.001443 0.483922 -0.845889 -0.224255 0.065125 0.857300 1 0 1.000000
  0 0.169189 0.011865 0.143239 0.470935 -0.858769 -0.201834 0.065430 0.836182 1 0 1.000000
facialhair02
  0 0.170398 0.046240 0.001443 0.483922 -0.845889 -0.224255 0.065125 0.857300 1 0 1.000000
  0 0.004406 -0.035401 -0.034007 0.043192 -0.969938 -0.239487 0.104065 0.857544 1 0 1.000000
  0 0.004700 -0.001026 -0.176878 0.067130 -0.959797 -0.272549 0.103882 0.878540 1 0 1.000000
facialhair02
  0 0.004700 -0.001026 -0.176878 0.067130 -0.959797 -0.272549 0.103882 0.878540 1 0 1.000000
  0 0.144885 0.078466 -0.143577 0.502894 -0.827570 -0.249452 0.064880 0.878418 1 0 1.000000
  0 0.170398 0.046240 0.001443 0.483922 -0.845889 -0.224255 0.065125 0.857300 1 0 1.000000
facialhair02
  0 0.144885 0.078466 -0.143577 0.502894 -0.827570 -0.249452 0.064880 0.878418 1 0 1.000000
  0 0.004700 -0.001026 -0.176878 0.067130 -0.959797 -0.272549 0.103882 0.878540 1 0 1.000000
  0 0.003459 0.046240 -0.313304 0.059288 -0.968670 -0.241170 0.104126 0.899536 1 0 1.000000
facialhair02
  0 0.003459 0.046240 -0.313304 0.059288 -0.968670 -0.241170 0.104126 0.899536 1 0 1.000000
  0 0.156702 0.117138 -0.302562 0.430010 -0.895545 -0.114412 0.064575 0.899475 1 0 1.000000
  0 0.144885 0.078466 -0.143577 0.502894 -0.827570 -0.249452 0.064880 0.878418 1 0 1.000000
facialhair02
  0 0.190271 0.151513 -0.594749 0.121789 -0.954817 -0.271095 0.063904 0.943970 1 0 1.000000
  0 0.156702 0.117138 -0.302562 0.430010 -0.895545 -0.114412 0.064575 0.899475 1 0 1.000000
  0 0.003459 0.046240 -0.313304 0.059288 -0.968670 -0.241170 0.104126 0.899536 1 0 1.000000
facialhair02
  0 -0.349658 0.050537 -0.438987 -0.506875 -0.860505 -0.051079 0.001968 0.916931 1 0 1.000000
  0 -0.213098 0.018310 -0.522776 -0.334780 -0.925483 -0.177212 0.037262 0.916931 1 0 1.000000
  0 -0.259558 -0.011768 -0.282151 -0.678942 -0.733930 0.019617 0.030762 0.890137 1 0 1.000000
facialhair02
  0 -0.259558 -0.011768 -0.282151 -0.678942 -0.733930 0.019617 0.030762 0.890137 1 0 1.000000
  0 -0.367383 0.110693 -0.274632 -0.750263 -0.655973 0.082492 0.001968 0.890137 1 0 1.000000
  0 -0.349658 0.050537 -0.438987 -0.506875 -0.860505 -0.051079 0.001968 0.916931 1 0 1.000000
facialhair02
  0 -0.364966 0.112841 -0.115647 -0.755913 -0.638431 0.144917 0.001968 0.866211 1 0 1.000000
  0 -0.367383 0.110693 -0.274632 -0.750263 -0.655973 0.082492 0.001968 0.890137 1 0 1.000000
  0 -0.259558 -0.011768 -0.282151 -0.678942 -0.733930 0.019617 0.030762 0.890137 1 0 1.000000
facialhair02
  0 -0.259558 -0.011768 -0.282151 -0.678942 -0.733930 0.019617 0.030762 0.890137 1 0 1.000000
  0 -0.259558 -0.009620 -0.124241 -0.745749 -0.652053 0.136693 0.030975 0.866211 1 0 1.000000
  0 -0.364966 0.112841 -0.115647 -0.755913 -0.638431 0.144917 0.001968 0.866211 1 0 1.000000
facialhair02
  0 -0.364966 0.112841 -0.115647 -0.755913 -0.638431 0.144917 0.001968 0.866211 1 0 1.000000
  0 -0.259558 -0.009620 -0.124241 -0.745749 -0.652053 0.136693 0.030975 0.866211 1 0 1.000000
  0 -0.191748 -0.009620 0.072341 -0.746203 -0.597769 0.293008 0.031250 0.836426 1 0 1.000000
facialhair02
  0 -0.191748 -0.009620 0.072341 -0.746203 -0.597769 0.293008 0.031250 0.836426 1 0 1.000000
  0 -0.290039 0.123583 0.080935 -0.756065 -0.568016 0.325153 0.001968 0.836426 1 0 1.000000
  0 -0.364966 0.112841 -0.115647 -0.755913 -0.638431 0.144917 0.001968 0.866211 1 0 1.000000
end
