// Created by Crowbar 0.42.0.0

$ModelName "mosi/fallout4/character/facialhair/SoulPatch.mdl"

$StaticProp

$BodyGroup "studio"
{
	studio "soulpatch_reference.smd"
}


$SurfaceProp "default"

$Contents "solid"

$MaxEyeDeflection 90

$CDMaterials "models\mosi\fallout4\character\hair\"

$TextureGroup "skinfamilies"
{
	{ "facialhair02"     }
	{ "facialhair02_alt" }
}

$CBox 0 0 0 0 0 0

$BBox -0.164 -0.392 -0.628 0.113 0.355 0.229


$Sequence "idle" {
	"soulpatch_anim_@idle.smd"
	fadein 0.2
	fadeout 0.2
	fps 30
}
