
VertexLitGeneric
{

	$basetexture models/jessev92/characters/hl2/male/refugee/citizen_rebel_d
	$bumpmap models/jessev92/characters/hl2/male/refugee/citizen_rebel_b
	$lightwarptexture dev/identitylightwarp

	$halflambert 1
	$ambientocclusion 1
	$nocull 1

	$phong 0
	$phongexponent 1
	$phongboost 0.3
	$phongfresnelranges "[ 0.1 2.1 5.1 ]"
	$phongalbedotint 1

	$rimlight 1
	$rimlightexponent 30
	$rimlightboost 0.1

}
