
//	Model, Dynamic Roleplay
//	Character, Police
//	Police by V92
//	Creation Date: 2017/01/02
//	Update: 2017/05/21

vertexlitgeneric
{

	//------------------------------
	//	texture paths
	//------------------------------
	
	// the $basetexture vmt command defines an albedo texture.
	$basetexture models/jessev92/characters/oc/sheriff/sheriff_upper3_d
	// the $bumpmap vmt parameter specifies a texture that will provide three-dimensional lighting information for a material.
	$bumpmap models/jessev92/characters/oc/police/police_upper_b
    // forces directx 8 cards to render the bump map. they normally don't for performance reasons. 
	// $forcebump 1

	$lightwarptexture dev/identitylightwarp
	
	//------------------------------
	// model parametres
	//------------------------------
	
	// the material parameter $model marks a material as for use on a model rather than a brush
	$model 1
	// implements half lambert lighting, which wraps lighting further around a model to prevent it losing definition. requires vertexlitgeneric
	$halflambert 1 
	// surface property
	$surfaceprop flesh

	//------------------------------
	// ambient occlusion parametres
	//------------------------------
	
	// disable/enable ambient occlusion
	$ambientocclusion 1
	// replacing n with a number of the color (rgb format) default: "[ 255 255 255 ]"
	$ambientocclcolor "[ 255 255 255 ]"
	// filename of the ambient occlusion texture to use 
	//$ambientocclusiontexture models/jessev92/

	//------------------------------
	// phong parametres
	//------------------------------

	// to enable phong
	$phong 1
    // the numeric value overrides an exponent mask if present. 
	$phongexponent 4
    // phong brightness factor. larger values create a more intense highlight, useful for surfaces like metal and glass. 
	$phongboost 0.05
    // phong fresnel ranges. default is "[ 0 0.5 1 ]"
	$phongfresnelranges "[ 0.1 0.2 0.5 ]"

	//------------------------------
	// rim lighting parametres
	//------------------------------

	// to disable/enable rim lighting (requires phong)
	$rimlight 1
	// exponent of rim lighting
	$rimlightexponent 4
	// boost of rim lighting
	$rimlightboost 1

	//------------------------------
	// detail map parametres
	//------------------------------
	
	// detail texture to overlay
	$detail detail/detailash001a
	// scale of the detail texture over the diffuse
	$detailscale 16
	// visibility of the detail texture
	$detailblendfactor 0.25
	// the render mode of the detail texture
	$detailblendmode 0
	
	//------------------------------
	// % parametres
	//------------------------------
	
	%keywords "v92, dynamic, roleplay, dynrp, officer, police, model"
	
	$proxytoggle 1
	Proxies
	{

		Equals
		{

			srcVar1 $proxytoggle // Disable Proxies
			resultVar $color // The shader parameter to be manipulated

		}

	}

}
