version 1
nodes
  0 "cobrahelmentmask"  -1
  1 "ValveBiped.Bip01_Pelvis"  -1
  2 "ValveBiped.Bip01_Spine"   1
  3 "ValveBiped.Bip01_Spine1"   2
  4 "ValveBiped.Bip01_Spine2"   3
  5 "ValveBiped.Bip01_Spine4"   4
  6 "ValveBiped.Bip01_Neck1"   5
  7 "ValveBiped.Bip01_Head1"   6
  8 "ValveBiped.forward"   7
  9 "ValveBiped.Bip01_L_Clavicle"   5
 10 "ValveBiped.Bip01_L_UpperArm"   9
 11 "ValveBiped.Bip01_L_Forearm"  10
 12 "ValveBiped.Bip01_L_Hand"  11
 13 "ValveBiped.Anim_Attachment_LH"  12
 14 "ValveBiped.Bip01_L_Finger1"  12
 15 "ValveBiped.Bip01_L_Finger11"  14
 16 "ValveBiped.Bip01_L_Finger12"  15
 17 "ValveBiped.Bip01_L_Finger0"  12
 18 "ValveBiped.Bip01_L_Finger01"  17
 19 "ValveBiped.Bip01_L_Finger02"  18
 20 "ValveBiped.Bip01_L_Finger4"  12
 21 "ValveBiped.Bip01_L_Finger41"  20
 22 "ValveBiped.Bip01_L_Finger42"  21
 23 "ValveBiped.Bip01_L_Finger3"  12
 24 "ValveBiped.Bip01_L_Finger31"  23
 25 "ValveBiped.Bip01_L_Finger32"  24
 26 "ValveBiped.Bip01_L_Finger2"  12
 27 "ValveBiped.Bip01_L_Finger21"  26
 28 "ValveBiped.Bip01_L_Finger22"  27
 29 "ValveBiped.Bip01_L_Ulna"  11
 30 "ValveBiped.Bip01_L_Wrist"  11
 31 "ValveBiped.Bip01_L_Elbow"  10
 32 "ValveBiped.Bip01_L_Shoulder"  10
 33 "ValveBiped.Bip01_L_Bicep"  10
 34 "ValveBiped.Bip01_L_Trapezius"   9
 35 "ValveBiped.Bip01_R_Clavicle"   5
 36 "ValveBiped.Bip01_R_UpperArm"  35
 37 "ValveBiped.Bip01_R_Forearm"  36
 38 "ValveBiped.Bip01_R_Hand"  37
 39 "ValveBiped.Anim_Attachment_RH"  38
 40 "ValveBiped.Bip01_R_Finger2"  38
 41 "ValveBiped.Bip01_R_Finger21"  40
 42 "ValveBiped.Bip01_R_Finger22"  41
 43 "ValveBiped.Bip01_R_Finger1"  38
 44 "ValveBiped.Bip01_R_Finger11"  43
 45 "ValveBiped.Bip01_R_Finger12"  44
 46 "ValveBiped.Bip01_R_Finger0"  38
 47 "ValveBiped.Bip01_R_Finger01"  46
 48 "ValveBiped.Bip01_R_Finger02"  47
 49 "ValveBiped.Bip01_R_Finger4"  38
 50 "ValveBiped.Bip01_R_Finger41"  49
 51 "ValveBiped.Bip01_R_Finger42"  50
 52 "ValveBiped.Bip01_R_Finger3"  38
 53 "ValveBiped.Bip01_R_Finger31"  52
 54 "ValveBiped.Bip01_R_Finger32"  53
 55 "ValveBiped.Bip01_R_Wrist"  37
 56 "ValveBiped.Bip01_R_Ulna"  37
 57 "ValveBiped.Bip01_R_Elbow"  36
 58 "ValveBiped.Bip01_R_Shoulder"  36
 59 "ValveBiped.Bip01_R_Bicep"  36
 60 "ValveBiped.Bip01_R_Trapezius"  35
 61 "ValveBiped.Bip01_L_Thigh"   1
 62 "ValveBiped.Bip01_L_Calf"  61
 63 "ValveBiped.Bip01_L_Foot"  62
 64 "ValveBiped.Bip01_L_Toe0"  63
 65 "ValveBiped.Bip01_R_Thigh"   1
 66 "ValveBiped.Bip01_R_Calf"  65
 67 "ValveBiped.Bip01_R_Foot"  66
 68 "ValveBiped.Bip01_R_Toe0"  67
end
skeleton
time 0
  0 0.242651 -1.598893 68.311554 -3.141593 1.396263 1.570796
  1 -0.000005 -0.533615 38.566917 1.570796 -0.000000 0.000000
  2 0.000005 3.345127 -2.981901 1.570796 0.086293 1.570796
  3 4.018322 -0.000000 0.000000 0.000000 0.000000 -0.029242
  4 3.518547 0.000002 0.000000 -0.000000 -0.000000 0.100336
  5 8.942642 0.000000 0.000000 -0.000000 -0.000000 0.194096
  6 3.307266 -0.000001 0.000000 3.141590 -0.000000 0.400478
  7 3.593723 0.000008 0.000000 -0.000000 -0.000001 0.406587
  8 2.000019 -3.000000 0.000000 -1.570796 -0.000000 -1.326450
  9 2.033348 1.000766 1.937660 -1.544955 -1.855079 -0.198632
 10 6.028147 0.000008 -0.000000 -1.579613 0.047802 -0.585173
 11 11.692566 -0.000002 0.000004 -0.000000 -0.000000 -0.060372
 12 11.481668 -0.000000 -0.000019 1.573183 -0.106613 0.044193
 13 2.676094 -1.712440 0.000000 1.570797 -0.000000 1.570796
 14 3.871284 0.117424 1.300902 0.352467 -0.032975 -0.463848
 15 1.719421 0.000000 -0.000002 0.000000 0.005107 -0.362997
 16 1.099663 -0.000002 -0.000003 -0.000000 0.003255 -0.244324
 17 0.838833 -0.300278 1.312774 -1.251009 -0.669799 -0.720133
 18 1.789789 0.000000 0.000004 -0.000000 -0.002159 0.228630
 19 1.207001 -0.000002 0.000000 0.000000 -0.003300 0.363014
 20 3.859707 -0.142410 -1.191976 -0.479144 0.152190 -0.879874
 21 1.312557 -0.000002 0.000000 -0.000000 0.009665 -0.439720
 22 0.729366 0.000007 0.000000 -0.000000 0.004971 -0.244299
 23 3.942322 0.046776 -0.431443 -0.155014 0.073328 -0.810648
 24 1.539093 0.000006 -0.000000 0.000000 0.004460 -0.247797
 25 1.196323 0.000002 0.000000 0.000000 0.007361 -0.430802
 26 3.881369 0.214691 0.400258 0.087707 0.031641 -0.519952
 27 1.719578 0.000000 0.000000 -0.000000 0.005005 -0.366486
 28 1.209171 -0.000006 -0.000000 0.000000 0.002798 -0.216404
 29 5.740854 0.000002 0.000004 0.000688 -0.000000 0.000000
 30 11.481707 0.000004 0.000004 0.001272 -0.000000 0.000000
 31 11.692564 -0.000001 0.000004 -0.000000 0.000000 -0.029500
 32 1.499992 -0.000000 0.000011 0.000000 0.000000 -0.000000
 33 5.560005 -0.000001 0.000000 0.000000 0.000000 -0.000000
 34 5.166967 -0.000004 -0.000000 0.000000 -0.000000 -0.000000
 35 2.033356 1.000772 -1.937610 1.473118 1.855075 -0.198640
 36 6.028141 -0.000004 0.000000 1.639479 -0.008065 -0.586846
 37 11.692539 0.000001 0.000004 0.000000 -0.000000 -0.060372
 38 11.481695 0.000000 0.000004 -1.564937 0.106606 0.044193
 39 2.676085 -1.712444 -0.000000 -1.570796 -0.000000 -1.570796
 40 3.881340 0.211361 -0.402026 -0.087717 -0.035763 -0.519702
 41 1.719580 0.000008 -0.000001 0.000000 -0.007584 -0.366444
 42 1.209187 -0.000006 -0.000001 0.000000 -0.004241 -0.216380
 43 3.871252 0.106625 -1.301832 -0.352486 0.029262 -0.464072
 44 1.719431 -0.000004 -0.000002 0.000000 -0.007737 -0.362953
 45 1.099659 -0.000002 0.000001 -0.000001 -0.004929 -0.244295
 46 0.838804 -0.311192 -1.310237 1.248034 0.664310 -0.725028
 47 1.789785 -0.000001 0.000004 0.000001 0.003279 0.228617
 48 1.207008 0.000002 0.000004 -0.000000 0.005010 0.362995
 49 3.859674 -0.132568 1.193108 0.479140 -0.158545 -0.879041
 50 1.312565 0.000002 -0.000001 0.000000 -0.011932 -0.439672
 51 0.729370 0.000003 -0.000000 -0.000000 -0.006134 -0.244271
 52 3.942293 0.050327 0.431043 0.154999 -0.079305 -0.810205
 53 1.539101 0.000006 0.000000 -0.000000 -0.005854 -0.247771
 54 1.196323 0.000006 -0.000001 -0.000000 -0.009663 -0.430761
 55 11.481697 -0.000005 -0.000008 0.000150 -0.000000 -0.000000
 56 5.740856 -0.000001 -0.000008 0.000081 -0.000000 0.000000
 57 11.692554 0.000001 0.000008 0.000000 -0.000000 -0.029500
 58 1.500011 0.000001 0.000004 -0.286069 -0.000000 0.000000
 59 5.559998 0.000001 0.000004 -0.149016 -0.000000 0.000000
 60 5.166960 0.000004 0.000000 -0.000000 0.000000 -0.000000
 61 3.890452 -0.000004 -0.000003 -1.570796 0.051839 -1.565574
 62 17.848146 0.000000 0.000000 -0.000000 -0.000000 0.034200
 63 16.525227 0.000000 0.000001 -0.027915 -0.040782 -1.071638
 64 6.879442 -0.000001 -0.000001 -0.007299 -0.002951 -0.584373
 65 -3.890452 0.000004 0.000007 -1.570796 0.051845 -1.576021
 66 17.848164 -0.000000 0.000003 -0.000000 0.000000 0.034187
 67 16.525246 0.000000 0.000000 0.038611 0.040779 -1.071632
 68 6.879444 -0.000001 0.000000 -0.081334 -0.002949 -0.584373
end
triangles
cobra_driver_helmet
  0 -0.000000 0.032950 72.516541 0.143702 -0.974587 -0.171846 0.559204 0.509270 1 7 1.000000
  0 -0.000000 -1.559819 72.520927 -0.133334 -0.976015 -0.172098 0.643464 0.509270 1 7 1.000000
  0 1.123415 -0.481280 72.365234 0.050855 -0.868173 -0.493650 0.585242 0.589406 1 7 1.000000
cobra_driver_helmet
  0 -0.000000 -1.559819 72.520927 -0.133334 -0.976015 -0.172098 0.643464 0.509270 1 7 1.000000
  0 -0.000000 -3.095127 72.083107 -0.274234 -0.947053 -0.166991 0.721310 0.509270 1 7 1.000000
  0 1.136269 -2.122103 72.202049 -0.162079 -0.894955 -0.415676 0.670764 0.590323 1 7 1.000000
cobra_driver_helmet
  0 -0.000000 -1.559819 72.520927 -0.133334 -0.976015 -0.172098 0.643464 0.509270 1 7 1.000000
  0 1.136269 -2.122103 72.202049 -0.162079 -0.894955 -0.415676 0.670764 0.590323 1 7 1.000000
  0 1.123415 -0.481280 72.365234 0.050855 -0.868173 -0.493650 0.585242 0.589406 1 7 1.000000
cobra_driver_helmet
  0 1.123415 -0.481280 72.365234 0.050855 -0.868173 -0.493650 0.585242 0.589406 1 7 1.000000
  0 1.136269 -2.122103 72.202049 -0.162079 -0.894955 -0.415676 0.670764 0.590323 1 7 1.000000
  0 2.161312 -1.020150 71.783577 -0.004888 -0.775594 -0.631214 0.609297 0.663442 1 7 1.000000
cobra_driver_helmet
  0 -0.000000 0.032950 72.516541 0.143702 -0.974587 -0.171846 0.559204 0.509270 1 7 1.000000
  0 1.123415 -0.481280 72.365234 0.050855 -0.868173 -0.493650 0.585242 0.589406 1 7 1.000000
  0 0.694309 1.263834 72.113327 0.355156 -0.861360 -0.363213 0.491036 0.558797 1 7 1.000000
cobra_driver_helmet
  0 1.123415 -0.481280 72.365234 0.050855 -0.868173 -0.493650 0.585242 0.589406 1 7 1.000000
  0 2.161312 -1.020150 71.783577 -0.004888 -0.775594 -0.631214 0.609297 0.663442 1 7 1.000000
  0 1.838522 0.733857 71.789780 0.240091 -0.789098 -0.565403 0.516592 0.640416 1 7 1.000000
cobra_driver_helmet
  0 1.123415 -0.481280 72.365234 0.050855 -0.868173 -0.493650 0.585242 0.589406 1 7 1.000000
  0 1.838522 0.733857 71.789780 0.240091 -0.789098 -0.565403 0.516592 0.640416 1 7 1.000000
  0 0.694309 1.263834 72.113327 0.355156 -0.861360 -0.363213 0.491036 0.558797 1 7 1.000000
cobra_driver_helmet
  0 0.694309 1.263834 72.113327 0.355156 -0.861360 -0.363213 0.491036 0.558797 1 7 1.000000
  0 1.838522 0.733857 71.789780 0.240091 -0.789098 -0.565403 0.516592 0.640416 1 7 1.000000
  0 1.335764 2.337232 71.298927 0.531465 -0.747046 -0.399332 0.428057 0.604553 1 7 1.000000
cobra_driver_helmet
  0 -0.000000 0.032950 72.516541 0.143702 -0.974587 -0.171846 0.559204 0.509270 1 7 1.000000
  0 0.694309 1.263834 72.113327 0.355156 -0.861360 -0.363213 0.491036 0.558797 1 7 1.000000
  0 -0.694309 1.263833 72.113327 0.355156 -0.933640 0.046706 0.491036 0.459743 1 7 1.000000
cobra_driver_helmet
  0 0.694309 1.263834 72.113327 0.355156 -0.861360 -0.363213 0.491036 0.558797 1 7 1.000000
  0 1.335764 2.337232 71.298927 0.531465 -0.747046 -0.399332 0.428057 0.604553 1 7 1.000000
  0 -0.000000 2.498937 71.534988 0.584699 -0.798926 -0.140872 0.421308 0.509270 1 7 1.000000
cobra_driver_helmet
  0 0.694309 1.263834 72.113327 0.355156 -0.861360 -0.363213 0.491036 0.558797 1 7 1.000000
  0 -0.000000 2.498937 71.534988 0.584699 -0.798926 -0.140872 0.421308 0.509270 1 7 1.000000
  0 -0.694309 1.263833 72.113327 0.355156 -0.933640 0.046706 0.491036 0.459743 1 7 1.000000
cobra_driver_helmet
  0 -0.694309 1.263833 72.113327 0.355156 -0.933640 0.046706 0.491036 0.459743 1 7 1.000000
  0 -0.000000 2.498937 71.534988 0.584699 -0.798926 -0.140872 0.421308 0.509270 1 7 1.000000
  0 -1.335765 2.337232 71.298927 0.531465 -0.838574 0.119745 0.428057 0.413987 1 7 1.000000
cobra_driver_helmet
  0 -0.000000 0.032950 72.516541 0.143702 -0.974587 -0.171846 0.559204 0.509270 1 7 1.000000
  0 -0.694309 1.263833 72.113327 0.355156 -0.933640 0.046706 0.491036 0.459743 1 7 1.000000
  0 -1.123415 -0.481280 72.365234 0.050855 -0.984654 0.166947 0.585242 0.429134 1 7 1.000000
cobra_driver_helmet
  0 -0.694309 1.263833 72.113327 0.355156 -0.933640 0.046706 0.491036 0.459743 1 7 1.000000
  0 -1.335765 2.337232 71.298927 0.531465 -0.838574 0.119745 0.428057 0.413987 1 7 1.000000
  0 -1.838522 0.733857 71.789780 0.240091 -0.934889 0.261418 0.516592 0.378124 1 7 1.000000
cobra_driver_helmet
  0 -0.694309 1.263833 72.113327 0.355156 -0.933640 0.046706 0.491036 0.459743 1 7 1.000000
  0 -1.838522 0.733857 71.789780 0.240091 -0.934889 0.261418 0.516592 0.378124 1 7 1.000000
  0 -1.123415 -0.481280 72.365234 0.050855 -0.984654 0.166947 0.585242 0.429134 1 7 1.000000
cobra_driver_helmet
  0 -1.123415 -0.481280 72.365234 0.050855 -0.984654 0.166947 0.585242 0.429134 1 7 1.000000
  0 -1.838522 0.733857 71.789780 0.240091 -0.934889 0.261418 0.516592 0.378124 1 7 1.000000
  0 -2.161312 -1.020150 71.783577 -0.004888 -0.944708 0.327878 0.609297 0.355098 1 7 1.000000
cobra_driver_helmet
  0 -0.000000 0.032950 72.516541 0.143702 -0.974587 -0.171846 0.559204 0.509270 1 7 1.000000
  0 -1.123415 -0.481280 72.365234 0.050855 -0.984654 0.166947 0.585242 0.429134 1 7 1.000000
  0 -0.000000 -1.559819 72.520927 -0.133334 -0.976015 -0.172098 0.643464 0.509270 1 7 1.000000
cobra_driver_helmet
  0 -1.123415 -0.481280 72.365234 0.050855 -0.984654 0.166947 0.585242 0.429134 1 7 1.000000
  0 -2.161312 -1.020150 71.783577 -0.004888 -0.944708 0.327878 0.609297 0.355098 1 7 1.000000
  0 -1.136269 -2.122104 72.202049 -0.162079 -0.983152 0.084515 0.670764 0.428217 1 7 1.000000
cobra_driver_helmet
  0 -1.123415 -0.481280 72.365234 0.050855 -0.984654 0.166947 0.585242 0.429134 1 7 1.000000
  0 -1.136269 -2.122104 72.202049 -0.162079 -0.983152 0.084515 0.670764 0.428217 1 7 1.000000
  0 -0.000000 -1.559819 72.520927 -0.133334 -0.976015 -0.172098 0.643464 0.509270 1 7 1.000000
cobra_driver_helmet
  0 -0.000000 -1.559819 72.520927 -0.133334 -0.976015 -0.172098 0.643464 0.509270 1 7 1.000000
  0 -1.136269 -2.122104 72.202049 -0.162079 -0.983152 0.084515 0.670764 0.428217 1 7 1.000000
  0 -0.000000 -3.095127 72.083107 -0.274234 -0.947053 -0.166991 0.721310 0.509270 1 7 1.000000
cobra_driver_helmet
  0 2.161312 -4.295341 70.331024 -0.560144 -0.450553 -0.695155 0.835595 0.636848 1 7 1.000000
  0 2.272538 -2.753093 71.280922 -0.316283 -0.594379 -0.739377 0.754920 0.643609 1 7 1.000000
  0 1.136269 -3.843973 71.438393 -0.512685 -0.713996 -0.476827 0.787548 0.574537 1 7 1.000000
cobra_driver_helmet
  0 2.272538 -2.753093 71.280922 -0.316283 -0.594379 -0.739377 0.754920 0.643609 1 7 1.000000
  0 2.161312 -1.020150 71.783577 -0.200555 -0.705153 -0.680101 0.680908 0.636848 1 7 1.000000
  0 1.136269 -2.122103 72.202049 -0.200555 -0.705153 -0.680101 0.706224 0.574537 1 7 1.000000
cobra_driver_helmet
  0 2.272538 -2.753093 71.280922 -0.316283 -0.594379 -0.739377 0.754920 0.643609 1 7 1.000000
  0 1.136269 -2.122103 72.202049 -0.360296 -0.720429 -0.592595 0.706224 0.574537 1 7 1.000000
  0 1.136269 -3.843973 71.438393 -0.512685 -0.713996 -0.476827 0.787548 0.574537 1 7 1.000000
cobra_driver_helmet
  0 1.136269 -3.843973 71.438393 -0.512685 -0.713996 -0.476827 0.787548 0.574537 1 7 1.000000
  0 1.136269 -2.122103 72.202049 -0.393177 -0.830707 -0.394130 0.706224 0.574537 1 7 1.000000
  0 -0.000000 -3.095127 72.083107 -0.393177 -0.830707 -0.394130 0.742970 0.505465 1 7 1.000000
cobra_driver_helmet
  0 3.497077 1.137018 69.546844 0.275158 -0.233772 -0.932544 0.345927 0.732875 1 7 1.000000
  0 2.540775 1.867947 70.613861 0.406063 -0.464548 -0.786961 0.324393 0.689807 1 7 1.000000
  0 2.974791 0.102867 70.868652 0.140915 -0.465473 -0.873772 0.391651 0.689807 1 7 1.000000
cobra_driver_helmet
  0 2.540775 1.867947 70.613861 0.406063 -0.464548 -0.786961 0.324393 0.689807 1 7 1.000000
  0 1.335764 2.337232 71.298927 0.398404 -0.612836 -0.682427 0.310567 0.662155 1 7 1.000000
  0 1.838522 0.733857 71.789780 0.398404 -0.612836 -0.682427 0.373062 0.652627 1 7 1.000000
cobra_driver_helmet
  0 2.540775 1.867947 70.613861 0.406063 -0.464548 -0.786961 0.324393 0.689807 1 7 1.000000
  0 1.838522 0.733857 71.789780 0.266975 -0.540376 -0.797946 0.373062 0.652627 1 7 1.000000
  0 2.974791 0.102867 70.868652 0.140915 -0.465473 -0.873772 0.391651 0.689807 1 7 1.000000
cobra_driver_helmet
  0 2.974791 0.102867 70.868652 0.140915 -0.465473 -0.873772 0.391651 0.689807 1 7 1.000000
  0 1.838522 0.733857 71.789780 0.119672 -0.611089 -0.782464 0.373062 0.652627 1 7 1.000000
  0 2.161312 -1.020150 71.783577 0.119672 -0.611089 -0.782464 0.438500 0.662155 1 7 1.000000
cobra_driver_helmet
  0 -0.000000 4.494400 69.062195 0.919699 -0.386660 -0.068178 0.249676 0.508853 1 7 1.000000
  0 -0.702253 3.633027 70.359062 0.790370 -0.593443 0.152119 0.313659 0.469128 1 7 1.000000
  0 0.702253 3.633028 70.359062 0.790370 -0.505627 -0.345914 0.313659 0.548577 1 7 1.000000
cobra_driver_helmet
  0 -0.702253 3.633027 70.359062 0.638931 -0.765455 0.076461 0.352361 0.459177 1 7 1.000000
  0 -1.335765 2.337232 71.298927 0.531465 -0.838574 0.119745 0.428057 0.413987 1 7 1.000000
  0 -0.000000 2.498937 71.534988 0.584699 -0.798926 -0.140872 0.421308 0.509270 1 7 1.000000
cobra_driver_helmet
  0 -0.702253 3.633027 70.359062 0.719794 -0.683642 -0.120544 0.352361 0.459177 1 7 1.000000
  0 -0.000000 2.498937 71.534988 0.584699 -0.798926 -0.140872 0.421308 0.509270 1 7 1.000000
  0 0.702253 3.633028 70.359062 0.719794 -0.683642 -0.120544 0.352361 0.559363 1 7 1.000000
cobra_driver_helmet
  0 0.702253 3.633028 70.359062 0.638931 -0.693141 -0.333651 0.352361 0.559363 1 7 1.000000
  0 -0.000000 2.498937 71.534988 0.584699 -0.798926 -0.140872 0.421308 0.509270 1 7 1.000000
  0 1.335764 2.337232 71.298927 0.531465 -0.747046 -0.399332 0.428057 0.604553 1 7 1.000000
cobra_driver_helmet
  0 -3.497076 1.137018 69.546844 0.275157 -0.538623 0.796350 0.357627 0.303162 1 7 1.000000
  0 -2.974791 0.102866 70.868652 0.140915 -0.736250 0.661876 0.397606 0.346230 1 7 1.000000
  0 -2.540775 1.867946 70.613861 0.406063 -0.705689 0.580617 0.330348 0.346230 1 7 1.000000
cobra_driver_helmet
  0 -2.974791 0.102866 70.868652 0.140915 -0.736250 0.661876 0.397606 0.346230 1 7 1.000000
  0 -2.161312 -1.020150 71.783577 0.119672 -0.841854 0.526271 0.444455 0.373882 1 7 1.000000
  0 -1.838522 0.733857 71.789780 0.119672 -0.841854 0.526271 0.379017 0.383410 1 7 1.000000
cobra_driver_helmet
  0 -2.974791 0.102866 70.868652 0.140915 -0.736250 0.661876 0.397606 0.346230 1 7 1.000000
  0 -1.838522 0.733857 71.789780 0.266975 -0.780701 0.565005 0.379017 0.383410 1 7 1.000000
  0 -2.540775 1.867946 70.613861 0.406063 -0.705689 0.580617 0.330348 0.346230 1 7 1.000000
cobra_driver_helmet
  0 -2.540775 1.867946 70.613861 0.406063 -0.705689 0.580617 0.330348 0.346230 1 7 1.000000
  0 -1.838522 0.733857 71.789780 0.398404 -0.809281 0.431669 0.379017 0.383410 1 7 1.000000
  0 -1.335765 2.337232 71.298927 0.398404 -0.809281 0.431669 0.316523 0.373882 1 7 1.000000
cobra_driver_helmet
  0 -2.161312 -4.295341 70.331024 -0.560144 -0.661139 0.499134 0.835595 0.374081 1 7 1.000000
  0 -1.136269 -3.843973 71.438393 -0.512685 -0.834021 0.203870 0.787548 0.436392 1 7 1.000000
  0 -2.272538 -2.753093 71.280922 -0.316283 -0.811416 0.491497 0.754920 0.367320 1 7 1.000000
cobra_driver_helmet
  0 -1.136269 -3.843973 71.438393 -0.512685 -0.834021 0.203870 0.787548 0.436392 1 7 1.000000
  0 -0.000000 -3.095127 72.083107 -0.393178 -0.915409 0.086243 0.742970 0.505465 1 7 1.000000
  0 -1.136269 -2.122104 72.202049 -0.393178 -0.915409 0.086243 0.706224 0.436392 1 7 1.000000
cobra_driver_helmet
  0 -1.136269 -3.843973 71.438393 -0.512685 -0.834021 0.203870 0.787548 0.436392 1 7 1.000000
  0 -1.136269 -2.122104 72.202049 -0.360297 -0.879661 0.310455 0.706224 0.436392 1 7 1.000000
  0 -2.272538 -2.753093 71.280922 -0.316283 -0.811416 0.491497 0.754920 0.367320 1 7 1.000000
cobra_driver_helmet
  0 -2.272538 -2.753093 71.280922 -0.316283 -0.811416 0.491497 0.754920 0.367320 1 7 1.000000
  0 -1.136269 -2.122104 72.202049 -0.200555 -0.895235 0.397909 0.706224 0.436392 1 7 1.000000
  0 -2.161312 -1.020150 71.783577 -0.200555 -0.895235 0.397909 0.680908 0.374081 1 7 1.000000
cobra_driver_helmet
  0 -0.000000 -3.095127 72.083107 -0.523587 -0.851828 -0.015694 0.742970 0.505465 1 7 1.000000
  0 -1.136269 -3.843973 71.438393 -0.512685 -0.834021 0.203870 0.787548 0.436392 1 7 1.000000
  0 -0.000000 -4.456100 71.236420 -0.642947 -0.754275 -0.132999 0.814411 0.505465 1 7 1.000000
cobra_driver_helmet
  0 -1.136269 -3.843973 71.438393 -0.512685 -0.834021 0.203870 0.787548 0.436392 1 7 1.000000
  0 -2.161312 -4.295341 70.331024 -0.560144 -0.661139 0.499134 0.835595 0.374081 1 7 1.000000
  0 -1.123415 -5.079952 70.325706 -0.728489 -0.647687 0.223170 0.862556 0.437174 1 7 1.000000
cobra_driver_helmet
  0 -1.136269 -3.843973 71.438393 -0.512685 -0.834021 0.203870 0.787548 0.436392 1 7 1.000000
  0 -1.123415 -5.079952 70.325706 -0.728489 -0.647687 0.223170 0.862556 0.437174 1 7 1.000000
  0 -0.000000 -4.456100 71.236420 -0.642947 -0.754275 -0.132999 0.814411 0.505465 1 7 1.000000
cobra_driver_helmet
  0 -0.000000 -4.456100 71.236420 -0.642947 -0.754275 -0.132999 0.814411 0.505465 1 7 1.000000
  0 -1.123415 -5.079952 70.325706 -0.728489 -0.647687 0.223170 0.862556 0.437174 1 7 1.000000
  0 -0.000000 -5.539137 70.045303 -0.825322 -0.556084 -0.098053 0.886504 0.505465 1 7 1.000000
cobra_driver_helmet
  0 -0.000000 -3.095127 72.083107 -0.523587 -0.805824 -0.276595 0.742970 0.505465 1 7 1.000000
  0 -0.000000 -4.456100 71.236420 -0.642947 -0.754275 -0.132999 0.814411 0.505465 1 7 1.000000
  0 1.136269 -3.843973 71.438393 -0.512685 -0.713996 -0.476827 0.787548 0.574537 1 7 1.000000
cobra_driver_helmet
  0 -0.000000 -4.456100 71.236420 -0.642947 -0.754275 -0.132999 0.814411 0.505465 1 7 1.000000
  0 -0.000000 -5.539137 70.045303 -0.825322 -0.556084 -0.098053 0.886504 0.505465 1 7 1.000000
  0 1.123415 -5.079952 70.325706 -0.728489 -0.532298 -0.431234 0.862556 0.573756 1 7 1.000000
cobra_driver_helmet
  0 -0.000000 -4.456100 71.236420 -0.642947 -0.754275 -0.132999 0.814411 0.505465 1 7 1.000000
  0 1.123415 -5.079952 70.325706 -0.728489 -0.532298 -0.431234 0.862556 0.573756 1 7 1.000000
  0 1.136269 -3.843973 71.438393 -0.512685 -0.713996 -0.476827 0.787548 0.574537 1 7 1.000000
cobra_driver_helmet
  0 1.136269 -3.843973 71.438393 -0.512685 -0.713996 -0.476827 0.787548 0.574537 1 7 1.000000
  0 1.123415 -5.079952 70.325706 -0.728489 -0.532298 -0.431234 0.862556 0.573756 1 7 1.000000
  0 2.161312 -4.295341 70.331024 -0.560144 -0.450553 -0.695155 0.835595 0.636848 1 7 1.000000
cobra_driver_helmet
  0 2.161312 -1.020150 71.783577 -0.161146 -0.577571 -0.800277 0.680908 0.636848 1 7 1.000000
  0 2.272538 -2.753093 71.280922 -0.316283 -0.594379 -0.739377 0.754920 0.643609 1 7 1.000000
  0 3.034683 -1.542640 70.815849 -0.201731 -0.524713 -0.827031 0.727270 0.689939 1 7 1.000000
cobra_driver_helmet
  0 2.272538 -2.753093 71.280922 -0.316283 -0.594379 -0.739377 0.754920 0.643609 1 7 1.000000
  0 2.161312 -4.295341 70.331024 -0.560144 -0.450553 -0.695155 0.835595 0.636848 1 7 1.000000
  0 3.034683 -3.245031 70.060829 -0.406123 -0.412218 -0.815561 0.807674 0.689939 1 7 1.000000
cobra_driver_helmet
  0 2.272538 -2.753093 71.280922 -0.316283 -0.594379 -0.739377 0.754920 0.643609 1 7 1.000000
  0 3.034683 -3.245031 70.060829 -0.406123 -0.412218 -0.815561 0.807674 0.689939 1 7 1.000000
  0 3.034683 -1.542640 70.815849 -0.201731 -0.524713 -0.827031 0.727270 0.689939 1 7 1.000000
cobra_driver_helmet
  0 3.034683 -1.542640 70.815849 -0.222069 -0.347828 -0.910879 0.452789 0.700471 1 7 1.000000
  0 3.034683 -3.245031 70.060829 -0.222069 -0.347828 -0.910879 0.512266 0.737230 1 7 1.000000
  0 3.677044 -2.008976 69.535713 -0.170438 -0.221195 -0.960221 0.463298 0.749964 1 7 1.000000
cobra_driver_helmet
  0 2.161312 -1.020150 71.783577 0.005628 -0.528975 -0.848619 0.438500 0.662155 1 7 1.000000
  0 3.034683 -1.542640 70.815849 0.005628 -0.528975 -0.848619 0.452789 0.700471 1 7 1.000000
  0 2.974791 0.102867 70.868652 0.140915 -0.465473 -0.873772 0.391651 0.689807 1 7 1.000000
cobra_driver_helmet
  0 3.034683 -1.542640 70.815849 -0.063367 -0.305606 -0.950047 0.452789 0.700471 1 7 1.000000
  0 3.677044 -2.008976 69.535713 -0.170438 -0.221195 -0.960221 0.463298 0.749964 1 7 1.000000
  0 3.728992 -0.421379 69.653229 0.049864 -0.232902 -0.971221 0.404671 0.737230 1 7 1.000000
cobra_driver_helmet
  0 3.034683 -1.542640 70.815849 0.014248 -0.366811 -0.930187 0.452789 0.700471 1 7 1.000000
  0 3.728992 -0.421379 69.653229 0.049864 -0.232902 -0.971221 0.404671 0.737230 1 7 1.000000
  0 2.974791 0.102867 70.868652 0.140915 -0.465473 -0.873772 0.391651 0.689807 1 7 1.000000
cobra_driver_helmet
  0 2.974791 0.102867 70.868652 0.140915 -0.465473 -0.873772 0.391651 0.689807 1 7 1.000000
  0 3.728992 -0.421379 69.653229 0.049864 -0.232902 -0.971221 0.404671 0.737230 1 7 1.000000
  0 3.497077 1.137018 69.546844 0.275158 -0.233772 -0.932544 0.345927 0.732875 1 7 1.000000
cobra_driver_helmet
  0 1.335764 2.337232 71.298927 0.522844 -0.529437 -0.668080 0.310567 0.662155 1 7 1.000000
  0 2.540775 1.867947 70.613861 0.406063 -0.464548 -0.786961 0.324393 0.689807 1 7 1.000000
  0 1.875537 3.171437 70.135353 0.557127 -0.396667 -0.729565 0.273159 0.700471 1 7 1.000000
cobra_driver_helmet
  0 2.540775 1.867947 70.613861 0.406063 -0.464548 -0.786961 0.324393 0.689807 1 7 1.000000
  0 3.497077 1.137018 69.546844 0.275158 -0.233772 -0.932544 0.345927 0.732875 1 7 1.000000
  0 2.998952 2.547585 69.224648 0.500652 -0.220458 -0.837105 0.291539 0.737230 1 7 1.000000
cobra_driver_helmet
  0 2.540775 1.867947 70.613861 0.406063 -0.464548 -0.786961 0.324393 0.689807 1 7 1.000000
  0 2.998952 2.547585 69.224648 0.500652 -0.220458 -0.837105 0.291539 0.737230 1 7 1.000000
  0 1.875537 3.171437 70.135353 0.557127 -0.396667 -0.729565 0.273159 0.700471 1 7 1.000000
cobra_driver_helmet
  0 1.875537 3.171437 70.135353 0.557127 -0.396667 -0.729565 0.273159 0.700471 1 7 1.000000
  0 2.998952 2.547585 69.224648 0.500652 -0.220458 -0.837105 0.291539 0.737230 1 7 1.000000
  0 2.272538 3.702944 68.711174 0.642675 -0.146350 -0.752031 0.245646 0.749964 1 7 1.000000
cobra_driver_helmet
  0 1.335764 2.337232 71.298927 0.657695 -0.572678 -0.489364 0.370829 0.584414 1 7 1.000000
  0 1.875537 3.171437 70.135353 0.657695 -0.572678 -0.489364 0.312435 0.614947 1 7 1.000000
  0 0.702253 3.633028 70.359062 0.790370 -0.505627 -0.345914 0.313659 0.548577 1 7 1.000000
cobra_driver_helmet
  0 1.875537 3.171437 70.135353 0.751503 -0.327369 -0.572776 0.312435 0.614947 1 7 1.000000
  0 2.272538 3.702944 68.711174 0.751503 -0.327369 -0.572776 0.248836 0.637404 1 7 1.000000
  0 1.181228 4.292698 68.972733 0.860962 -0.300840 -0.410170 0.249462 0.575672 1 7 1.000000
cobra_driver_helmet
  0 1.875537 3.171437 70.135353 0.767523 -0.425943 -0.479041 0.312435 0.614947 1 7 1.000000
  0 1.181228 4.292698 68.972733 0.860962 -0.300840 -0.410170 0.249462 0.575672 1 7 1.000000
  0 0.702253 3.633028 70.359062 0.790370 -0.505627 -0.345914 0.313659 0.548577 1 7 1.000000
cobra_driver_helmet
  0 0.702253 3.633028 70.359062 0.790370 -0.505627 -0.345914 0.313659 0.548577 1 7 1.000000
  0 1.181228 4.292698 68.972733 0.860962 -0.300840 -0.410170 0.249462 0.575672 1 7 1.000000
  0 -0.000000 4.494400 69.062195 0.919699 -0.386660 -0.068178 0.249676 0.508853 1 7 1.000000
cobra_driver_helmet
  0 -1.335765 2.337232 71.298927 0.657695 -0.705514 0.263984 0.370829 0.433292 1 7 1.000000
  0 -0.702253 3.633027 70.359062 0.790370 -0.593443 0.152119 0.313659 0.469128 1 7 1.000000
  0 -1.875537 3.171437 70.135353 0.723167 -0.612178 0.319793 0.312435 0.402758 1 7 1.000000
cobra_driver_helmet
  0 -0.702253 3.633027 70.359062 0.790370 -0.593443 0.152119 0.313659 0.469128 1 7 1.000000
  0 -0.000000 4.494400 69.062195 0.919699 -0.386660 -0.068178 0.249676 0.508853 1 7 1.000000
  0 -1.181229 4.292697 68.972733 0.860962 -0.422984 0.282541 0.249462 0.442034 1 7 1.000000
cobra_driver_helmet
  0 -0.702253 3.633027 70.359062 0.790370 -0.593443 0.152119 0.313659 0.469128 1 7 1.000000
  0 -1.181229 4.292697 68.972733 0.860962 -0.422984 0.282541 0.249462 0.442034 1 7 1.000000
  0 -1.875537 3.171437 70.135353 0.723167 -0.612178 0.319793 0.312435 0.402758 1 7 1.000000
cobra_driver_helmet
  0 -1.875537 3.171437 70.135353 0.723167 -0.612178 0.319793 0.312435 0.402758 1 7 1.000000
  0 -1.181229 4.292697 68.972733 0.860962 -0.422984 0.282541 0.249462 0.442034 1 7 1.000000
  0 -2.272538 3.702943 68.711174 0.792031 -0.420511 0.442558 0.248836 0.380301 1 7 1.000000
cobra_driver_helmet
  0 -1.335765 2.337232 71.298927 0.522844 -0.726005 0.446712 0.316523 0.373882 1 7 1.000000
  0 -1.875537 3.171437 70.135353 0.522844 -0.726005 0.446712 0.279115 0.335566 1 7 1.000000
  0 -2.540775 1.867946 70.613861 0.406063 -0.705689 0.580617 0.330348 0.346230 1 7 1.000000
cobra_driver_helmet
  0 -1.875537 3.171437 70.135353 0.609294 -0.526579 0.592854 0.279115 0.335566 1 7 1.000000
  0 -2.272538 3.702943 68.711174 0.609294 -0.526579 0.592854 0.251601 0.286073 1 7 1.000000
  0 -2.998953 2.547585 69.224648 0.500652 -0.493470 0.711221 0.297494 0.298807 1 7 1.000000
cobra_driver_helmet
  0 -1.875537 3.171437 70.135353 0.532213 -0.601096 0.596182 0.279115 0.335566 1 7 1.000000
  0 -2.998953 2.547585 69.224648 0.500652 -0.493470 0.711221 0.297494 0.298807 1 7 1.000000
  0 -2.540775 1.867946 70.613861 0.406063 -0.705689 0.580617 0.330348 0.346230 1 7 1.000000
cobra_driver_helmet
  0 -2.540775 1.867946 70.613861 0.406063 -0.705689 0.580617 0.330348 0.346230 1 7 1.000000
  0 -2.998953 2.547585 69.224648 0.500652 -0.493470 0.711221 0.297494 0.298807 1 7 1.000000
  0 -3.497076 1.137018 69.546844 0.275157 -0.538623 0.796350 0.357627 0.303162 1 7 1.000000
cobra_driver_helmet
  0 -2.161312 -1.020150 71.783577 0.005628 -0.787319 0.616520 0.444455 0.373882 1 7 1.000000
  0 -2.974791 0.102866 70.868652 0.140915 -0.736250 0.661876 0.397606 0.346230 1 7 1.000000
  0 -3.034683 -1.542641 70.815849 -0.061663 -0.686420 0.724586 0.458744 0.335566 1 7 1.000000
cobra_driver_helmet
  0 -2.974791 0.102866 70.868652 0.140915 -0.736250 0.661876 0.397606 0.346230 1 7 1.000000
  0 -3.497076 1.137018 69.546844 0.275157 -0.538623 0.796350 0.357627 0.303162 1 7 1.000000
  0 -3.728992 -0.421379 69.653229 0.049865 -0.551034 0.832992 0.410626 0.298807 1 7 1.000000
cobra_driver_helmet
  0 -2.974791 0.102866 70.868652 0.140915 -0.736250 0.661876 0.397606 0.346230 1 7 1.000000
  0 -3.728992 -0.421379 69.653229 0.049865 -0.551034 0.832992 0.410626 0.298807 1 7 1.000000
  0 -3.034683 -1.542641 70.815849 -0.061663 -0.686420 0.724586 0.458744 0.335566 1 7 1.000000
cobra_driver_helmet
  0 -3.034683 -1.542641 70.815849 -0.061663 -0.686420 0.724586 0.458744 0.335566 1 7 1.000000
  0 -3.728992 -0.421379 69.653229 0.049865 -0.551034 0.832992 0.410626 0.298807 1 7 1.000000
  0 -3.677044 -2.008977 69.535713 -0.170438 -0.536270 0.826659 0.469253 0.286073 1 7 1.000000
cobra_driver_helmet
  0 -2.161312 -1.020150 71.783577 -0.161146 -0.816450 0.554474 0.680908 0.374081 1 7 1.000000
  0 -3.034683 -1.542641 70.815849 -0.161146 -0.816450 0.554474 0.727270 0.320990 1 7 1.000000
  0 -2.272538 -2.753093 71.280922 -0.316283 -0.811416 0.491497 0.754920 0.367320 1 7 1.000000
cobra_driver_helmet
  0 -3.034683 -1.542641 70.815849 -0.061663 -0.686420 0.724586 0.458744 0.335566 1 7 1.000000
  0 -3.677044 -2.008977 69.535713 -0.170438 -0.536270 0.826659 0.469253 0.286073 1 7 1.000000
  0 -3.034683 -3.245032 70.060829 -0.309472 -0.546732 0.778017 0.518221 0.298807 1 7 1.000000
cobra_driver_helmet
  0 -3.034683 -1.542641 70.815849 -0.259325 -0.709314 0.655457 0.727270 0.320990 1 7 1.000000
  0 -3.034683 -3.245032 70.060829 -0.259325 -0.709314 0.655457 0.807674 0.320990 1 7 1.000000
  0 -2.272538 -2.753093 71.280922 -0.316283 -0.811416 0.491497 0.754920 0.367320 1 7 1.000000
cobra_driver_helmet
  0 -2.272538 -2.753093 71.280922 -0.316283 -0.811416 0.491497 0.754920 0.367320 1 7 1.000000
  0 -3.034683 -3.245032 70.060829 -0.416866 -0.706545 0.571855 0.807674 0.320990 1 7 1.000000
  0 -2.161312 -4.295341 70.331024 -0.560144 -0.661139 0.499134 0.835595 0.374081 1 7 1.000000
cobra_driver_helmet
  0 1.335764 -6.149366 68.105431 -0.782257 -0.429996 -0.450751 0.964506 0.586664 1 7 1.000000
  0 1.838522 -5.495926 69.026855 -0.751909 -0.300117 -0.586994 0.915035 0.617226 1 7 1.000000
  0 0.694308 -6.089365 68.852150 -0.894852 -0.358565 -0.265840 0.940456 0.547671 1 7 1.000000
cobra_driver_helmet
  0 1.838522 -5.495926 69.026855 -0.751909 -0.300117 -0.586994 0.915035 0.617226 1 7 1.000000
  0 2.161312 -4.295341 70.331024 -0.560144 -0.450553 -0.695155 0.835595 0.636848 1 7 1.000000
  0 1.123415 -5.079952 70.325706 -0.728489 -0.532298 -0.431234 0.862556 0.573756 1 7 1.000000
cobra_driver_helmet
  0 1.838522 -5.495926 69.026855 -0.751909 -0.300117 -0.586994 0.915035 0.617226 1 7 1.000000
  0 1.123415 -5.079952 70.325706 -0.728489 -0.532298 -0.431234 0.862556 0.573756 1 7 1.000000
  0 0.694308 -6.089365 68.852150 -0.894852 -0.358565 -0.265840 0.940456 0.547671 1 7 1.000000
cobra_driver_helmet
  0 0.694308 -6.089365 68.852150 -0.894852 -0.358565 -0.265840 0.940456 0.547671 1 7 1.000000
  0 1.123415 -5.079952 70.325706 -0.728489 -0.532298 -0.431234 0.862556 0.573756 1 7 1.000000
  0 -0.000000 -5.539137 70.045303 -0.825322 -0.556084 -0.098053 0.886504 0.505465 1 7 1.000000
cobra_driver_helmet
  0 3.497077 -4.111177 67.551064 -0.365275 -0.206788 -0.907642 0.531073 0.834008 1 7 1.000000
  0 3.728992 -3.175906 68.431587 -0.322060 -0.078245 -0.943480 0.500906 0.796707 1 7 1.000000
  0 2.974791 -4.405046 68.869377 -0.472221 -0.112786 -0.874235 0.549146 0.787144 1 7 1.000000
cobra_driver_helmet
  0 3.728992 -3.175906 68.431587 -0.322060 -0.078245 -0.943480 0.500906 0.796707 1 7 1.000000
  0 3.677044 -2.008976 69.535713 -0.170438 -0.221195 -0.960221 0.463298 0.749964 1 7 1.000000
  0 3.034683 -3.245031 70.060829 -0.303833 -0.204068 -0.930614 0.512266 0.737230 1 7 1.000000
cobra_driver_helmet
  0 3.728992 -3.175906 68.431587 -0.322060 -0.078245 -0.943480 0.500906 0.796707 1 7 1.000000
  0 3.034683 -3.245031 70.060829 -0.398445 -0.192416 -0.896782 0.512266 0.737230 1 7 1.000000
  0 2.974791 -4.405046 68.869377 -0.472221 -0.112786 -0.874235 0.549146 0.787144 1 7 1.000000
cobra_driver_helmet
  0 2.974791 -4.405046 68.869377 -0.499926 -0.314147 -0.807085 0.882407 0.686298 1 7 1.000000
  0 3.034683 -3.245031 70.060829 -0.406123 -0.412218 -0.815561 0.807674 0.689939 1 7 1.000000
  0 2.161312 -4.295341 70.331024 -0.560144 -0.450553 -0.695155 0.835595 0.636848 1 7 1.000000
cobra_driver_helmet
  0 4.322624 -0.914353 65.954155 0.163246 -0.053487 -0.985135 0.403140 0.875714 1 7 1.000000
  0 4.111060 0.215994 68.202316 0.146969 0.005997 -0.989123 0.373062 0.787144 1 7 1.000000
  0 4.158098 -1.430793 68.179672 -0.078767 -0.009220 -0.996850 0.434409 0.796707 1 7 1.000000
cobra_driver_helmet
  0 4.111060 0.215994 68.202316 0.146969 0.005997 -0.989123 0.373062 0.787144 1 7 1.000000
  0 3.497077 1.137018 69.546844 0.275158 -0.233772 -0.932544 0.345927 0.732875 1 7 1.000000
  0 3.728992 -0.421379 69.653229 0.049864 -0.232902 -0.971221 0.404671 0.737230 1 7 1.000000
cobra_driver_helmet
  0 4.111060 0.215994 68.202316 0.146969 0.005997 -0.989123 0.373062 0.787144 1 7 1.000000
  0 3.728992 -0.421379 69.653229 0.049864 -0.232902 -0.971221 0.404671 0.737230 1 7 1.000000
  0 4.158098 -1.430793 68.179672 -0.078767 -0.009220 -0.996850 0.434409 0.796707 1 7 1.000000
cobra_driver_helmet
  0 4.158098 -1.430793 68.179672 -0.078767 -0.009220 -0.996850 0.434409 0.796707 1 7 1.000000
  0 3.728992 -0.421379 69.653229 0.049864 -0.232902 -0.971221 0.404671 0.737230 1 7 1.000000
  0 3.677044 -2.008976 69.535713 -0.170438 -0.221195 -0.960221 0.463298 0.749964 1 7 1.000000
cobra_driver_helmet
  0 3.497077 2.140547 63.374073 0.570186 -0.089758 -0.816597 0.275208 0.954284 1 7 1.000000
  0 2.998952 3.283283 67.499176 0.606813 0.063511 -0.792304 0.254780 0.796707 1 7 1.000000
  0 3.677044 1.981074 67.947525 0.378728 0.028852 -0.925058 0.305803 0.787144 1 7 1.000000
cobra_driver_helmet
  0 2.998952 3.283283 67.499176 0.606813 0.063511 -0.792304 0.254780 0.796707 1 7 1.000000
  0 2.272538 3.702944 68.711174 0.642675 -0.146350 -0.752031 0.245646 0.749964 1 7 1.000000
  0 2.998952 2.547585 69.224648 0.500652 -0.220458 -0.837105 0.291539 0.737230 1 7 1.000000
cobra_driver_helmet
  0 2.998952 3.283283 67.499176 0.606813 0.063511 -0.792304 0.254780 0.796707 1 7 1.000000
  0 2.998952 2.547585 69.224648 0.500652 -0.220458 -0.837105 0.291539 0.737230 1 7 1.000000
  0 3.677044 1.981074 67.947525 0.378728 0.028852 -0.925058 0.305803 0.787144 1 7 1.000000
cobra_driver_helmet
  0 3.677044 1.981074 67.947525 0.378728 0.028852 -0.925058 0.305803 0.787144 1 7 1.000000
  0 2.998952 2.547585 69.224648 0.500652 -0.220458 -0.837105 0.291539 0.737230 1 7 1.000000
  0 3.497077 1.137018 69.546844 0.275158 -0.233772 -0.932544 0.345927 0.732875 1 7 1.000000
cobra_driver_helmet
  0 1.335764 4.215523 63.074543 0.908303 -0.116389 -0.401795 0.022708 0.584414 1 7 1.000000
  0 0.702252 4.837033 67.535255 0.977216 -0.049044 -0.206503 0.185142 0.548577 1 7 1.000000
  0 1.875537 4.361824 67.343491 0.902223 0.006960 -0.431215 0.185372 0.614947 1 7 1.000000
cobra_driver_helmet
  0 0.702252 4.837033 67.535255 0.977216 -0.049044 -0.206503 0.185142 0.548577 1 7 1.000000
  0 -0.000000 4.494400 69.062195 0.919699 -0.386660 -0.068178 0.249676 0.508853 1 7 1.000000
  0 1.181228 4.292698 68.972733 0.860962 -0.300840 -0.410170 0.249462 0.575672 1 7 1.000000
cobra_driver_helmet
  0 0.702252 4.837033 67.535255 0.977216 -0.049044 -0.206503 0.185142 0.548577 1 7 1.000000
  0 1.181228 4.292698 68.972733 0.860962 -0.300840 -0.410170 0.249462 0.575672 1 7 1.000000
  0 1.875537 4.361824 67.343491 0.902223 0.006960 -0.431215 0.185372 0.614947 1 7 1.000000
cobra_driver_helmet
  0 1.875537 4.361824 67.343491 0.902223 0.006960 -0.431215 0.185372 0.614947 1 7 1.000000
  0 1.181228 4.292698 68.972733 0.860962 -0.300840 -0.410170 0.249462 0.575672 1 7 1.000000
  0 2.272538 3.702944 68.711174 0.825266 -0.158989 -0.541902 0.248836 0.637404 1 7 1.000000
cobra_driver_helmet
  0 -1.335764 4.215523 63.074543 0.908303 -0.246792 0.337757 0.022708 0.433292 1 7 1.000000
  0 -1.875537 4.361824 67.343491 0.902223 -0.140945 0.407590 0.185371 0.402758 1 7 1.000000
  0 -0.702253 4.837033 67.535255 0.977216 -0.116714 0.177276 0.185142 0.469128 1 7 1.000000
cobra_driver_helmet
  0 -1.875537 4.361824 67.343491 0.902223 -0.140945 0.407590 0.185371 0.402758 1 7 1.000000
  0 -2.272538 3.702943 68.711174 0.792031 -0.420511 0.442558 0.248836 0.380301 1 7 1.000000
  0 -1.181229 4.292697 68.972733 0.860962 -0.422984 0.282541 0.249462 0.442034 1 7 1.000000
cobra_driver_helmet
  0 -1.875537 4.361824 67.343491 0.902223 -0.140945 0.407590 0.185371 0.402758 1 7 1.000000
  0 -1.181229 4.292697 68.972733 0.860962 -0.422984 0.282541 0.249462 0.442034 1 7 1.000000
  0 -0.702253 4.837033 67.535255 0.977216 -0.116714 0.177276 0.185142 0.469128 1 7 1.000000
cobra_driver_helmet
  0 -0.702253 4.837033 67.535255 0.977216 -0.116714 0.177276 0.185142 0.469128 1 7 1.000000
  0 -1.181229 4.292697 68.972733 0.860962 -0.422984 0.282541 0.249462 0.442034 1 7 1.000000
  0 -0.000000 4.494400 69.062195 0.919699 -0.386660 -0.068178 0.249676 0.508853 1 7 1.000000
cobra_driver_helmet
  0 -3.497077 2.140546 63.374073 0.571859 -0.363873 0.735238 0.281163 0.081753 1 7 1.000000
  0 -3.677044 1.981073 67.947525 0.378728 -0.289276 0.879139 0.311759 0.248893 1 7 1.000000
  0 -2.998953 3.283283 67.499184 0.606813 -0.211303 0.766244 0.260735 0.239330 1 7 1.000000
cobra_driver_helmet
  0 -3.677044 1.981073 67.947525 0.378728 -0.289276 0.879139 0.311759 0.248893 1 7 1.000000
  0 -3.497076 1.137018 69.546844 0.275157 -0.538623 0.796350 0.357627 0.303162 1 7 1.000000
  0 -2.998953 2.547585 69.224648 0.500652 -0.493470 0.711221 0.297494 0.298807 1 7 1.000000
cobra_driver_helmet
  0 -3.677044 1.981073 67.947525 0.378728 -0.289276 0.879139 0.311759 0.248893 1 7 1.000000
  0 -2.998953 2.547585 69.224648 0.500652 -0.493470 0.711221 0.297494 0.298807 1 7 1.000000
  0 -2.998953 3.283283 67.499184 0.606813 -0.211303 0.766244 0.260735 0.239330 1 7 1.000000
cobra_driver_helmet
  0 -2.998953 3.283283 67.499184 0.606813 -0.211303 0.766244 0.260735 0.239330 1 7 1.000000
  0 -2.998953 2.547585 69.224648 0.500652 -0.493470 0.711221 0.297494 0.298807 1 7 1.000000
  0 -2.272538 3.702943 68.711174 0.593016 -0.381754 0.708941 0.251601 0.286073 1 7 1.000000
cobra_driver_helmet
  0 -4.322624 -0.914352 65.954155 0.164287 -0.388058 0.906874 0.409096 0.160324 1 7 1.000000
  0 -4.158098 -1.430793 68.179672 -0.078767 -0.349607 0.933580 0.440364 0.239330 1 7 1.000000
  0 -4.111060 0.215994 68.202316 0.146969 -0.332665 0.931523 0.379017 0.248893 1 7 1.000000
cobra_driver_helmet
  0 -4.158098 -1.430793 68.179672 -0.078767 -0.349607 0.933580 0.440364 0.239330 1 7 1.000000
  0 -3.677044 -2.008977 69.535713 -0.170438 -0.536270 0.826659 0.469253 0.286073 1 7 1.000000
  0 -3.728992 -0.421379 69.653229 0.049865 -0.551034 0.832992 0.410626 0.298807 1 7 1.000000
cobra_driver_helmet
  0 -4.158098 -1.430793 68.179672 -0.078767 -0.349607 0.933580 0.440364 0.239330 1 7 1.000000
  0 -3.728992 -0.421379 69.653229 0.049865 -0.551034 0.832992 0.410626 0.298807 1 7 1.000000
  0 -4.111060 0.215994 68.202316 0.146969 -0.332665 0.931523 0.379017 0.248893 1 7 1.000000
cobra_driver_helmet
  0 -4.111060 0.215994 68.202316 0.146969 -0.332665 0.931523 0.379017 0.248893 1 7 1.000000
  0 -3.728992 -0.421379 69.653229 0.049865 -0.551034 0.832992 0.410626 0.298807 1 7 1.000000
  0 -3.497076 1.137018 69.546844 0.275157 -0.538623 0.796350 0.357627 0.303162 1 7 1.000000
cobra_driver_helmet
  0 -3.497076 -4.111178 67.551064 -0.365085 -0.505195 0.781979 0.537028 0.202029 1 7 1.000000
  0 -2.974790 -4.405046 68.869377 -0.472222 -0.404990 0.782937 0.555101 0.248893 1 7 1.000000
  0 -3.728992 -3.175907 68.431587 -0.322060 -0.396215 0.859820 0.506862 0.239330 1 7 1.000000
cobra_driver_helmet
  0 -2.974790 -4.405046 68.869377 -0.499926 -0.571240 0.650967 0.882407 0.324631 1 7 1.000000
  0 -2.161312 -4.295341 70.331024 -0.560144 -0.661139 0.499134 0.835595 0.374081 1 7 1.000000
  0 -3.034683 -3.245032 70.060829 -0.499926 -0.571240 0.650967 0.807674 0.320990 1 7 1.000000
cobra_driver_helmet
  0 -2.974790 -4.405046 68.869377 -0.472222 -0.404990 0.782937 0.555101 0.248893 1 7 1.000000
  0 -3.034683 -3.245032 70.060829 -0.309472 -0.546732 0.778017 0.518221 0.298807 1 7 1.000000
  0 -3.728992 -3.175907 68.431587 -0.322060 -0.396215 0.859820 0.506862 0.239330 1 7 1.000000
cobra_driver_helmet
  0 -3.728992 -3.175907 68.431587 -0.322060 -0.396215 0.859820 0.506862 0.239330 1 7 1.000000
  0 -3.034683 -3.245032 70.060829 -0.309472 -0.546732 0.778017 0.518221 0.298807 1 7 1.000000
  0 -3.677044 -2.008977 69.535713 -0.170438 -0.536270 0.826659 0.469253 0.286073 1 7 1.000000
cobra_driver_helmet
  0 -1.335764 -6.149366 68.105431 -0.782257 -0.558231 0.276500 0.964506 0.424265 1 7 1.000000
  0 -0.694309 -6.089365 68.852150 -0.894852 -0.427863 0.127172 0.940456 0.463259 1 7 1.000000
  0 -1.838522 -5.495927 69.026855 -0.751910 -0.482781 0.448948 0.915035 0.393703 1 7 1.000000
cobra_driver_helmet
  0 -0.694309 -6.089365 68.852150 -0.894852 -0.427863 0.127172 0.940456 0.463259 1 7 1.000000
  0 -0.000000 -5.539137 70.045303 -0.825322 -0.556084 -0.098053 0.886504 0.505465 1 7 1.000000
  0 -1.123415 -5.079952 70.325706 -0.728489 -0.647687 0.223170 0.862556 0.437174 1 7 1.000000
cobra_driver_helmet
  0 -0.694309 -6.089365 68.852150 -0.894852 -0.427863 0.127172 0.940456 0.463259 1 7 1.000000
  0 -1.123415 -5.079952 70.325706 -0.728489 -0.647687 0.223170 0.862556 0.437174 1 7 1.000000
  0 -1.838522 -5.495927 69.026855 -0.751910 -0.482781 0.448948 0.915035 0.393703 1 7 1.000000
cobra_driver_helmet
  0 -1.838522 -5.495927 69.026855 -0.751910 -0.482781 0.448948 0.915035 0.393703 1 7 1.000000
  0 -1.123415 -5.079952 70.325706 -0.728489 -0.647687 0.223170 0.862556 0.437174 1 7 1.000000
  0 -2.161312 -4.295341 70.331024 -0.560144 -0.661139 0.499134 0.835595 0.374081 1 7 1.000000
cobra_driver_helmet
  0 -0.000000 -5.539137 70.045303 -0.825322 -0.556084 -0.098053 0.886504 0.505465 1 7 1.000000
  0 -0.694309 -6.089365 68.852150 -0.894852 -0.427863 0.127172 0.940456 0.463259 1 7 1.000000
  0 0.694308 -6.089365 68.852150 -0.894852 -0.358565 -0.265840 0.940456 0.547671 1 7 1.000000
cobra_driver_helmet
  0 -0.694309 -6.089365 68.852150 -0.894852 -0.427863 0.127172 0.940456 0.463259 1 7 1.000000
  0 -1.335764 -6.149366 68.105431 -0.782257 -0.558231 0.276500 0.964506 0.424265 1 7 1.000000
  0 -0.000000 -6.428926 68.145790 -0.848422 -0.521279 -0.091916 0.972868 0.505465 1 7 1.000000
cobra_driver_helmet
  0 -0.694309 -6.089365 68.852150 -0.894852 -0.427863 0.127172 0.940456 0.463259 1 7 1.000000
  0 -0.000000 -6.428926 68.145790 -0.848422 -0.521279 -0.091916 0.972868 0.505465 1 7 1.000000
  0 0.694308 -6.089365 68.852150 -0.894852 -0.358565 -0.265840 0.940456 0.547671 1 7 1.000000
cobra_driver_helmet
  0 0.694308 -6.089365 68.852150 -0.894852 -0.358565 -0.265840 0.940456 0.547671 1 7 1.000000
  0 -0.000000 -6.428926 68.145790 -0.848422 -0.521279 -0.091916 0.972868 0.505465 1 7 1.000000
  0 1.335764 -6.149366 68.105431 -0.782257 -0.429996 -0.450751 0.964506 0.586664 1 7 1.000000
cobra_driver_helmet
  0 2.161312 -4.295341 70.331024 -0.560144 -0.450553 -0.695155 0.835595 0.636848 1 7 1.000000
  0 1.838522 -5.495926 69.026855 -0.751909 -0.300117 -0.586994 0.915035 0.617226 1 7 1.000000
  0 2.974791 -4.405046 68.869377 -0.627235 -0.293341 -0.721476 0.882407 0.686298 1 7 1.000000
cobra_driver_helmet
  0 1.838522 -5.495926 69.026855 -0.751909 -0.300117 -0.586994 0.915035 0.617226 1 7 1.000000
  0 1.335764 -6.149366 68.105431 -0.782257 -0.429996 -0.450751 0.964506 0.586664 1 7 1.000000
  0 2.540775 -5.338048 67.988319 -0.683828 -0.342645 -0.644184 0.940240 0.659915 1 7 1.000000
cobra_driver_helmet
  0 1.838522 -5.495926 69.026855 -0.751909 -0.300117 -0.586994 0.915035 0.617226 1 7 1.000000
  0 2.540775 -5.338048 67.988319 -0.683828 -0.342645 -0.644184 0.940240 0.659915 1 7 1.000000
  0 2.974791 -4.405046 68.869377 -0.648969 -0.233840 -0.723988 0.882407 0.686298 1 7 1.000000
cobra_driver_helmet
  0 2.974791 -4.405046 68.869377 -0.472221 -0.112786 -0.874235 0.549146 0.787144 1 7 1.000000
  0 2.540775 -5.338048 67.988319 -0.558879 -0.051829 -0.827628 0.579224 0.824453 1 7 1.000000
  0 3.497077 -4.111177 67.551064 -0.365275 -0.206788 -0.907642 0.531073 0.834008 1 7 1.000000
cobra_driver_helmet
  0 3.677044 -2.008976 69.535713 -0.170438 -0.221195 -0.960221 0.463298 0.749964 1 7 1.000000
  0 3.728992 -3.175906 68.431587 -0.322060 -0.078245 -0.943480 0.500906 0.796707 1 7 1.000000
  0 4.158098 -1.430793 68.179672 -0.078767 -0.009220 -0.996850 0.434409 0.796707 1 7 1.000000
cobra_driver_helmet
  0 3.728992 -3.175906 68.431587 -0.322060 -0.078245 -0.943480 0.500906 0.796707 1 7 1.000000
  0 3.497077 -4.111177 67.551064 -0.365275 -0.206788 -0.907642 0.531073 0.834008 1 7 1.000000
  0 4.111059 -2.568663 66.976303 -0.117971 -0.111642 -0.986721 0.470398 0.846941 1 7 1.000000
cobra_driver_helmet
  0 3.728992 -3.175906 68.431587 -0.322060 -0.078245 -0.943480 0.500906 0.796707 1 7 1.000000
  0 4.111059 -2.568663 66.976303 -0.117971 -0.111642 -0.986721 0.470398 0.846941 1 7 1.000000
  0 4.158098 -1.430793 68.179672 -0.078767 -0.009220 -0.996850 0.434409 0.796707 1 7 1.000000
cobra_driver_helmet
  0 4.158098 -1.430793 68.179672 -0.078767 -0.009220 -0.996850 0.434409 0.796707 1 7 1.000000
  0 4.111059 -2.568663 66.976303 -0.117971 -0.111642 -0.986721 0.470398 0.846941 1 7 1.000000
  0 4.322624 -0.914353 65.954155 0.163246 -0.053487 -0.985135 0.403140 0.875714 1 7 1.000000
cobra_driver_helmet
  0 3.497077 1.137018 69.546844 0.275158 -0.233772 -0.932544 0.345927 0.732875 1 7 1.000000
  0 4.111060 0.215994 68.202316 0.146969 0.005997 -0.989123 0.373062 0.787144 1 7 1.000000
  0 3.677044 1.981074 67.947525 0.378728 0.028852 -0.925058 0.305803 0.787144 1 7 1.000000
cobra_driver_helmet
  0 4.111060 0.215994 68.202316 0.146969 0.005997 -0.989123 0.373062 0.787144 1 7 1.000000
  0 4.322624 -0.914353 65.954155 0.163246 -0.053487 -0.985135 0.403140 0.875714 1 7 1.000000
  0 4.111060 0.670562 64.451271 0.427040 -0.059764 -0.902255 0.335882 0.922512 1 7 1.000000
cobra_driver_helmet
  0 4.111060 0.215994 68.202316 0.146969 0.005997 -0.989123 0.373062 0.787144 1 7 1.000000
  0 4.111060 0.670562 64.451271 0.427040 -0.059764 -0.902255 0.335882 0.922512 1 7 1.000000
  0 3.677044 1.981074 67.947525 0.378728 0.028852 -0.925058 0.305803 0.787144 1 7 1.000000
cobra_driver_helmet
  0 3.677044 1.981074 67.947525 0.378728 0.028852 -0.925058 0.305803 0.787144 1 7 1.000000
  0 4.111060 0.670562 64.451271 0.427040 -0.059764 -0.902255 0.335882 0.922512 1 7 1.000000
  0 3.497077 2.140547 63.374073 0.570186 -0.089758 -0.816597 0.275208 0.954284 1 7 1.000000
cobra_driver_helmet
  0 2.272538 3.702944 68.711174 0.642675 -0.146350 -0.752031 0.245646 0.749964 1 7 1.000000
  0 2.998952 3.283283 67.499176 0.606813 0.063511 -0.792304 0.254780 0.796707 1 7 1.000000
  0 1.875537 4.361824 67.343491 0.723380 -0.033816 -0.689622 0.213682 0.796707 1 7 1.000000
cobra_driver_helmet
  0 2.998952 3.283283 67.499176 0.606813 0.063511 -0.792304 0.254780 0.796707 1 7 1.000000
  0 3.497077 2.140547 63.374073 0.570186 -0.089758 -0.816597 0.275208 0.954284 1 7 1.000000
  0 2.540775 3.404206 63.191658 0.622940 -0.052084 -0.780534 0.227056 0.954284 1 7 1.000000
cobra_driver_helmet
  0 2.998952 3.283283 67.499176 0.606813 0.063511 -0.792304 0.254780 0.796707 1 7 1.000000
  0 2.540775 3.404206 63.191658 0.622940 -0.052084 -0.780534 0.227056 0.954284 1 7 1.000000
  0 1.875537 4.361824 67.343491 0.716582 0.173794 -0.675505 0.213682 0.796707 1 7 1.000000
cobra_driver_helmet
  0 1.875537 4.361824 67.343491 0.902223 0.006960 -0.431215 0.185372 0.614947 1 7 1.000000
  0 2.540775 3.404206 63.191658 0.820918 0.195384 -0.536581 0.040283 0.652578 1 7 1.000000
  0 1.335764 4.215523 63.074543 0.908303 -0.116389 -0.401795 0.022708 0.584414 1 7 1.000000
cobra_driver_helmet
  0 -0.000000 4.494400 69.062195 0.919699 -0.386660 -0.068178 0.249676 0.508853 1 7 1.000000
  0 0.702252 4.837033 67.535255 0.977216 -0.049044 -0.206503 0.185142 0.548577 1 7 1.000000
  0 -0.702253 4.837033 67.535255 0.977216 -0.116714 0.177276 0.185142 0.469128 1 7 1.000000
cobra_driver_helmet
  0 0.702252 4.837033 67.535255 0.977216 -0.049044 -0.206503 0.185142 0.548577 1 7 1.000000
  0 1.335764 4.215523 63.074543 0.908303 -0.116389 -0.401795 0.022708 0.584414 1 7 1.000000
  0 -0.000000 4.495083 63.034187 0.982314 -0.184395 -0.032514 0.016652 0.508853 1 7 1.000000
cobra_driver_helmet
  0 0.702252 4.837033 67.535255 0.977216 -0.049044 -0.206503 0.185142 0.548577 1 7 1.000000
  0 -0.000000 4.495083 63.034187 0.982314 -0.184395 -0.032514 0.016652 0.508853 1 7 1.000000
  0 -0.702253 4.837033 67.535255 0.977216 -0.116714 0.177276 0.185142 0.469128 1 7 1.000000
cobra_driver_helmet
  0 -0.702253 4.837033 67.535255 0.977216 -0.116714 0.177276 0.185142 0.469128 1 7 1.000000
  0 -0.000000 4.495083 63.034187 0.982314 -0.184395 -0.032514 0.016652 0.508853 1 7 1.000000
  0 -1.335764 4.215523 63.074543 0.908303 -0.246792 0.337757 0.022708 0.433292 1 7 1.000000
cobra_driver_helmet
  0 -2.272538 3.702943 68.711174 0.723380 -0.267642 0.636467 0.251601 0.286073 1 7 1.000000
  0 -1.875537 4.361824 67.343491 0.723380 -0.267642 0.636467 0.219638 0.239330 1 7 1.000000
  0 -2.998953 3.283283 67.499184 0.606813 -0.211303 0.766244 0.260735 0.239330 1 7 1.000000
cobra_driver_helmet
  0 -1.875537 4.361824 67.343491 0.902223 -0.140945 0.407590 0.185371 0.402758 1 7 1.000000
  0 -1.335764 4.215523 63.074543 0.908303 -0.246792 0.337757 0.022708 0.433292 1 7 1.000000
  0 -2.540775 3.404206 63.191658 0.823821 -0.271913 0.497375 0.040283 0.365128 1 7 1.000000
cobra_driver_helmet
  0 -1.875537 4.361824 67.343491 0.716582 -0.067723 0.694208 0.219638 0.239330 1 7 1.000000
  0 -2.540775 3.404206 63.191658 0.716582 -0.067723 0.694208 0.233011 0.081753 1 7 1.000000
  0 -2.998953 3.283283 67.499184 0.606813 -0.211303 0.766244 0.260735 0.239330 1 7 1.000000
cobra_driver_helmet
  0 -2.998953 3.283283 67.499184 0.606813 -0.211303 0.766244 0.260735 0.239330 1 7 1.000000
  0 -2.540775 3.404206 63.191658 0.595740 -0.071605 0.799979 0.233011 0.081753 1 7 1.000000
  0 -3.497077 2.140546 63.374073 0.571859 -0.363873 0.735238 0.281163 0.081753 1 7 1.000000
cobra_driver_helmet
  0 -3.497076 1.137018 69.546844 0.275157 -0.538623 0.796350 0.357627 0.303162 1 7 1.000000
  0 -3.677044 1.981073 67.947525 0.378728 -0.289276 0.879139 0.311759 0.248893 1 7 1.000000
  0 -4.111060 0.215994 68.202316 0.146969 -0.332665 0.931523 0.379017 0.248893 1 7 1.000000
cobra_driver_helmet
  0 -3.677044 1.981073 67.947525 0.378728 -0.289276 0.879139 0.311759 0.248893 1 7 1.000000
  0 -3.497077 2.140546 63.374073 0.571859 -0.363873 0.735238 0.281163 0.081753 1 7 1.000000
  0 -4.111060 0.670562 64.451279 0.429192 -0.365366 0.826016 0.341837 0.113525 1 7 1.000000
cobra_driver_helmet
  0 -3.677044 1.981073 67.947525 0.378728 -0.289276 0.879139 0.311759 0.248893 1 7 1.000000
  0 -4.111060 0.670562 64.451279 0.429192 -0.365366 0.826016 0.341837 0.113525 1 7 1.000000
  0 -4.111060 0.215994 68.202316 0.146969 -0.332665 0.931523 0.379017 0.248893 1 7 1.000000
cobra_driver_helmet
  0 -4.111060 0.215994 68.202316 0.146969 -0.332665 0.931523 0.379017 0.248893 1 7 1.000000
  0 -4.111060 0.670562 64.451279 0.429192 -0.365366 0.826016 0.341837 0.113525 1 7 1.000000
  0 -4.322624 -0.914352 65.954155 0.164287 -0.388058 0.906874 0.409096 0.160324 1 7 1.000000
cobra_driver_helmet
  0 -3.677044 -2.008977 69.535713 -0.170438 -0.536270 0.826659 0.469253 0.286073 1 7 1.000000
  0 -4.158098 -1.430793 68.179672 -0.078767 -0.349607 0.933580 0.440364 0.239330 1 7 1.000000
  0 -3.728992 -3.175907 68.431587 -0.322060 -0.396215 0.859820 0.506862 0.239330 1 7 1.000000
cobra_driver_helmet
  0 -4.158098 -1.430793 68.179672 -0.078767 -0.349607 0.933580 0.440364 0.239330 1 7 1.000000
  0 -4.322624 -0.914352 65.954155 0.164287 -0.388058 0.906874 0.409096 0.160324 1 7 1.000000
  0 -4.111060 -2.568663 66.976303 -0.117774 -0.443087 0.888709 0.476354 0.189096 1 7 1.000000
cobra_driver_helmet
  0 -4.158098 -1.430793 68.179672 -0.078767 -0.349607 0.933580 0.440364 0.239330 1 7 1.000000
  0 -4.111060 -2.568663 66.976303 -0.117774 -0.443087 0.888709 0.476354 0.189096 1 7 1.000000
  0 -3.728992 -3.175907 68.431587 -0.322060 -0.396215 0.859820 0.506862 0.239330 1 7 1.000000
cobra_driver_helmet
  0 -3.728992 -3.175907 68.431587 -0.322060 -0.396215 0.859820 0.506862 0.239330 1 7 1.000000
  0 -4.111060 -2.568663 66.976303 -0.117774 -0.443087 0.888709 0.476354 0.189096 1 7 1.000000
  0 -3.497076 -4.111178 67.551064 -0.365085 -0.505195 0.781979 0.537028 0.202029 1 7 1.000000
cobra_driver_helmet
  0 -2.161312 -4.295341 70.331024 -0.560144 -0.661139 0.499134 0.835595 0.374081 1 7 1.000000
  0 -2.974790 -4.405046 68.869377 -0.627235 -0.522409 0.577638 0.882407 0.324631 1 7 1.000000
  0 -1.838522 -5.495927 69.026855 -0.751910 -0.482781 0.448948 0.915035 0.393703 1 7 1.000000
cobra_driver_helmet
  0 -2.974790 -4.405046 68.869377 -0.472222 -0.404990 0.782937 0.555101 0.248893 1 7 1.000000
  0 -3.497076 -4.111178 67.551064 -0.365085 -0.505195 0.781979 0.537028 0.202029 1 7 1.000000
  0 -2.540774 -5.338048 67.988319 -0.461166 -0.548797 0.697243 0.585180 0.211584 1 7 1.000000
cobra_driver_helmet
  0 -2.974790 -4.405046 68.869377 -0.648969 -0.467355 0.600348 0.882407 0.324631 1 7 1.000000
  0 -2.540774 -5.338048 67.988319 -0.648969 -0.467355 0.600348 0.940240 0.351014 1 7 1.000000
  0 -1.838522 -5.495927 69.026855 -0.751910 -0.482781 0.448948 0.915035 0.393703 1 7 1.000000
cobra_driver_helmet
  0 -1.838522 -5.495927 69.026855 -0.751910 -0.482781 0.448948 0.915035 0.393703 1 7 1.000000
  0 -2.540774 -5.338048 67.988319 -0.790039 -0.349235 0.503858 0.940240 0.351014 1 7 1.000000
  0 -1.335764 -6.149366 68.105431 -0.782257 -0.558231 0.276500 0.964506 0.424265 1 7 1.000000
cobra_driver_helmet
  0 -0.000000 -6.562708 68.000641 0.530319 0.834919 0.147219 0.775202 0.987665 1 7 1.000000
  0 -1.361612 -6.277738 67.959503 0.495214 0.862803 -0.101658 0.734196 0.981355 1 7 1.000000
  0 -0.000001 -0.028961 72.087654 -0.294354 0.941177 0.165955 0.775202 0.884922 1 7 1.000000
cobra_driver_helmet
  0 1.361611 -6.277738 67.959503 0.495214 0.776001 0.390623 0.816209 0.981355 1 7 1.000000
  0 -0.000000 -6.562708 68.000641 0.530319 0.834919 0.147219 0.775202 0.987665 1 7 1.000000
  0 -0.000001 -0.028961 72.087654 -0.294354 0.941177 0.165955 0.775202 0.884922 1 7 1.000000
cobra_driver_helmet
  0 2.589939 -5.450720 67.840118 0.365647 0.677626 0.638064 0.853202 0.963042 1 7 1.000000
  0 1.361611 -6.277738 67.959503 0.495214 0.776001 0.390623 0.816209 0.981355 1 7 1.000000
  0 -0.000001 -0.028961 72.087654 -0.294354 0.941177 0.165955 0.775202 0.884922 1 7 1.000000
cobra_driver_helmet
  0 3.564745 -4.199398 67.399338 0.164315 0.551898 0.817563 0.882560 0.933167 1 7 1.000000
  0 2.589939 -5.450720 67.840118 0.365647 0.677626 0.638064 0.853202 0.963042 1 7 1.000000
  0 -0.000001 -0.028961 72.087654 -0.294354 0.941177 0.165955 0.775202 0.884922 1 7 1.000000
cobra_driver_helmet
  0 4.190609 -2.626073 66.820129 -0.090529 0.444276 0.891304 0.901408 0.895394 1 7 1.000000
  0 3.564745 -4.199398 67.399338 0.164315 0.551898 0.817563 0.882560 0.933167 1 7 1.000000
  0 -0.000001 -0.028961 72.087654 -0.294354 0.941177 0.165955 0.775202 0.884922 1 7 1.000000
cobra_driver_helmet
  0 4.406267 -0.937608 65.793053 -0.408238 0.341390 0.846637 0.907903 0.851478 1 7 1.000000
  0 4.190609 -2.626073 66.820129 -0.090529 0.444276 0.891304 0.901408 0.895394 1 7 1.000000
  0 -0.000001 -0.028961 72.087654 -0.294354 0.941177 0.165955 0.775202 0.884922 1 7 1.000000
cobra_driver_helmet
  0 4.190609 0.681460 64.285240 -0.566126 0.300746 0.767498 0.901408 0.805007 1 7 1.000000
  0 4.406267 -0.937608 65.793053 -0.408238 0.341390 0.846637 0.907903 0.851478 1 7 1.000000
  0 -0.000001 -0.028961 72.087654 -0.294354 0.941177 0.165955 0.775202 0.884922 1 7 1.000000
cobra_driver_helmet
  0 3.564745 2.182256 63.203590 -0.587177 0.296790 0.753086 0.882560 0.764565 1 7 1.000000
  0 4.190609 0.681460 64.285240 -0.566126 0.300746 0.767498 0.901408 0.805007 1 7 1.000000
  0 -0.000001 -0.028961 72.087654 -0.294354 0.941177 0.165955 0.775202 0.884922 1 7 1.000000
cobra_driver_helmet
  0 2.589939 3.470366 63.017647 -0.691513 0.325008 0.645120 0.853202 0.736044 1 7 1.000000
  0 3.564745 2.182256 63.203590 -0.587177 0.296790 0.753086 0.882560 0.764565 1 7 1.000000
  0 -0.000001 -0.028961 72.087654 -0.294354 0.941177 0.165955 0.775202 0.884922 1 7 1.000000
cobra_driver_helmet
  0 1.361611 4.297382 62.898266 -0.838881 0.380136 0.389584 0.816209 0.717731 1 7 1.000000
  0 2.589939 3.470366 63.017647 -0.691513 0.325008 0.645120 0.853202 0.736044 1 7 1.000000
  0 -0.000001 -0.028961 72.087654 -0.294354 0.941177 0.165955 0.775202 0.884922 1 7 1.000000
cobra_driver_helmet
  0 -0.000000 4.582354 62.857128 -0.894580 0.440118 0.077605 0.775202 0.711421 1 7 1.000000
  0 1.361611 4.297382 62.898266 -0.838881 0.380136 0.389584 0.816209 0.717731 1 7 1.000000
  0 -0.000001 -0.028961 72.087654 -0.294354 0.941177 0.165955 0.775202 0.884922 1 7 1.000000
cobra_driver_helmet
  0 -1.361611 4.297382 62.898266 -0.838881 0.490456 -0.236075 0.734196 0.717731 1 7 1.000000
  0 -0.000000 4.582354 62.857128 -0.894580 0.440118 0.077605 0.775202 0.711421 1 7 1.000000
  0 -0.000001 -0.028961 72.087654 -0.294354 0.941177 0.165955 0.775202 0.884922 1 7 1.000000
cobra_driver_helmet
  0 -2.589939 3.470366 63.017647 -0.691513 0.526052 -0.495056 0.697203 0.736044 1 7 1.000000
  0 -1.361611 4.297382 62.898266 -0.838881 0.490456 -0.236075 0.734196 0.717731 1 7 1.000000
  0 -0.000001 -0.028961 72.087654 -0.294354 0.941177 0.165955 0.775202 0.884922 1 7 1.000000
cobra_driver_helmet
  0 -3.564745 2.182256 63.203590 -0.587177 0.536462 -0.606161 0.667845 0.764565 1 7 1.000000
  0 -2.589939 3.470366 63.017647 -0.691513 0.526052 -0.495056 0.697203 0.736044 1 7 1.000000
  0 -0.000001 -0.028961 72.087654 -0.294354 0.941177 0.165955 0.775202 0.884922 1 7 1.000000
cobra_driver_helmet
  0 -4.190609 0.681460 64.285240 -0.566126 0.545109 -0.618351 0.648996 0.805007 1 7 1.000000
  0 -3.564745 2.182256 63.203590 -0.587177 0.536462 -0.606161 0.667845 0.764565 1 7 1.000000
  0 -0.000001 -0.028961 72.087654 -0.294354 0.941177 0.165955 0.775202 0.884922 1 7 1.000000
cobra_driver_helmet
  0 -4.406268 -0.937608 65.793053 -0.408238 0.610369 -0.678817 0.642502 0.851478 1 7 1.000000
  0 -4.190609 0.681460 64.285240 -0.566126 0.545109 -0.618351 0.648996 0.805007 1 7 1.000000
  0 -0.000001 -0.028961 72.087654 -0.294354 0.941177 0.165955 0.775202 0.884922 1 7 1.000000
cobra_driver_helmet
  0 -4.190609 -2.626073 66.820129 -0.090529 0.722327 -0.685601 0.648996 0.895394 1 7 1.000000
  0 -4.406268 -0.937608 65.793053 -0.408238 0.610369 -0.678817 0.642502 0.851478 1 7 1.000000
  0 -0.000001 -0.028961 72.087654 -0.294354 0.941177 0.165955 0.775202 0.884922 1 7 1.000000
cobra_driver_helmet
  0 -3.564745 -4.199399 67.399338 0.164315 0.798238 -0.579497 0.667845 0.933167 1 7 1.000000
  0 -4.190609 -2.626073 66.820129 -0.090529 0.722327 -0.685601 0.648996 0.895394 1 7 1.000000
  0 -0.000001 -0.028961 72.087654 -0.294354 0.941177 0.165955 0.775202 0.884922 1 7 1.000000
cobra_driver_helmet
  0 -2.589939 -5.450721 67.840118 0.365647 0.854991 -0.367823 0.697203 0.963042 1 7 1.000000
  0 -3.564745 -4.199399 67.399338 0.164315 0.798238 -0.579497 0.667845 0.933167 1 7 1.000000
  0 -0.000001 -0.028961 72.087654 -0.294354 0.941177 0.165955 0.775202 0.884922 1 7 1.000000
cobra_driver_helmet
  0 -1.361612 -6.277738 67.959503 0.495214 0.862803 -0.101658 0.734196 0.981355 1 7 1.000000
  0 -2.589939 -5.450721 67.840118 0.365647 0.854991 -0.367823 0.697203 0.963042 1 7 1.000000
  0 -0.000001 -0.028961 72.087654 -0.294354 0.941177 0.165955 0.775202 0.884922 1 7 1.000000
cobra_driver_helmet
  0 -0.000000 -6.428926 68.145790 -0.848422 -0.521279 -0.091916 0.972868 0.505465 1 7 1.000000
  0 -1.335764 -6.149366 68.105431 -0.782257 -0.558231 0.276500 0.964506 0.424265 1 7 1.000000
  0 -1.361612 -6.277738 67.959503 -0.724388 -0.687335 0.053232 0.973191 0.422694 1 7 1.000000
cobra_driver_helmet
  0 -1.361612 -6.277738 67.959503 -0.724388 -0.687334 0.053232 0.973191 0.422694 1 7 1.000000
  0 -0.000000 -6.562708 68.000641 -0.724388 -0.687334 0.053232 0.981715 0.505465 1 7 1.000000
  0 -0.000000 -6.428926 68.145790 -0.848422 -0.521279 -0.091916 0.972868 0.505465 1 7 1.000000
cobra_driver_helmet
  0 1.335764 -6.149366 68.105431 -0.782257 -0.429996 -0.450751 0.964506 0.586664 1 7 1.000000
  0 -0.000000 -6.428926 68.145790 -0.848422 -0.521279 -0.091916 0.972868 0.505465 1 7 1.000000
  0 -0.000000 -6.562708 68.000641 -0.724388 -0.627676 -0.285104 0.981715 0.505465 1 7 1.000000
cobra_driver_helmet
  0 -0.000000 -6.562708 68.000641 -0.724388 -0.627677 -0.285104 0.981715 0.505465 1 7 1.000000
  0 1.361611 -6.277738 67.959503 -0.724388 -0.627677 -0.285104 0.973191 0.588235 1 7 1.000000
  0 1.335764 -6.149366 68.105431 -0.782257 -0.429996 -0.450751 0.964506 0.586664 1 7 1.000000
cobra_driver_helmet
  0 2.540775 -5.338048 67.988319 -0.683828 -0.342645 -0.644184 0.940240 0.659915 1 7 1.000000
  0 1.335764 -6.149366 68.105431 -0.782257 -0.429996 -0.450751 0.964506 0.586664 1 7 1.000000
  0 1.361611 -6.277738 67.959503 -0.616719 -0.534639 -0.577770 0.973191 0.588235 1 7 1.000000
cobra_driver_helmet
  0 1.361611 -6.277738 67.959503 -0.616719 -0.534640 -0.577770 0.973191 0.588235 1 7 1.000000
  0 2.589939 -5.450720 67.840118 -0.616719 -0.534640 -0.577770 0.948455 0.662904 1 7 1.000000
  0 2.540775 -5.338048 67.988319 -0.683828 -0.342645 -0.644184 0.940240 0.659915 1 7 1.000000
cobra_driver_helmet
  0 3.497077 -4.111177 67.551064 -0.365275 -0.206788 -0.907642 0.531073 0.834008 1 7 1.000000
  0 2.540775 -5.338048 67.988319 -0.387818 -0.404470 -0.828252 0.579224 0.824453 1 7 1.000000
  0 2.589939 -5.450720 67.840118 -0.387818 -0.404470 -0.828252 0.582632 0.830494 1 7 1.000000
cobra_driver_helmet
  0 2.589939 -5.450720 67.840118 -0.382297 -0.415587 -0.825310 0.582632 0.830494 1 7 1.000000
  0 3.564745 -4.199398 67.399338 -0.382297 -0.415587 -0.825310 0.533548 0.840049 1 7 1.000000
  0 3.497077 -4.111177 67.551064 -0.365275 -0.206788 -0.907642 0.531073 0.834008 1 7 1.000000
cobra_driver_helmet
  0 4.111059 -2.568663 66.976303 -0.117971 -0.111642 -0.986721 0.470398 0.846941 1 7 1.000000
  0 3.497077 -4.111177 67.551064 -0.365275 -0.206788 -0.907642 0.531073 0.834008 1 7 1.000000
  0 3.564745 -4.199398 67.399338 -0.164241 -0.322919 -0.932067 0.533548 0.840049 1 7 1.000000
cobra_driver_helmet
  0 3.564745 -4.199398 67.399338 -0.158371 -0.337770 -0.927810 0.533548 0.840049 1 7 1.000000
  0 4.190609 -2.626073 66.820129 -0.158371 -0.337770 -0.927810 0.471700 0.852982 1 7 1.000000
  0 4.111059 -2.568663 66.976303 -0.117971 -0.111642 -0.986721 0.470398 0.846941 1 7 1.000000
cobra_driver_helmet
  0 4.322624 -0.914353 65.954155 0.163246 -0.053487 -0.985135 0.403140 0.875714 1 7 1.000000
  0 4.111059 -2.568663 66.976303 -0.117971 -0.111642 -0.986721 0.470398 0.846941 1 7 1.000000
  0 4.190609 -2.626073 66.820129 0.137349 -0.246151 -0.959450 0.471700 0.852982 1 7 1.000000
cobra_driver_helmet
  0 4.190609 -2.626073 66.820129 0.153181 -0.277350 -0.948479 0.471700 0.852982 1 7 1.000000
  0 4.406267 -0.937608 65.793053 0.153181 -0.277350 -0.948479 0.403140 0.881755 1 7 1.000000
  0 4.322624 -0.914353 65.954155 0.163246 -0.053487 -0.985135 0.403140 0.875714 1 7 1.000000
cobra_driver_helmet
  0 4.111060 0.670562 64.451271 0.427040 -0.059764 -0.902255 0.335882 0.922512 1 7 1.000000
  0 4.322624 -0.914353 65.954155 0.163246 -0.053487 -0.985135 0.403140 0.875714 1 7 1.000000
  0 4.406267 -0.937608 65.793053 0.449989 -0.212055 -0.867492 0.403140 0.881755 1 7 1.000000
cobra_driver_helmet
  0 4.406267 -0.937608 65.793053 0.480297 -0.263122 -0.836709 0.403140 0.881755 1 7 1.000000
  0 4.190609 0.681460 64.285240 0.480297 -0.263122 -0.836709 0.334581 0.928553 1 7 1.000000
  0 4.111060 0.670562 64.451271 0.427040 -0.059764 -0.902255 0.335882 0.922512 1 7 1.000000
cobra_driver_helmet
  0 3.497077 2.140547 63.374073 0.570186 -0.089758 -0.816597 0.275208 0.954284 1 7 1.000000
  0 4.111060 0.670562 64.451271 0.427040 -0.059764 -0.902255 0.335882 0.922512 1 7 1.000000
  0 4.190609 0.681460 64.285240 0.580524 -0.251861 -0.774312 0.334581 0.928553 1 7 1.000000
cobra_driver_helmet
  0 4.190609 0.681460 64.285240 0.589662 -0.292142 -0.752962 0.334581 0.928553 1 7 1.000000
  0 3.564745 2.182256 63.203590 0.589662 -0.292142 -0.752962 0.272732 0.960325 1 7 1.000000
  0 3.497077 2.140547 63.374073 0.570186 -0.089758 -0.816597 0.275208 0.954284 1 7 1.000000
cobra_driver_helmet
  0 2.540775 3.404206 63.191658 0.622940 -0.052084 -0.780534 0.227056 0.954284 1 7 1.000000
  0 3.497077 2.140547 63.374073 0.570186 -0.089758 -0.816597 0.275208 0.954284 1 7 1.000000
  0 3.564745 2.182256 63.203590 0.585657 -0.291876 -0.756184 0.272732 0.960325 1 7 1.000000
cobra_driver_helmet
  0 3.564745 2.182256 63.203590 0.585658 -0.291872 -0.756185 0.272732 0.960325 1 7 1.000000
  0 2.589939 3.470366 63.017647 0.585658 -0.291872 -0.756185 0.223649 0.960325 1 7 1.000000
  0 2.540775 3.404206 63.191658 0.622940 -0.052084 -0.780534 0.227056 0.954284 1 7 1.000000
cobra_driver_helmet
  0 1.335764 4.215523 63.074543 0.908303 -0.116389 -0.401795 0.022708 0.584414 1 7 1.000000
  0 2.540775 3.404206 63.191658 0.768823 -0.337669 -0.543039 0.040283 0.652578 1 7 1.000000
  0 2.589939 3.470366 63.017647 0.768823 -0.337669 -0.543039 0.032493 0.655359 1 7 1.000000
cobra_driver_helmet
  0 2.589939 3.470366 63.017647 0.768821 -0.337673 -0.543039 0.032493 0.655359 1 7 1.000000
  0 1.361611 4.297382 62.898266 0.768821 -0.337673 -0.543039 0.014577 0.585876 1 7 1.000000
  0 1.335764 4.215523 63.074543 0.908303 -0.116389 -0.401795 0.022708 0.584414 1 7 1.000000
cobra_driver_helmet
  0 -0.000000 4.495083 63.034187 0.982314 -0.184395 -0.032514 0.016652 0.508853 1 7 1.000000
  0 1.335764 4.215523 63.074543 0.908303 -0.116389 -0.401795 0.022708 0.584414 1 7 1.000000
  0 1.361611 4.297382 62.898266 0.883633 -0.399083 -0.244796 0.014577 0.585876 1 7 1.000000
cobra_driver_helmet
  0 1.361611 4.297382 62.898266 0.883633 -0.399083 -0.244796 0.014577 0.585876 1 7 1.000000
  0 -0.000000 4.582354 62.857128 0.883633 -0.399083 -0.244796 0.008404 0.508853 1 7 1.000000
  0 -0.000000 4.495083 63.034187 0.982314 -0.184395 -0.032514 0.016652 0.508853 1 7 1.000000
cobra_driver_helmet
  0 -1.335764 4.215523 63.074543 0.908303 -0.246792 0.337757 0.022708 0.433292 1 7 1.000000
  0 -0.000000 4.495083 63.034187 0.982314 -0.184395 -0.032514 0.016652 0.508853 1 7 1.000000
  0 -0.000000 4.582354 62.857128 0.883633 -0.458741 0.093538 0.008404 0.508853 1 7 1.000000
cobra_driver_helmet
  0 -0.000000 4.582354 62.857128 0.883634 -0.458740 0.093539 0.008404 0.508853 1 7 1.000000
  0 -1.361611 4.297382 62.898266 0.883634 -0.458740 0.093539 0.014577 0.431830 1 7 1.000000
  0 -1.335764 4.215523 63.074543 0.908303 -0.246792 0.337757 0.022708 0.433292 1 7 1.000000
cobra_driver_helmet
  0 -2.540775 3.404206 63.191658 0.823821 -0.271913 0.497375 0.040283 0.365128 1 7 1.000000
  0 -1.335764 4.215523 63.074543 0.908303 -0.246792 0.337757 0.022708 0.433292 1 7 1.000000
  0 -1.361611 4.297382 62.898266 0.768821 -0.503040 0.394798 0.014577 0.431830 1 7 1.000000
cobra_driver_helmet
  0 -1.361611 4.297382 62.898266 0.768823 -0.503033 0.394802 0.014577 0.431830 1 7 1.000000
  0 -2.589939 3.470366 63.017647 0.768823 -0.503033 0.394802 0.032493 0.362346 1 7 1.000000
  0 -2.540775 3.404206 63.191658 0.823821 -0.271913 0.497375 0.040283 0.365128 1 7 1.000000
cobra_driver_helmet
  0 -3.497077 2.140546 63.374073 0.571859 -0.363873 0.735238 0.281163 0.081753 1 7 1.000000
  0 -2.540775 3.404206 63.191658 0.585658 -0.532899 0.610756 0.233011 0.081753 1 7 1.000000
  0 -2.589939 3.470366 63.017647 0.585658 -0.532899 0.610756 0.229604 0.075712 1 7 1.000000
cobra_driver_helmet
  0 -2.589939 3.470366 63.017647 0.585658 -0.532903 0.610753 0.229604 0.075712 1 7 1.000000
  0 -3.564745 2.182256 63.203590 0.585658 -0.532903 0.610753 0.278688 0.075712 1 7 1.000000
  0 -3.497077 2.140546 63.374073 0.571859 -0.363873 0.735238 0.281163 0.081753 1 7 1.000000
cobra_driver_helmet
  0 -4.111060 0.670562 64.451279 0.429192 -0.365366 0.826016 0.341837 0.113525 1 7 1.000000
  0 -3.497077 2.140546 63.374073 0.571859 -0.363873 0.735238 0.281163 0.081753 1 7 1.000000
  0 -3.564745 2.182256 63.203590 0.593610 -0.531194 0.604533 0.278688 0.075712 1 7 1.000000
cobra_driver_helmet
  0 -3.564745 2.182256 63.203590 0.577042 -0.502783 0.643609 0.278688 0.075712 1 7 1.000000
  0 -4.190609 0.681460 64.285240 0.577042 -0.502783 0.643609 0.340536 0.107484 1 7 1.000000
  0 -4.111060 0.670562 64.451279 0.429192 -0.365366 0.826016 0.341837 0.113525 1 7 1.000000
cobra_driver_helmet
  0 -4.322624 -0.914352 65.954155 0.164287 -0.388058 0.906874 0.409096 0.160324 1 7 1.000000
  0 -4.111060 0.670562 64.451279 0.429192 -0.365366 0.826016 0.341837 0.113525 1 7 1.000000
  0 -4.190609 0.681460 64.285240 0.485982 -0.531869 0.693496 0.340536 0.107484 1 7 1.000000
cobra_driver_helmet
  0 -4.190609 0.681460 64.285240 0.445393 -0.497859 0.744152 0.340536 0.107484 1 7 1.000000
  0 -4.406268 -0.937608 65.793053 0.445393 -0.497859 0.744152 0.409096 0.154283 1 7 1.000000
  0 -4.322624 -0.914352 65.954155 0.164287 -0.388058 0.906874 0.409096 0.160324 1 7 1.000000
cobra_driver_helmet
  0 -4.111060 -2.568663 66.976303 -0.117774 -0.443087 0.888709 0.476354 0.189096 1 7 1.000000
  0 -4.322624 -0.914352 65.954155 0.164287 -0.388058 0.906874 0.409096 0.160324 1 7 1.000000
  0 -4.406268 -0.937608 65.793053 0.156846 -0.584295 0.796240 0.409096 0.154283 1 7 1.000000
cobra_driver_helmet
  0 -4.406268 -0.937608 65.793053 0.134264 -0.560551 0.817163 0.409096 0.154283 1 7 1.000000
  0 -4.190609 -2.626073 66.820129 0.134264 -0.560551 0.817163 0.477655 0.183056 1 7 1.000000
  0 -4.111060 -2.568663 66.976303 -0.117774 -0.443087 0.888709 0.476354 0.189096 1 7 1.000000
cobra_driver_helmet
  0 -3.497076 -4.111178 67.551064 -0.365085 -0.505195 0.781979 0.537028 0.202029 1 7 1.000000
  0 -4.111060 -2.568663 66.976303 -0.117774 -0.443087 0.888709 0.476354 0.189096 1 7 1.000000
  0 -4.190609 -2.626073 66.820129 -0.156705 -0.634474 0.756893 0.477655 0.183056 1 7 1.000000
cobra_driver_helmet
  0 -4.190609 -2.626073 66.820129 -0.165718 -0.622703 0.764708 0.477655 0.183056 1 7 1.000000
  0 -3.564745 -4.199399 67.399338 -0.165718 -0.622703 0.764708 0.539504 0.195988 1 7 1.000000
  0 -3.497076 -4.111178 67.551064 -0.365085 -0.505195 0.781979 0.537028 0.202029 1 7 1.000000
cobra_driver_helmet
  0 -2.540774 -5.338048 67.988319 -0.461166 -0.548797 0.697243 0.585180 0.211584 1 7 1.000000
  0 -3.497076 -4.111178 67.551064 -0.365085 -0.505195 0.781979 0.537028 0.202029 1 7 1.000000
  0 -3.564745 -4.199399 67.399338 -0.381107 -0.672635 0.634287 0.539504 0.195988 1 7 1.000000
cobra_driver_helmet
  0 -3.564745 -4.199399 67.399338 -0.388859 -0.663684 0.638993 0.539504 0.195988 1 7 1.000000
  0 -2.589939 -5.450721 67.840118 -0.388859 -0.663684 0.638993 0.588587 0.205544 1 7 1.000000
  0 -2.540774 -5.338048 67.988319 -0.461166 -0.548797 0.697243 0.585180 0.211584 1 7 1.000000
cobra_driver_helmet
  0 -1.335764 -6.149366 68.105431 -0.782257 -0.558231 0.276500 0.964506 0.424265 1 7 1.000000
  0 -2.540774 -5.338048 67.988319 -0.616719 -0.700006 0.360069 0.940240 0.351014 1 7 1.000000
  0 -2.589939 -5.450721 67.840118 -0.616719 -0.700006 0.360069 0.948455 0.348025 1 7 1.000000
cobra_driver_helmet
  0 -2.589939 -5.450721 67.840118 -0.616718 -0.700007 0.360069 0.948455 0.348025 1 7 1.000000
  0 -1.361612 -6.277738 67.959503 -0.616718 -0.700007 0.360069 0.973191 0.422694 1 7 1.000000
  0 -1.335764 -6.149366 68.105431 -0.782257 -0.558231 0.276500 0.964506 0.424265 1 7 1.000000
cobra_driver_helmet
  0 3.241051 -2.484035 63.307468 0.309748 0.845924 -0.434130 0.771469 0.047152 1 7 1.000000
  0 3.241052 -2.192437 63.534676 0.894899 -0.318708 -0.312379 0.781371 0.047152 1 7 1.000000
  0 3.010121 -2.946970 64.174194 -0.328935 0.169520 -0.929013 0.794704 0.054785 1 7 1.000000
cobra_driver_helmet
  0 3.320976 -0.946450 66.813293 -0.225028 -0.973472 -0.041411 0.896922 0.044511 1 7 1.000000
  0 3.458629 -0.750031 66.186050 -0.102850 0.104588 -0.989183 0.878828 0.039961 1 7 1.000000
  0 3.480154 -0.319749 66.060928 0.965371 0.239866 -0.102579 0.878828 0.039250 1 7 1.000000
cobra_driver_helmet
  0 -2.829792 -2.946970 64.174194 -0.293480 -0.187453 0.937406 0.794704 0.247800 1 7 1.000000
  0 -3.060723 -2.192436 63.534676 0.733332 -0.676632 0.066284 0.781371 0.255433 1 7 1.000000
  0 -3.060723 -2.484035 63.307465 0.210278 0.867002 0.451764 0.771469 0.255433 1 7 1.000000
cobra_driver_helmet
  0 -3.379949 -0.319751 66.060928 0.994625 -0.015719 0.102347 0.878828 0.265984 1 7 1.000000
  0 -3.358425 -0.750033 66.186050 -0.142687 -0.330621 0.932915 0.878828 0.265272 1 7 1.000000
  0 -3.140646 -0.946453 66.813293 -0.228665 -0.223521 0.947497 0.896922 0.258074 1 7 1.000000
cobra_driver_helmet
  0 -3.140646 -0.946453 66.813293 -0.228665 -0.223521 0.947497 0.896922 0.258074 1 7 1.000000
  0 -3.161291 -0.842802 67.256355 -0.288003 0.939812 0.183870 0.911939 0.258757 1 7 1.000000
  0 -3.379949 -0.319751 66.060928 0.994625 -0.015719 0.102347 0.878828 0.265984 1 7 1.000000
cobra_driver_helmet
  0 3.241051 -2.484035 63.307468 0.309748 0.845924 -0.434130 0.771469 0.047152 1 7 1.000000
  0 2.620223 -3.473277 62.393871 -0.243018 0.557645 -0.793709 0.733345 0.067671 1 7 1.000000
  0 2.106636 -3.445125 61.499317 -0.917842 0.085956 0.387527 0.705215 0.084646 1 7 1.000000
cobra_driver_helmet
  0 0.762321 -4.745611 60.892132 -0.418020 0.889831 -0.182921 0.673943 0.129077 1 7 1.000000
  0 0.762321 -4.315330 60.767006 0.777671 0.624976 -0.068065 0.673943 0.129077 1 7 1.000000
  0 2.106636 -3.445125 61.499317 -0.917842 0.085956 0.387527 0.705215 0.084646 1 7 1.000000
cobra_driver_helmet
  0 0.762321 -4.315330 60.767006 0.777671 0.624976 -0.068065 0.673943 0.129077 1 7 1.000000
  0 0.762321 -4.745611 60.892132 -0.418020 0.889831 -0.182921 0.673943 0.129077 1 7 1.000000
  0 -0.581993 -4.745611 60.892132 -0.416316 0.782091 0.463696 0.673943 0.173508 1 7 1.000000
cobra_driver_helmet
  0 -0.581993 -4.745611 60.892132 -0.416316 0.782091 0.463696 0.673943 0.173508 1 7 1.000000
  0 -0.581993 -4.315330 60.767006 0.753382 0.624627 0.205564 0.673943 0.173508 1 7 1.000000
  0 0.762321 -4.315330 60.767006 0.777671 0.624976 -0.068065 0.673943 0.129077 1 7 1.000000
cobra_driver_helmet
  0 -0.581993 -4.315330 60.767006 0.753382 0.624627 0.205564 0.673943 0.173508 1 7 1.000000
  0 -0.581993 -4.745611 60.892132 -0.416316 0.782091 0.463696 0.673943 0.173508 1 7 1.000000
  0 -1.926308 -3.713280 61.569416 0.595566 -0.453824 0.662831 0.704965 0.217939 1 7 1.000000
cobra_driver_helmet
  0 2.620223 -3.473277 62.393871 -0.243018 0.557645 -0.793709 0.733345 0.067671 1 7 1.000000
  0 3.241051 -2.484035 63.307468 0.309748 0.845924 -0.434130 0.771469 0.047152 1 7 1.000000
  0 2.106636 -5.123984 62.710423 -0.530905 0.348559 -0.772429 0.728158 0.084646 1 7 1.000000
cobra_driver_helmet
  0 2.106636 -5.123984 62.710423 -0.530905 0.348559 -0.772429 0.728158 0.084646 1 7 1.000000
  0 2.106636 -3.445125 61.499317 -0.917842 0.085956 0.387527 0.705215 0.084646 1 7 1.000000
  0 2.620223 -3.473277 62.393871 -0.243018 0.557645 -0.793709 0.733345 0.067671 1 7 1.000000
cobra_driver_helmet
  0 3.241051 -2.484035 63.307468 0.309748 0.845924 -0.434130 0.771469 0.047152 1 7 1.000000
  0 3.010121 -2.946970 64.174194 -0.328935 0.169520 -0.929013 0.794704 0.054785 1 7 1.000000
  0 2.106636 -4.808901 64.715630 -0.587432 0.190277 -0.786586 0.794704 0.084646 1 7 1.000000
cobra_driver_helmet
  0 2.106636 -4.808901 64.715630 -0.587432 0.190277 -0.786586 0.794704 0.084646 1 7 1.000000
  0 2.106636 -5.123984 62.710423 -0.530905 0.348559 -0.772429 0.728158 0.084646 1 7 1.000000
  0 3.241051 -2.484035 63.307468 0.309748 0.845924 -0.434130 0.771469 0.047152 1 7 1.000000
cobra_driver_helmet
  0 3.010121 -2.946970 64.174194 -0.328935 0.169520 -0.929013 0.794704 0.054785 1 7 1.000000
  0 3.010121 -3.143390 64.801445 -0.327036 0.337279 -0.882774 0.812798 0.054785 1 7 1.000000
  0 2.106636 -5.005322 65.342880 -0.610058 0.187946 -0.769744 0.812798 0.084646 1 7 1.000000
cobra_driver_helmet
  0 2.106636 -5.005322 65.342880 -0.610058 0.187946 -0.769744 0.812798 0.084646 1 7 1.000000
  0 2.106636 -4.808901 64.715630 -0.587432 0.190277 -0.786586 0.794704 0.084646 1 7 1.000000
  0 3.010121 -2.946970 64.174194 -0.328935 0.169520 -0.929013 0.794704 0.054785 1 7 1.000000
cobra_driver_helmet
  0 2.106636 -3.445125 61.499317 -0.917842 0.085956 0.387527 0.705215 0.084646 1 7 1.000000
  0 2.106636 -5.123984 62.710423 -0.530905 0.348559 -0.772429 0.728158 0.084646 1 7 1.000000
  0 0.762321 -6.609879 62.165031 -0.861258 0.406940 -0.304357 0.697136 0.129077 1 7 1.000000
cobra_driver_helmet
  0 0.762321 -6.609879 62.165031 -0.861258 0.406940 -0.304357 0.697136 0.129077 1 7 1.000000
  0 0.762321 -4.745611 60.892132 -0.418020 0.889831 -0.182921 0.673943 0.129077 1 7 1.000000
  0 2.106636 -3.445125 61.499317 -0.917842 0.085956 0.387527 0.705215 0.084646 1 7 1.000000
cobra_driver_helmet
  0 2.106636 -5.123984 62.710423 -0.530905 0.348559 -0.772429 0.728158 0.084646 1 7 1.000000
  0 2.106636 -4.808901 64.715630 -0.587432 0.190277 -0.786586 0.794704 0.084646 1 7 1.000000
  0 0.762321 -6.032712 65.071510 -0.924480 0.129005 -0.358741 0.794704 0.129077 1 7 1.000000
cobra_driver_helmet
  0 0.762321 -6.032712 65.071510 -0.924480 0.129005 -0.358741 0.794704 0.129077 1 7 1.000000
  0 0.762321 -6.609879 62.165031 -0.861258 0.406940 -0.304357 0.697136 0.129077 1 7 1.000000
  0 2.106636 -5.123984 62.710423 -0.530905 0.348559 -0.772429 0.728158 0.084646 1 7 1.000000
cobra_driver_helmet
  0 2.106636 -4.808901 64.715630 -0.587432 0.190277 -0.786586 0.794704 0.084646 1 7 1.000000
  0 2.106636 -5.005322 65.342880 -0.610058 0.187946 -0.769744 0.812798 0.084646 1 7 1.000000
  0 0.762321 -6.032712 65.071510 -0.924480 0.129005 -0.358741 0.794704 0.129077 1 7 1.000000
cobra_driver_helmet
  0 0.762321 -4.745611 60.892132 -0.418020 0.889831 -0.182921 0.673943 0.129077 1 7 1.000000
  0 0.762321 -6.609879 62.165031 -0.861258 0.406940 -0.304357 0.697136 0.129077 1 7 1.000000
  0 -0.581993 -6.609879 62.165031 -0.871121 0.310752 0.380240 0.697136 0.173508 1 7 1.000000
cobra_driver_helmet
  0 -0.581993 -6.609879 62.165031 -0.871121 0.310752 0.380240 0.697136 0.173508 1 7 1.000000
  0 -0.581993 -4.745611 60.892132 -0.416316 0.782091 0.463696 0.673943 0.173508 1 7 1.000000
  0 0.762321 -4.745611 60.892132 -0.418020 0.889831 -0.182921 0.673943 0.129077 1 7 1.000000
cobra_driver_helmet
  0 0.762321 -6.609879 62.165031 -0.861258 0.406940 -0.304357 0.697136 0.129077 1 7 1.000000
  0 0.762321 -6.032712 65.071510 -0.924480 0.129005 -0.358741 0.794704 0.129077 1 7 1.000000
  0 -0.581994 -6.032712 65.071510 -0.962787 0.020655 0.269471 0.794704 0.173508 1 7 1.000000
cobra_driver_helmet
  0 -0.581994 -6.032712 65.071510 -0.962787 0.020655 0.269471 0.794704 0.173508 1 7 1.000000
  0 -0.581993 -6.609879 62.165031 -0.871121 0.310752 0.380240 0.697136 0.173508 1 7 1.000000
  0 0.762321 -6.609879 62.165031 -0.861258 0.406940 -0.304357 0.697136 0.129077 1 7 1.000000
cobra_driver_helmet
  0 -0.581994 -6.231048 65.699310 -0.933401 0.200060 0.297889 0.812798 0.173508 1 7 1.000000
  0 -0.581994 -6.032712 65.071510 -0.962787 0.020655 0.269471 0.794704 0.173508 1 7 1.000000
  0 0.762321 -6.032712 65.071510 -0.924480 0.129005 -0.358741 0.794704 0.129077 1 7 1.000000
cobra_driver_helmet
  0 -0.581993 -4.745611 60.892132 -0.416316 0.782091 0.463696 0.673943 0.173508 1 7 1.000000
  0 -0.581993 -6.609879 62.165031 -0.871121 0.310752 0.380240 0.697136 0.173508 1 7 1.000000
  0 -1.926308 -5.577547 62.842316 -0.578414 0.070097 0.812726 0.728158 0.217939 1 7 1.000000
cobra_driver_helmet
  0 -1.926308 -5.577547 62.842316 -0.578414 0.070097 0.812726 0.728158 0.217939 1 7 1.000000
  0 -1.926308 -3.713280 61.569416 0.595566 -0.453824 0.662831 0.704965 0.217939 1 7 1.000000
  0 -0.581993 -4.745611 60.892132 -0.416316 0.782091 0.463696 0.673943 0.173508 1 7 1.000000
cobra_driver_helmet
  0 -0.581993 -6.609879 62.165031 -0.871121 0.310752 0.380240 0.697136 0.173508 1 7 1.000000
  0 -0.581994 -6.032712 65.071510 -0.962787 0.020655 0.269471 0.794704 0.173508 1 7 1.000000
  0 -1.926308 -5.262463 64.847527 -0.626166 -0.091450 0.774308 0.794704 0.217939 1 7 1.000000
cobra_driver_helmet
  0 -1.926308 -5.262463 64.847527 -0.626166 -0.091450 0.774308 0.794704 0.217939 1 7 1.000000
  0 -1.926308 -5.577547 62.842316 -0.578414 0.070097 0.812726 0.728158 0.217939 1 7 1.000000
  0 -0.581993 -6.609879 62.165031 -0.871121 0.310752 0.380240 0.697136 0.173508 1 7 1.000000
cobra_driver_helmet
  0 -0.581994 -6.032712 65.071510 -0.962787 0.020655 0.269471 0.794704 0.173508 1 7 1.000000
  0 -0.581994 -6.231048 65.699310 -0.933401 0.200060 0.297889 0.812798 0.173508 1 7 1.000000
  0 -1.926308 -5.458883 65.474770 -0.700887 -0.080788 0.708682 0.812798 0.217939 1 7 1.000000
cobra_driver_helmet
  0 -1.926308 -5.458883 65.474770 -0.700887 -0.080788 0.708682 0.812798 0.217939 1 7 1.000000
  0 -1.926308 -5.262463 64.847527 -0.626166 -0.091450 0.774308 0.794704 0.217939 1 7 1.000000
  0 -0.581994 -6.032712 65.071510 -0.962787 0.020655 0.269471 0.794704 0.173508 1 7 1.000000
cobra_driver_helmet
  0 -1.926308 -3.713280 61.569416 0.595566 -0.453824 0.662831 0.704965 0.217939 1 7 1.000000
  0 -1.926308 -5.577547 62.842316 -0.578414 0.070097 0.812726 0.728158 0.217939 1 7 1.000000
  0 -3.060723 -2.484035 63.307465 0.210278 0.867002 0.451764 0.771469 0.255433 1 7 1.000000
cobra_driver_helmet
  0 -1.926308 -5.577547 62.842316 -0.578414 0.070097 0.812726 0.728158 0.217939 1 7 1.000000
  0 -1.926308 -5.262463 64.847527 -0.626166 -0.091450 0.774308 0.794704 0.217939 1 7 1.000000
  0 -2.829792 -2.946970 64.174194 -0.293480 -0.187453 0.937406 0.794704 0.247800 1 7 1.000000
cobra_driver_helmet
  0 -2.829792 -2.946970 64.174194 -0.293480 -0.187453 0.937406 0.794704 0.247800 1 7 1.000000
  0 -3.060723 -2.484035 63.307465 0.210278 0.867002 0.451764 0.771469 0.255433 1 7 1.000000
  0 -1.926308 -5.577547 62.842316 -0.578414 0.070097 0.812726 0.728158 0.217939 1 7 1.000000
cobra_driver_helmet
  0 -1.926308 -5.262463 64.847527 -0.626166 -0.091450 0.774308 0.794704 0.217939 1 7 1.000000
  0 -1.926308 -5.458883 65.474770 -0.700887 -0.080788 0.708682 0.812798 0.217939 1 7 1.000000
  0 -2.829792 -3.143390 64.801437 -0.244442 0.026762 0.969295 0.812798 0.247800 1 7 1.000000
cobra_driver_helmet
  0 -2.829792 -3.143390 64.801437 -0.244442 0.026762 0.969295 0.812798 0.247800 1 7 1.000000
  0 -2.829792 -2.946970 64.174194 -0.293480 -0.187453 0.937406 0.794704 0.247800 1 7 1.000000
  0 -1.926308 -5.262463 64.847527 -0.626166 -0.091450 0.774308 0.794704 0.217939 1 7 1.000000
cobra_driver_helmet
  0 3.010121 -3.143390 64.801445 -0.327036 0.337279 -0.882774 0.812798 0.054785 1 7 1.000000
  0 3.241052 -3.039740 65.244499 0.759386 0.497993 0.418732 0.827815 0.047152 1 7 1.000000
  0 2.106636 -4.901670 65.785942 0.229200 -0.812489 -0.536031 0.827815 0.084646 1 7 1.000000
cobra_driver_helmet
  0 2.106636 -4.901670 65.785942 0.229200 -0.812489 -0.536031 0.827815 0.084646 1 7 1.000000
  0 2.106636 -5.005322 65.342880 -0.610058 0.187946 -0.769744 0.812798 0.084646 1 7 1.000000
  0 3.010121 -3.143390 64.801445 -0.327036 0.337279 -0.882774 0.812798 0.054785 1 7 1.000000
cobra_driver_helmet
  0 2.106636 -5.005322 65.342880 -0.610058 0.187946 -0.769744 0.812798 0.084646 1 7 1.000000
  0 2.106636 -4.901670 65.785942 0.229200 -0.812489 -0.536031 0.827815 0.084646 1 7 1.000000
  0 0.762321 -6.369903 66.212891 -0.497131 -0.790042 -0.358741 0.827815 0.129077 1 7 1.000000
cobra_driver_helmet
  0 0.762321 -6.369903 66.212891 -0.497131 -0.790042 -0.358741 0.827815 0.129077 1 7 1.000000
  0 0.762321 -6.032712 65.071510 -0.924480 0.129005 -0.358741 0.794704 0.129077 1 7 1.000000
  0 2.106636 -5.005322 65.342880 -0.610058 0.187946 -0.769744 0.812798 0.084646 1 7 1.000000
cobra_driver_helmet
  0 0.762321 -6.032712 65.071510 -0.924480 0.129005 -0.358741 0.794704 0.129077 1 7 1.000000
  0 0.762321 -6.369903 66.212891 -0.497131 -0.790042 -0.358741 0.827815 0.129077 1 7 1.000000
  0 -0.581994 -6.369903 66.212891 -0.432468 -0.892235 0.129953 0.827815 0.173508 1 7 1.000000
cobra_driver_helmet
  0 -0.581994 -6.369903 66.212891 -0.432468 -0.892235 0.129953 0.827815 0.173508 1 7 1.000000
  0 -0.581994 -6.231048 65.699310 -0.933401 0.200060 0.297889 0.812798 0.173508 1 7 1.000000
  0 0.762321 -6.032712 65.071510 -0.924480 0.129005 -0.358741 0.794704 0.129077 1 7 1.000000
cobra_driver_helmet
  0 -0.581994 -6.231048 65.699310 -0.933401 0.200060 0.297889 0.812798 0.173508 1 7 1.000000
  0 -0.581994 -6.369903 66.212891 -0.432468 -0.892235 0.129953 0.827815 0.173508 1 7 1.000000
  0 -1.926308 -5.355232 65.917831 0.012386 -0.990832 0.134535 0.827815 0.217939 1 7 1.000000
cobra_driver_helmet
  0 -1.926308 -5.355232 65.917831 0.012386 -0.990832 0.134535 0.827815 0.217939 1 7 1.000000
  0 -1.926308 -5.458883 65.474770 -0.700887 -0.080788 0.708682 0.812798 0.217939 1 7 1.000000
  0 -0.581994 -6.231048 65.699310 -0.933401 0.200060 0.297889 0.812798 0.173508 1 7 1.000000
cobra_driver_helmet
  0 -1.926308 -5.458883 65.474770 -0.700887 -0.080788 0.708682 0.812798 0.217939 1 7 1.000000
  0 -1.926308 -5.355232 65.917831 0.012386 -0.990832 0.134535 0.827815 0.217939 1 7 1.000000
  0 -3.060723 -3.039739 65.244499 0.804564 0.550717 -0.222236 0.827815 0.255433 1 7 1.000000
cobra_driver_helmet
  0 -3.060723 -3.039739 65.244499 0.804564 0.550717 -0.222236 0.827815 0.255433 1 7 1.000000
  0 -2.829792 -3.143390 64.801437 -0.244442 0.026762 0.969295 0.812798 0.247800 1 7 1.000000
  0 -1.926308 -5.458883 65.474770 -0.700887 -0.080788 0.708682 0.812798 0.217939 1 7 1.000000
cobra_driver_helmet
  0 3.241052 -3.039740 65.244499 0.759386 0.497993 0.418732 0.827815 0.047152 1 7 1.000000
  0 3.241052 -2.192437 63.534676 0.894899 -0.318708 -0.312379 0.781371 0.047152 1 7 1.000000
  0 2.106636 -4.378619 64.590508 0.611068 -0.207331 0.763943 0.794704 0.084646 1 7 1.000000
cobra_driver_helmet
  0 2.106636 -4.378619 64.590508 0.611068 -0.207331 0.763943 0.794704 0.084646 1 7 1.000000
  0 2.106636 -4.901670 65.785942 0.229200 -0.812489 -0.536031 0.827815 0.084646 1 7 1.000000
  0 3.241052 -3.039740 65.244499 0.759386 0.497993 0.418732 0.827815 0.047152 1 7 1.000000
cobra_driver_helmet
  0 3.241052 -2.192437 63.534676 0.894899 -0.318708 -0.312379 0.781371 0.047152 1 7 1.000000
  0 3.241051 -2.484035 63.307468 0.309748 0.845924 -0.434130 0.771469 0.047152 1 7 1.000000
  0 2.106636 -5.047979 62.376995 0.582779 -0.411821 0.700551 0.718277 0.084646 1 7 1.000000
cobra_driver_helmet
  0 2.106636 -5.047979 62.376995 0.582779 -0.411821 0.700551 0.718277 0.084646 1 7 1.000000
  0 2.106636 -4.378619 64.590508 0.611068 -0.207331 0.763943 0.794704 0.084646 1 7 1.000000
  0 3.241052 -2.192437 63.534676 0.894899 -0.318708 -0.312379 0.781371 0.047152 1 7 1.000000
cobra_driver_helmet
  0 2.106636 -3.445125 61.499317 -0.917842 0.085956 0.387527 0.705215 0.084646 1 7 1.000000
  0 2.106636 -5.047979 62.376995 0.582779 -0.411821 0.700551 0.718277 0.084646 1 7 1.000000
  0 3.241051 -2.484035 63.307468 0.309748 0.845924 -0.434130 0.771469 0.047152 1 7 1.000000
cobra_driver_helmet
  0 2.106636 -4.901670 65.785942 0.229200 -0.812489 -0.536031 0.827815 0.084646 1 7 1.000000
  0 2.106636 -4.378619 64.590508 0.611068 -0.207331 0.763943 0.794704 0.084646 1 7 1.000000
  0 0.762321 -5.602429 64.946388 0.908230 -0.205386 0.364603 0.794704 0.129077 1 7 1.000000
cobra_driver_helmet
  0 0.762321 -5.602429 64.946388 0.908230 -0.205386 0.364603 0.794704 0.129077 1 7 1.000000
  0 0.762321 -6.369903 66.212891 -0.497131 -0.790042 -0.358741 0.827815 0.129077 1 7 1.000000
  0 2.106636 -4.901670 65.785942 0.229200 -0.812489 -0.536031 0.827815 0.084646 1 7 1.000000
cobra_driver_helmet
  0 2.106636 -4.378619 64.590508 0.611068 -0.207331 0.763943 0.794704 0.084646 1 7 1.000000
  0 2.106636 -5.047979 62.376995 0.582779 -0.411821 0.700551 0.718277 0.084646 1 7 1.000000
  0 0.762321 -6.272126 62.731716 0.927975 -0.250125 0.276226 0.718238 0.129077 1 7 1.000000
cobra_driver_helmet
  0 0.762321 -6.272126 62.731716 0.927975 -0.250125 0.276226 0.718238 0.129077 1 7 1.000000
  0 0.762321 -5.602429 64.946388 0.908230 -0.205386 0.364603 0.794704 0.129077 1 7 1.000000
  0 2.106636 -4.378619 64.590508 0.611068 -0.207331 0.763943 0.794704 0.084646 1 7 1.000000
cobra_driver_helmet
  0 2.106636 -5.047979 62.376995 0.582779 -0.411821 0.700551 0.718277 0.084646 1 7 1.000000
  0 2.106636 -3.445125 61.499317 -0.917842 0.085956 0.387527 0.705215 0.084646 1 7 1.000000
  0 0.762321 -4.315330 60.767006 0.777671 0.624976 -0.068065 0.673943 0.129077 1 7 1.000000
cobra_driver_helmet
  0 0.762321 -4.315330 60.767006 0.777671 0.624976 -0.068065 0.673943 0.129077 1 7 1.000000
  0 0.762321 -6.272126 62.731716 0.927975 -0.250125 0.276226 0.718238 0.129077 1 7 1.000000
  0 2.106636 -5.047979 62.376995 0.582779 -0.411821 0.700551 0.718277 0.084646 1 7 1.000000
cobra_driver_helmet
  0 0.762321 -6.369903 66.212891 -0.497131 -0.790042 -0.358741 0.827815 0.129077 1 7 1.000000
  0 0.762321 -5.602429 64.946388 0.908230 -0.205386 0.364603 0.794704 0.129077 1 7 1.000000
  0 -0.581994 -5.602429 64.946388 0.954067 -0.105057 -0.280568 0.794704 0.173508 1 7 1.000000
cobra_driver_helmet
  0 -0.581994 -5.602429 64.946388 0.954067 -0.105057 -0.280568 0.794704 0.173508 1 7 1.000000
  0 -0.581994 -6.369903 66.212891 -0.432468 -0.892235 0.129953 0.827815 0.173508 1 7 1.000000
  0 0.762321 -6.369903 66.212891 -0.497131 -0.790042 -0.358741 0.827815 0.129077 1 7 1.000000
cobra_driver_helmet
  0 0.762321 -5.602429 64.946388 0.908230 -0.205386 0.364603 0.794704 0.129077 1 7 1.000000
  0 0.762321 -6.272126 62.731716 0.927975 -0.250125 0.276226 0.718238 0.129077 1 7 1.000000
  0 -0.581994 -6.272126 62.731716 0.939493 -0.184307 -0.288763 0.718238 0.173508 1 7 1.000000
cobra_driver_helmet
  0 -0.581994 -6.272126 62.731716 0.939493 -0.184307 -0.288763 0.718238 0.173508 1 7 1.000000
  0 -0.581994 -5.602429 64.946388 0.954067 -0.105057 -0.280568 0.794704 0.173508 1 7 1.000000
  0 0.762321 -5.602429 64.946388 0.908230 -0.205386 0.364603 0.794704 0.129077 1 7 1.000000
cobra_driver_helmet
  0 0.762321 -6.272126 62.731716 0.927975 -0.250125 0.276226 0.718238 0.129077 1 7 1.000000
  0 0.762321 -4.315330 60.767006 0.777671 0.624976 -0.068065 0.673943 0.129077 1 7 1.000000
  0 -0.581993 -4.315330 60.767006 0.753382 0.624627 0.205564 0.673943 0.173508 1 7 1.000000
cobra_driver_helmet
  0 -0.581993 -4.315330 60.767006 0.753382 0.624627 0.205564 0.673943 0.173508 1 7 1.000000
  0 -0.581994 -6.272126 62.731716 0.939493 -0.184307 -0.288763 0.718238 0.173508 1 7 1.000000
  0 0.762321 -6.272126 62.731716 0.927975 -0.250125 0.276226 0.718238 0.129077 1 7 1.000000
cobra_driver_helmet
  0 -0.581994 -6.369903 66.212891 -0.432468 -0.892235 0.129953 0.827815 0.173508 1 7 1.000000
  0 -0.581994 -5.602429 64.946388 0.954067 -0.105057 -0.280568 0.794704 0.173508 1 7 1.000000
  0 -1.926308 -4.832181 64.722404 0.633863 0.069491 -0.770317 0.794704 0.217939 1 7 1.000000
cobra_driver_helmet
  0 -1.926308 -4.832181 64.722404 0.633863 0.069491 -0.770317 0.794704 0.217939 1 7 1.000000
  0 -1.926308 -5.355232 65.917831 0.012386 -0.990832 0.134535 0.827815 0.217939 1 7 1.000000
  0 -0.581994 -6.369903 66.212891 -0.432468 -0.892235 0.129953 0.827815 0.173508 1 7 1.000000
cobra_driver_helmet
  0 -0.581994 -5.602429 64.946388 0.954067 -0.105057 -0.280568 0.794704 0.173508 1 7 1.000000
  0 -0.581994 -6.272126 62.731716 0.939493 -0.184307 -0.288763 0.718238 0.173508 1 7 1.000000
  0 -1.926308 -5.501542 62.508888 0.662863 -0.272770 -0.697287 0.718277 0.217939 1 7 1.000000
cobra_driver_helmet
  0 -1.926308 -5.501542 62.508888 0.662863 -0.272770 -0.697287 0.718277 0.217939 1 7 1.000000
  0 -1.926308 -4.832181 64.722404 0.633863 0.069491 -0.770317 0.794704 0.217939 1 7 1.000000
  0 -0.581994 -5.602429 64.946388 0.954067 -0.105057 -0.280568 0.794704 0.173508 1 7 1.000000
cobra_driver_helmet
  0 -0.581994 -6.272126 62.731716 0.939493 -0.184307 -0.288763 0.718238 0.173508 1 7 1.000000
  0 -0.581993 -4.315330 60.767006 0.753382 0.624627 0.205564 0.673943 0.173508 1 7 1.000000
  0 -1.926308 -3.713280 61.569416 0.595566 -0.453824 0.662831 0.704965 0.217939 1 7 1.000000
cobra_driver_helmet
  0 -1.926308 -3.713280 61.569416 0.595566 -0.453824 0.662831 0.704965 0.217939 1 7 1.000000
  0 -1.926308 -5.501542 62.508888 0.662863 -0.272770 -0.697287 0.718277 0.217939 1 7 1.000000
  0 -0.581994 -6.272126 62.731716 0.939493 -0.184307 -0.288763 0.718238 0.173508 1 7 1.000000
cobra_driver_helmet
  0 -1.926308 -5.355232 65.917831 0.012386 -0.990832 0.134535 0.827815 0.217939 1 7 1.000000
  0 -1.926308 -4.832181 64.722404 0.633863 0.069491 -0.770317 0.794704 0.217939 1 7 1.000000
  0 -3.060723 -2.192436 63.534676 0.733332 -0.676632 0.066284 0.781371 0.255433 1 7 1.000000
cobra_driver_helmet
  0 -3.060723 -2.192436 63.534676 0.733332 -0.676632 0.066284 0.781371 0.255433 1 7 1.000000
  0 -3.060723 -3.039739 65.244499 0.804564 0.550717 -0.222236 0.827815 0.255433 1 7 1.000000
  0 -1.926308 -5.355232 65.917831 0.012386 -0.990832 0.134535 0.827815 0.217939 1 7 1.000000
cobra_driver_helmet
  0 -1.926308 -4.832181 64.722404 0.633863 0.069491 -0.770317 0.794704 0.217939 1 7 1.000000
  0 -1.926308 -5.501542 62.508888 0.662863 -0.272770 -0.697287 0.718277 0.217939 1 7 1.000000
  0 -3.060723 -2.484035 63.307465 0.210278 0.867002 0.451764 0.771469 0.255433 1 7 1.000000
cobra_driver_helmet
  0 -3.060723 -2.484035 63.307465 0.210278 0.867002 0.451764 0.771469 0.255433 1 7 1.000000
  0 -3.060723 -2.192436 63.534676 0.733332 -0.676632 0.066284 0.781371 0.255433 1 7 1.000000
  0 -1.926308 -4.832181 64.722404 0.633863 0.069491 -0.770317 0.794704 0.217939 1 7 1.000000
cobra_driver_helmet
  0 -1.926308 -3.713280 61.569416 0.595566 -0.453824 0.662831 0.704965 0.217939 1 7 1.000000
  0 -3.060723 -2.484035 63.307465 0.210278 0.867002 0.451764 0.771469 0.255433 1 7 1.000000
  0 -1.926308 -5.501542 62.508888 0.662863 -0.272770 -0.697287 0.718277 0.217939 1 7 1.000000
cobra_driver_helmet
  0 3.010121 -2.946970 64.174194 -0.328935 0.169520 -0.929013 0.794704 0.054785 1 7 1.000000
  0 3.241052 -2.192437 63.534676 0.894899 -0.318708 -0.312379 0.781371 0.047152 1 7 1.000000
  0 3.480154 -0.319749 66.060928 0.965371 0.239866 -0.102579 0.878828 0.039250 1 7 1.000000
cobra_driver_helmet
  0 3.480154 -0.319749 66.060928 0.965371 0.239866 -0.102579 0.878828 0.039250 1 7 1.000000
  0 3.458629 -0.750031 66.186050 -0.102850 0.104588 -0.989183 0.878828 0.039961 1 7 1.000000
  0 3.010121 -2.946970 64.174194 -0.328935 0.169520 -0.929013 0.794704 0.054785 1 7 1.000000
cobra_driver_helmet
  0 3.241052 -2.192437 63.534676 0.894899 -0.318708 -0.312379 0.781371 0.047152 1 7 1.000000
  0 3.241052 -3.039740 65.244499 0.759386 0.497993 0.418732 0.827815 0.047152 1 7 1.000000
  0 3.320976 -0.946450 66.813293 -0.225028 -0.973472 -0.041411 0.896922 0.044511 1 7 1.000000
cobra_driver_helmet
  0 3.320976 -0.946450 66.813293 -0.225028 -0.973472 -0.041411 0.896922 0.044511 1 7 1.000000
  0 3.480154 -0.319749 66.060928 0.965371 0.239866 -0.102579 0.878828 0.039250 1 7 1.000000
  0 3.241052 -2.192437 63.534676 0.894899 -0.318708 -0.312379 0.781371 0.047152 1 7 1.000000
cobra_driver_helmet
  0 3.241052 -3.039740 65.244499 0.759386 0.497993 0.418732 0.827815 0.047152 1 7 1.000000
  0 3.010121 -3.143390 64.801445 -0.327036 0.337279 -0.882774 0.812798 0.054785 1 7 1.000000
  0 3.320976 -0.946450 66.813293 -0.225028 -0.973472 -0.041411 0.896922 0.044511 1 7 1.000000
cobra_driver_helmet
  0 3.010121 -3.143390 64.801445 -0.327036 0.337279 -0.882774 0.812798 0.054785 1 7 1.000000
  0 3.010121 -2.946970 64.174194 -0.328935 0.169520 -0.929013 0.794704 0.054785 1 7 1.000000
  0 3.458629 -0.750031 66.186050 -0.102850 0.104588 -0.989183 0.878828 0.039961 1 7 1.000000
cobra_driver_helmet
  0 3.458629 -0.750031 66.186050 -0.102850 0.104588 -0.989183 0.878828 0.039961 1 7 1.000000
  0 3.320976 -0.946450 66.813293 -0.225028 -0.973472 -0.041411 0.896922 0.044511 1 7 1.000000
  0 3.010121 -3.143390 64.801445 -0.327036 0.337279 -0.882774 0.812798 0.054785 1 7 1.000000
cobra_driver_helmet
  0 -3.060723 -2.192436 63.534676 0.733332 -0.676632 0.066284 0.781371 0.255433 1 7 1.000000
  0 -2.829792 -2.946970 64.174194 -0.293480 -0.187453 0.937406 0.794704 0.247800 1 7 1.000000
  0 -3.358425 -0.750033 66.186050 -0.142687 -0.330621 0.932915 0.878828 0.265272 1 7 1.000000
cobra_driver_helmet
  0 -3.358425 -0.750033 66.186050 -0.142687 -0.330621 0.932915 0.878828 0.265272 1 7 1.000000
  0 -3.379949 -0.319751 66.060928 0.994625 -0.015719 0.102347 0.878828 0.265984 1 7 1.000000
  0 -3.060723 -2.192436 63.534676 0.733332 -0.676632 0.066284 0.781371 0.255433 1 7 1.000000
cobra_driver_helmet
  0 -2.829792 -2.946970 64.174194 -0.293480 -0.187453 0.937406 0.794704 0.247800 1 7 1.000000
  0 -2.829792 -3.143390 64.801437 -0.244442 0.026762 0.969295 0.812798 0.247800 1 7 1.000000
  0 -3.140646 -0.946453 66.813293 -0.228665 -0.223521 0.947497 0.896922 0.258074 1 7 1.000000
cobra_driver_helmet
  0 -3.140646 -0.946453 66.813293 -0.228665 -0.223521 0.947497 0.896922 0.258074 1 7 1.000000
  0 -3.358425 -0.750033 66.186050 -0.142687 -0.330621 0.932915 0.878828 0.265272 1 7 1.000000
  0 -2.829792 -2.946970 64.174194 -0.293480 -0.187453 0.937406 0.794704 0.247800 1 7 1.000000
cobra_driver_helmet
  0 -2.829792 -3.143390 64.801437 -0.244442 0.026762 0.969295 0.812798 0.247800 1 7 1.000000
  0 -3.060723 -3.039739 65.244499 0.804564 0.550717 -0.222236 0.827815 0.255433 1 7 1.000000
  0 -3.161291 -0.842802 67.256355 -0.288003 0.939812 0.183870 0.911939 0.258757 1 7 1.000000
cobra_driver_helmet
  0 -3.161291 -0.842802 67.256355 -0.288003 0.939812 0.183870 0.911939 0.258757 1 7 1.000000
  0 -3.140646 -0.946453 66.813293 -0.228665 -0.223521 0.947497 0.896922 0.258074 1 7 1.000000
  0 -2.829792 -3.143390 64.801437 -0.244442 0.026762 0.969295 0.812798 0.247800 1 7 1.000000
cobra_driver_helmet
  0 -3.060723 -3.039739 65.244499 0.804564 0.550717 -0.222236 0.827815 0.255433 1 7 1.000000
  0 -3.060723 -2.192436 63.534676 0.733332 -0.676632 0.066284 0.781371 0.255433 1 7 1.000000
  0 -3.379949 -0.319751 66.060928 0.994625 -0.015719 0.102347 0.878828 0.265984 1 7 1.000000
cobra_driver_helmet
  0 -3.379949 -0.319751 66.060928 0.994625 -0.015719 0.102347 0.878828 0.265984 1 7 1.000000
  0 -3.161291 -0.842802 67.256355 -0.288003 0.939812 0.183870 0.911939 0.258757 1 7 1.000000
  0 -3.060723 -3.039739 65.244499 0.804564 0.550717 -0.222236 0.827815 0.255433 1 7 1.000000
end
