
vertexlitgeneric
{

	$basetexture models/jessev92/characters/kl/suits/coat_d
	$bumpmap models/jessev92/characters/kl/suits/coat_b
	$lightwarptexture dev/identitylightwarp
	
	$halflambert 1
	$ambientocclusion 1

}
