
vertexlitgeneric
{

	$basetexture models/jessev92/characters/kl/suits/suit_shirt12_d
	$bumpmap models/jessev92/characters/kl/suits/suit_shirt_b
	$lightwarptexture dev/identitylightwarp
	
	$halflambert 1
	$ambientocclusion 1

}
