
vertexlitgeneric
{

	$basetexture models/jessev92/characters/kl/suits/suit_sheet11_d
	$bumpmap models/jessev92/characters/kl/suits/suit_sheet_b
	$lightwarptexture dev/identitylightwarp
	
	$halflambert 1
	$ambientocclusion 1

}
