
vertexlitgeneric
{

	$basetexture models/jessev92/characters/mgo/gear/chest_eep_b_d
	$bumpmap models/jessev92/characters/mgo/gear/chest_eep_b_b
	$lightwarptexture dev/identitylightwarp
	
	$halflambert 1
	$ambientocclusion 1
	
	$nocull 1
	// $translucent 1
	
	$phong 1
	$phongboost 0.05
	$phongexponent 5
 	$phongexponenttexture models/jessev92/characters/mgo/gear/chest_eep_b
	$phongfresnelranges "[ 0.15 0.5 1.0 ]"
	$phongalbedotint 1
	
	$proxytoggle 1
	Proxies
	{

		Equals
		{

			srcVar1 $proxytoggle // Disable Proxies
			resultVar $color // The shader parameter to be manipulated

		}

	}

}
