
//	Erdim Facemap 6
//	Texture @ HL2
//	Shaders @ Reverend V92
//	Creation: 2017/03/30
//	Update: 2018/10/01

vertexlitgeneric
{

	$basetexture models/jessev92/characters/hl2/male/facemaps/erdim_facemap6_d
	$bumpmap models/jessev92/characters/hl2/male/facemaps/erdim_facemap1_b
	$lightwarptexture dev/identitylightwarp

	$surfaceprop flesh
	$ambientocclusion 1
	$halflambert 1
	$nocull 0
	$nodecal 0
	$diffuseexp 1.5

	$phong 1
	$phongboost 1
	// $phongexponent 5
	$phongexponenttexture models/jessev92/characters/hl2/male/facemaps/erdim_facemap1_x
	$phongtint "[ 0.85 0.85 1 ]"
	$phongfresnelranges "[ 0.1 0.2 1 ]"
	
	$rimlight 1
	$rimlightexponent 2
	$rimlightboost 0.1
	
	$detail models/jessev92/detail/skin1
	$detailscale 8
	$detailblendfactor 0.5
	$detailblendmode 0

	$proxytoggle 1
	Proxies
	{

		Equals
		{

			srcVar1 $proxytoggle // Disable Proxies
			resultVar $color // The shader parameter to be manipulated

		}

	}

}
