
//	Van Facemap 6
//	Texture @ HL2
//	Shaders @ Reverend V92
//	Creation: 2017/03/30
//	Update: 2018/07/14

vertexlitgeneric
{

	$basetexture models/jessev92/characters/hl2/male/facemaps/van_facemap6_d
	$bumpmap models/jessev92/characters/hl2/male/facemaps/van_facemap1_b
	$lightwarptexture dev/identitylightwarp

	$surfaceprop flesh
	$ambientocclusion 1
	$halflambert 1
	$nocull 0
	$nodecal 0
	$diffuseexp 1.5

	$phong 1
	$phongboost 5
	// $phongexponent 5
	$phongexponenttexture models/jessev92/characters/hl2/male/facemaps/van_facemap1_x
	$phongtint "{ 150 120 120 }"
	$phongfresnelranges "[ 0.1 0.2 1 ]"
	
	$rimlight 1
	$rimlightexponent 3
	$rimlightboost 0.5
	
	$detail models/jessev92/detail/skin1
	$detailscale 12
	$detailblendfactor 1
	$detailblendmode 0

	$proxytoggle 1
	Proxies
	{

		Equals
		{

			srcVar1 $proxytoggle // Disable Proxies
			resultVar $color // The shader parameter to be manipulated

		}

	}

}
